<svg xmlns="http://www.w3.org/2000/svg" viewBox="0 0 1366 768">
  <defs>
    <style>
      .cls-1 {
        fill: #121628;
      }

      .cls-2 {
        fill: #d6fa12;
      }
    </style>
  </defs>
  <g id="Group_145" data-name="Group 145" transform="translate(-21446 -7250)">
    <rect id="Rectangle_1494" data-name="Rectangle 1494" class="cls-1" width="1366" height="768" transform="translate(21446 7250)"/>
    <path id="Intersection_4" data-name="Intersection 4" class="cls-2" d="M1680.3,768l37.959-57H1724v36.654L1710.451,768Zm-51.811,0,37.958-57H1696.6l-37.959,57Zm-51.812,0,37.959-57h30.148l-37.959,57Zm-51.811,0,37.959-57h30.146l-37.959,57Zm-51.812,0,37.959-57h30.147l-37.959,57Zm-51.812,0,37.959-57h30.148l-37.959,57Zm-51.811,0,37.959-57h30.147l-37.959,57Zm-51.812,0,37.959-57h30.148l-37.959,57Zm-51.811,0,37.958-57h30.148l-37.959,57ZM1214,768l37.958-57H1282.1l-37.959,57Zm-51.812,0,37.959-57h30.146l-37.959,57Zm-51.812,0,37.959-57h30.147l-37.959,57Zm-51.811,0,37.959-57h30.147l-37.959,57Zm-51.812,0,37.959-57h30.148L1036.9,768Zm-51.812,0L992.9,711h30.148l-37.959,57Zm-51.81,0,37.958-57h30.147l-37.959,57Zm-51.812,0,37.959-57h30.148l-37.959,57Zm-51.812,0,37.959-57h30.147l-37.958,57Zm-51.811,0,37.959-57H815.8l-37.959,57Zm-51.812,0,37.959-57h30.148L726.03,768Zm-51.812,0,37.959-57h30.148l-37.959,57Zm-51.81,0,37.959-57h30.147l-37.959,57Zm-51.812,0,37.958-57h30.147l-37.959,57Zm-51.812,0,37.959-57h30.148l-37.959,57Zm-51.812,0,37.959-57H504.93l-37.959,57Zm-51.811,0,37.959-57h30.146l-37.959,57ZM358,768v-37.24L371.159,711h30.148l-37.959,57Z" transform="translate(21088 7250)"/>
  </g>
</svg>
