<?xml version="1.0" encoding="UTF-8"?>
<!DOCTYPE svg PUBLIC "-//W3C//DTD SVG 1.1//EN" "http://www.w3.org/Graphics/SVG/1.1/DTD/svg11.dtd">
<!-- Creator: CorelDRAW -->
<svg xmlns="http://www.w3.org/2000/svg" xml:space="preserve" width="6.82666in" height="6.82666in" style="shape-rendering:geometricPrecision; text-rendering:geometricPrecision; image-rendering:optimizeQuality; fill-rule:evenodd; clip-rule:evenodd"
viewBox="0 0 6.82666 6.82666"
 xmlns:xlink="http://www.w3.org/1999/xlink">
 <defs>
  <style type="text/css">
   <![CDATA[
    .fil0 {fill:#424242}
    .fil1 {fill:#FFFFFE}
   ]]>
  </style>
 </defs>
 <rect class="fil0" width="6.82666" height="6.82666"/>
 <g id="Layer_x0020_1">
  <metadata id="CorelCorpID_0Corel-Layer"/>
  <path class="fil1" d="M3.42595 0.999807c-0.0132402,-0.00259449 -0.0277126,0.000866142 -0.0400669,0.00520866l-0.900157 0.316307 2.52784 0.984965 0.930142 -0.326843c0.0240315,-0.0120276 0.0357559,-0.039937 0.0264016,-0.0654764 -0.00662992,-0.0180945 -0.0247677,-0.0288701 -0.0423661,-0.0350551l-2.5018 -0.879106zm-1.40741 0.485681l-1.13558 0.399035c-0.0240315,0.0120276 -0.0357559,0.039937 -0.0264016,0.0654764 0.00662992,0.0180945 0.0247677,0.0288701 0.0423661,0.0350551l2.5018 0.879102c0.0132402,0.00259449 0.0277126,-0.000866142 0.0400669,-0.00520866l1.03343 -0.363138 -2.45568 -1.01032z"/>
  <path class="fil1" d="M3.35886 2.94778l0 2.78567 3.93701e-006 0.000346457 0 -2.78601 -3.93701e-006 0zm0.108941 2.82317l2.47155 -0.866177c0.0213307,-0.00850394 0.0339685,-0.0292835 0.0339685,-0.0516535l0 -2.78708c-0.00554331,0.00312598 -0.0114488,0.0058189 -0.017685,0.00800787l-0.00019685 -0.000397638 -0.912307 0.320575 0.014185 0.719402c0,0.0350039 -0.0186457,0.0668898 -0.0538661,0.0780787l-0.376917 0.119965c-0.0475039,0.0150906 -0.108732,-0.0137992 -0.108732,-0.066626l-0.0126969 -0.66176 -1.0373 0.364496 0 2.82317z"/>
  <path class="fil1" d="M0.887311 4.90478l2.47289 0.868528c-0.0011378,-0.00617323 -0.00172835,-0.0125315 -0.00172835,-0.0190236l0 -2.8048 -2.47795 -0.872555c-0.0095315,-0.0024252 -0.0186772,-0.00610236 -0.0271811,-0.0109055l0 2.78711c0,0.0223701 0.0126378,0.0431496 0.0339685,0.0516535z"/>
 </g>
</svg>
