<?xml version="1.0" encoding="UTF-8"?>
<!DOCTYPE svg PUBLIC "-//W3C//DTD SVG 1.1//EN" "http://www.w3.org/Graphics/SVG/1.1/DTD/svg11.dtd">
<!-- Creator: CorelDRAW -->
<svg xmlns="http://www.w3.org/2000/svg" xml:space="preserve" width="6.82666in" height="6.82666in" style="shape-rendering:geometricPrecision; text-rendering:geometricPrecision; image-rendering:optimizeQuality; fill-rule:evenodd; clip-rule:evenodd"
viewBox="0 0 6.82666 6.82666"
 xmlns:xlink="http://www.w3.org/1999/xlink">
 <defs>
  <style type="text/css">
   <![CDATA[
    .fil0 {fill:#424242}
    .fil1 {fill:#FFFFFE}
   ]]>
  </style>
 </defs>
 <rect class="fil0" width="6.82666" height="6.82666"/>
 <g id="Layer_x0020_1">
  <metadata id="CorelCorpID_0Corel-Layer"/>
  <g id="_459781792">
   <path id="_459781888" class="fil1" d="M5.08046 4.58013l-1.62502 0.582878c0.000748031,-0.00414173 0.00113386,-0.00840945 0.00113386,-0.0127677l0 -1.8934 0.894988 0.319551 0.75122 -0.270228 0 1.2393c0,0.0150157 -0.00830315,0.0289606 -0.0223189,0.0346693z"/>
   <path id="_459781576" class="fil1" d="M1.7462 4.58091l1.62502 0.582874c-0.000751969,-0.00414173 -0.00113386,-0.00840551 -0.00113386,-0.0127677l0 -1.89418 -0.894992 0.319551 -0.75122 -0.270224 0 1.24007c0,0.0150157 0.00830709,0.0289606 0.0223228,0.0346693z"/>
   <path id="_459781480" class="fil1" d="M2.47522 1.66288l0.93811 0.334949 0.938106 -0.334949 1.62189 0.583421 -0.941476 0.320496 0.941476 0.320492 -1.62189 0.583421 -0.938106 -0.334945 -0.93811 0.334945 -1.62189 -0.583421 0.94148 -0.320492 -0.94148 -0.320496 1.62189 -0.583421zm2.54328 0.903917l-1.60517 -0.566937 -1.60517 0.566937 1.60517 0.566937 1.60517 -0.566937z"/>
  </g>
 </g>
</svg>
