<?xml version="1.0" encoding="UTF-8"?>
<!DOCTYPE svg PUBLIC "-//W3C//DTD SVG 1.1//EN" "http://www.w3.org/Graphics/SVG/1.1/DTD/svg11.dtd">
<!-- Creator: CorelDRAW -->
<svg xmlns="http://www.w3.org/2000/svg" xml:space="preserve" width="6.82666in" height="6.82666in" style="shape-rendering:geometricPrecision; text-rendering:geometricPrecision; image-rendering:optimizeQuality; fill-rule:evenodd; clip-rule:evenodd"
viewBox="0 0 6.82666 6.82666"
 xmlns:xlink="http://www.w3.org/1999/xlink">
 <defs>
  <style type="text/css">
   <![CDATA[
    .fil0 {fill:#424242}
    .fil1 {fill:#FFFFFE}
   ]]>
  </style>
 </defs>
 <rect class="fil0" width="6.82666" height="6.82666"/>
 <g id="Layer_x0020_1">
  <metadata id="CorelCorpID_0Corel-Layer"/>
  <g id="_459775288">
   <path id="_459775744" class="fil1" d="M3.42595 0.976272c-0.0132402,-0.00264961 -0.0277126,0.000885827 -0.0400669,0.0053189l-0.900157 0.323035 2.52784 1.00591 0.930142 -0.333791c0.0240315,-0.0122835 0.0357559,-0.0407874 0.0264016,-0.0668701 -0.00662992,-0.0184803 -0.0247677,-0.0294843 -0.0423661,-0.0357992l-2.5018 -0.897807zm-1.40741 0.496012l-1.13558 0.407524c-0.0240315,0.0122835 -0.0357559,0.0407874 -0.0264016,0.0668701 0.00662992,0.0184764 0.0247677,0.0294843 0.0423661,0.0357992l2.5018 0.897799c0.0132402,0.00264961 0.0277126,-0.00088189 0.0400669,-0.0053189l1.03343 -0.370862 -2.45568 -1.03181z"/>
   <path id="_459775528" class="fil1" d="M3.35886 2.96568l0 2.84491 3.93701e-006 0.000354331 0 -2.84527 -3.93701e-006 0zm0.108941 2.88322l2.47155 -0.884602c0.0213307,-0.00868504 0.0339685,-0.0299055 0.0339685,-0.052752l0 -2.84635c-0.00554331,0.00318898 -0.0114488,0.00594094 -0.017685,0.00817717l-0.00019685 -0.000405512 -0.912307 0.32739 0.014185 0.734705c0,0.035748 -0.0186457,0.068311 -0.0538661,0.0797402l-0.376917 0.122516c-0.0475039,0.0154094 -0.108732,-0.0140945 -0.108732,-0.0680433l-0.0126969 -0.675835 -1.0373 0.372248 0 2.88322z"/>
   <path id="_459775408" class="fil1" d="M0.887311 4.9643l2.47289 0.887004c-0.0011378,-0.00630709 -0.00172835,-0.0127992 -0.00172835,-0.0194291l0 -2.86446 -2.47795 -0.891114c-0.0095315,-0.00247638 -0.0186772,-0.00623228 -0.0271811,-0.0111378l0 2.84639c0,0.0228465 0.0126378,0.0440669 0.0339685,0.052752zm0.84222 -1.37391l0.0213701 0.00878346 0 -0.115142c0,-0.0331535 0.00596063,-0.0633386 0.016752,-0.0895827 0.0130866,-0.0318386 0.0333583,-0.0574449 0.0590079,-0.0754134 0.0263504,-0.0184764 0.0574055,-0.0284173 0.0912756,-0.0284173 0.0239803,0 0.0495591,0.00514173 0.0759331,0.0159803l0.208587 0.0857402c0.0568386,0.0233583 0.107713,0.0705157 0.143866,0.127642 0.0356693,0.0563661 0.0578228,0.1235 0.0578228,0.187791l0 0.159917 0.0626535 0.0257559c0.0376063,0.0154567 0.0709961,0.0462205 0.0944764,0.0833189 0.0229882,0.0363386 0.0372717,0.0797992 0.0372717,0.121602l0 0.457854c0,0.0222441 -0.00411417,0.0427717 -0.0115433,0.0608583 -0.00929921,0.0226299 -0.023874,0.040937 -0.0423976,0.0539213 -0.0192402,0.0134843 -0.0417638,0.020748 -0.066189,0.020748 -0.0167677,0 -0.0345827,-0.00357874 -0.0528937,-0.0111024l-0.737268 -0.303055c-0.0376063,-0.0154606 -0.0709961,-0.0462244 -0.0944764,-0.0833228 -0.0229921,-0.0363346 -0.0372717,-0.0797953 -0.0372717,-0.121598l0 -0.457854c0,-0.022248 0.0041063,-0.0427677 0.0115433,-0.0608583 0.00929921,-0.0226299 0.0238701,-0.040937 0.0423976,-0.0539213 0.0192402,-0.0134882 0.0417598,-0.020748 0.066185,-0.020748 0.0167677,0 0.0345827,0.0035748 0.0528976,0.0111024zm0.130307 0.053563l0.435366 0.178961 0 -0.115142c0,-0.0436339 -0.015626,-0.0901457 -0.0407992,-0.129917 -0.0246811,-0.0390039 -0.057752,-0.0705157 -0.0932283,-0.0850945l-0.208583 -0.0857362c-0.0123189,-0.00506299 -0.0239803,-0.0074685 -0.0346575,-0.0074685 -0.0114449,0 -0.0213504,0.00294882 -0.0291496,0.00841339 -0.00851575,0.00596457 -0.015626,0.0153819 -0.0207126,0.0277559 -0.00530315,0.0129016 -0.00823622,0.0291102 -0.00823622,0.0483071l0 0.159921zm0.209465 0.301232c0.0342283,0.0140709 0.0646614,0.0405709 0.0861654,0.0720315 0.0217756,0.0318504 0.035248,0.0697874 0.035248,0.106236 0,0.0180787 -0.00338189,0.0348858 -0.00957087,0.0499331 -0.00843307,0.0205197 -0.0220354,0.0369606 -0.0395315,0.0484921 -0.0120709,0.00796063 -0.0255433,0.0133465 -0.0400039,0.0158937l0 0.0891417c0,0.0287244 -0.0232874,0.0520157 -0.0520157,0.0520157 -0.0287244,0 -0.0520118,-0.0232913 -0.0520118,-0.0520157l0 -0.116063c-0.0209449,-0.0143898 -0.0394173,-0.0332874 -0.0538583,-0.0544213 -0.0217756,-0.0318386 -0.0352441,-0.0697717 -0.0352441,-0.106232 0,-0.0180827 0.00337402,-0.0348858 0.00957087,-0.049937 0.00843307,-0.0205118 0.0220354,-0.0369567 0.0395315,-0.0484921 0.0173661,-0.0114528 0.0376378,-0.0175827 0.0595866,-0.0175827 0.0163858,0 0.0339843,0.00354331 0.0521339,0.011z"/>
  </g>
 </g>
</svg>
