<?xml version="1.0" encoding="UTF-8"?>
<!DOCTYPE svg PUBLIC "-//W3C//DTD SVG 1.1//EN" "http://www.w3.org/Graphics/SVG/1.1/DTD/svg11.dtd">
<!-- Creator: CorelDRAW -->
<svg xmlns="http://www.w3.org/2000/svg" xml:space="preserve" width="6.82666in" height="6.82666in" style="shape-rendering:geometricPrecision; text-rendering:geometricPrecision; image-rendering:optimizeQuality; fill-rule:evenodd; clip-rule:evenodd"
viewBox="0 0 6.82666 6.82666"
 xmlns:xlink="http://www.w3.org/1999/xlink">
 <defs>
  <style type="text/css">
   <![CDATA[
    .fil0 {fill:#424242}
    .fil1 {fill:#FFFFFE;fill-rule:nonzero}
   ]]>
  </style>
 </defs>
 <rect class="fil0" width="6.82666" height="6.82666"/>
 <g id="Layer_x0020_1">
  <metadata id="CorelCorpID_0Corel-Layer"/>
  <g id="_460867328">
   <g>
    <path id="_460869344" class="fil1" d="M3.93961 2.41715c0.412362,0 0.785697,0.167154 1.05594,0.437398 0.270244,0.270244 0.437398,0.643587 0.437398,1.05594 0,0.412362 -0.167154,0.785697 -0.437398,1.05594 -0.270244,0.270244 -0.643579,0.437398 -1.05594,0.437398 -0.412354,0 -0.785697,-0.167154 -1.05594,-0.437398 -0.270244,-0.270244 -0.437398,-0.643579 -0.437398,-1.05594 0,-0.412354 0.167154,-0.785697 0.437398,-1.05594 0.270244,-0.270244 0.643587,-0.437398 1.05594,-0.437398zm0.905106 0.588232c-0.231626,-0.231626 -0.55163,-0.374894 -0.905106,-0.374894 -0.353472,0 -0.67348,0.143268 -0.905106,0.374894 -0.231626,0.231626 -0.374894,0.551634 -0.374894,0.905106 0,0.353476 0.143268,0.67348 0.374894,0.905106 0.231626,0.231626 0.551634,0.374894 0.905106,0.374894 0.353476,0 0.67348,-0.143268 0.905106,-0.374894 0.231626,-0.231626 0.374894,-0.55163 0.374894,-0.905106 0,-0.353472 -0.143268,-0.67348 -0.374894,-0.905106z"/>
    <path id="_460869104" class="fil1" d="M5.01591 4.8394c-0.0414213,-0.0416496 -0.108768,-0.0418386 -0.150417,-0.000417323 -0.0416496,0.0414213 -0.0418386,0.108768 -0.000417323,0.150417l0.91913 0.920189c0.0414213,0.0416496 0.108768,0.0418386 0.150417,0.000417323 0.0416496,-0.0414213 0.0418386,-0.108768 0.000417323,-0.150417l-0.91913 -0.920189z"/>
    <g>
     <g>
      <polygon id="_460869032" class="fil1" points="2.04137,0.885717 2.04137,4.37007 2.10345,4.37007 2.10345,0.885717 "/>
      <polygon id="_460868792" class="fil1" points="1.85665,0.885717 1.85665,4.37007 1.96231,4.37007 1.96231,0.885717 "/>
     </g>
     <g>
      <path id="_460868984" class="fil1" d="M3.733 0.885717l0 1.43807c0.0206142,-0.00266535 0.041311,-0.00493701 0.0620827,-0.00680709l0 -1.43127 -0.0620827 0z"/>
      <path id="_460868744" class="fil1" d="M3.54828 0.885717l0 1.47308c0.0348858,-0.00877165 0.0701299,-0.0163543 0.105661,-0.0227677l0 -1.45031 -0.105661 0z"/>
     </g>
     <g>
      <path id="_460868816" class="fil1" d="M4.35845 0.885717l0 1.48028c0.0208268,0.00563386 0.0415276,0.0116732 0.0620827,0.0181378l0 -1.49842 -0.0620827 0z"/>
      <path id="_460868528" class="fil1" d="M4.17373 0.885717l0 1.44186c0.0355079,0.00521654 0.0707441,0.0116299 0.105665,0.019185l0 -1.46104 -0.105665 0z"/>
     </g>
     <polygon id="_460868504" class="fil1" points="1.06385,0.885717 1.06385,4.86784 0.860673,4.86784 0.860673,0.885717 "/>
     <path id="_460868696" class="fil1" d="M2.72793 0.885717l0 1.97983c-0.0904843,0.104776 -0.166287,0.219882 -0.226209,0.342402l0 -2.32223 0.226209 0z"/>
     <polygon id="_460868096" class="fil1" points="1.69073,0.885717 1.69073,4.37007 1.52481,4.37007 1.52481,0.885717 "/>
     <path id="_460868048" class="fil1" d="M2.22893 0.885717l0 3.48436 0.165929 0 0 -0.0417126c-0.0363819,-0.134854 -0.055252,-0.275181 -0.055252,-0.417874 0,-0.142693 0.0188701,-0.283016 0.055252,-0.417874l0 -2.6069 -0.165929 0z"/>
     <path id="_460868336" class="fil1" d="M3.01811 0.885717l0 1.71658c-0.0578976,0.0408661 -0.113339,0.0857638 -0.165925,0.13452l0 -1.8511 0.165925 0z"/>
     <path id="_460868216" class="fil1" d="M3.45382 0.885717l0 1.49995c-0.0967559,0.0307756 -0.190315,0.070748 -0.279508,0.119382l0 -1.61933 0.279508 0z"/>
     <path id="_460868672" class="fil1" d="M4.01365 0.885717l0 1.42649c-0.0245984,-0.00112598 -0.0492795,-0.00172047 -0.0740394,-0.00172047 -0.030748,0 -0.0613858,0.000905512 -0.0918858,0.00264173l0 -1.42741 0.165925 0z"/>
     <path id="_460868264" class="fil1" d="M4.12788 0.885717l0 1.43581c-0.0140591,-0.00165354 -0.0281535,-0.00312205 -0.0422835,-0.00440945l0 -1.4314 0.0422835 0z"/>
     <path id="_460868024" class="fil1" d="M4.67735 0.885717l0 1.60463c-0.0538701,-0.0280197 -0.109268,-0.0529055 -0.165925,-0.0745709l0 -1.53006 0.165925 0z"/>
     <path id="_460867880" class="fil1" d="M1.26801 4.67622l-0.0640433 -0.0115709c0.00720079,-0.025811 0.0195512,-0.0448425 0.037126,-0.0572717 0.0176614,-0.0123465 0.0437205,-0.0186063 0.0783583,-0.0186063 0.0315512,0 0.0549567,0.00377559 0.0703898,0.0112323 0.0153504,0.00745669 0.0262362,0.0168858 0.0324961,0.028378 0.00625984,0.0114882 0.00943307,0.0324961 0.00943307,0.063189l-0.000771654 0.0823937c0,0.0234016 0.00111024,0.0407244 0.00342913,0.0518701 0.00222441,0.0110551 0.00651181,0.0230591 0.0126811,0.035748l-0.0698701 0c-0.00179921,-0.00471654 -0.00411417,-0.0116614 -0.00677559,-0.0208346 -0.00111024,-0.00419685 -0.0019685,-0.00694488 -0.00248425,-0.00831496 -0.0120906,0.0117441 -0.0249488,0.0204882 -0.0386654,0.0264055 -0.0137205,0.00583071 -0.0283819,0.00874409 -0.0439843,0.00874409 -0.0274331,0 -0.049122,-0.00745669 -0.0649016,-0.0222874 -0.0158583,-0.0149213 -0.023748,-0.0337835 -0.023748,-0.0565906 0,-0.015 0.00360236,-0.0284606 0.0108031,-0.0402913 0.00720472,-0.0118307 0.0173189,-0.0208346 0.0302638,-0.0270945 0.0129488,-0.00625984 0.0317244,-0.0117441 0.0561575,-0.0164606 0.0329252,-0.00616929 0.055815,-0.012 0.0685039,-0.017315l0 -0.00703543c0,-0.0136299 -0.00334646,-0.0232362 -0.0100315,-0.029063 -0.00668898,-0.00574409 -0.0192953,-0.00865748 -0.0378976,-0.00865748 -0.0126024,0 -0.022378,0.00248425 -0.0294055,0.00745669 -0.0070315,0.00488583 -0.012689,0.0135472 -0.017063,0.0259764zm0.0943976 0.0572756c-0.00900394,0.003 -0.0233228,0.00660236 -0.0429567,0.0108031 -0.0195472,0.00420079 -0.0323228,0.0083189 -0.0384094,0.0122598 -0.00917717,0.00659843 -0.0138031,0.0148307 -0.0138031,0.0248583 0,0.00994882 0.00368898,0.018437 0.011063,0.0256378 0.00737008,0.00720472 0.0167165,0.0108031 0.028122,0.0108031 0.0127717,0 0.0248622,-0.00420472 0.036437,-0.0125197 0.00857087,-0.00634252 0.0141457,-0.0141457 0.0168031,-0.0234055 0.00188583,-0.00599606 0.00274409,-0.0174882 0.00274409,-0.034378l0 -0.0140591zm0.190894 0.128087l0 -0.368232 0.0705591 0 0 0.13263c0.0217756,-0.0247717 0.0474961,-0.0372087 0.0773346,-0.0372087 0.0324961,0 0.0593307,0.0118346 0.0806732,0.0353228 0.0212638,0.0234921 0.0318976,0.0572717 0.0318976,0.101343 0,0.0455236 -0.0108898,0.0806732 -0.0325787,0.105283 -0.021689,0.0246024 -0.0480118,0.0368622 -0.0789646,0.0368622 -0.0152638,0 -0.0302638,-0.00376772 -0.0450984,-0.0114016 -0.0148307,-0.00762992 -0.0276063,-0.0188622 -0.0383228,-0.0337795l0 0.0391811 -0.0655 0zm0.0700433 -0.139146c0,0.0276063 0.00437402,0.0480079 0.0130315,0.0612992 0.0122638,0.0187756 0.0284646,0.028122 0.0487874,0.028122 0.0155157,0 0.0288071,-0.00668898 0.0397795,-0.0199764 0.0109724,-0.0132913 0.0164606,-0.0342953 0.0164606,-0.0629291 0,-0.0304409 -0.00557087,-0.0524724 -0.0166339,-0.0659331 -0.0109724,-0.0134606 -0.0251181,-0.0202323 -0.042437,-0.0202323 -0.0168937,0 -0.0309528,0.00659843 -0.042185,0.0197165 -0.0112283,0.0132047 -0.0168031,0.0330945 -0.0168031,0.0599331zm0.534693 -0.0487008l-0.0696142 0.0125197c-0.00231496,-0.0138937 -0.00762992,-0.0243504 -0.0159449,-0.0313819 -0.00832283,-0.0070315 -0.0190394,-0.0105433 -0.0322402,-0.0105433 -0.0176614,0 -0.0316378,0.00608268 -0.0420945,0.0181732 -0.0104606,0.0121732 -0.0156929,0.0324961 -0.0156929,0.0609606 0,0.0316378 0.00531496,0.0540118 0.0159488,0.0670433 0.0106299,0.0130315 0.0248622,0.0195472 0.0427795,0.0195472 0.0134646,0 0.0243504,-0.00377165 0.0329252,-0.0114016 0.0085748,-0.00762992 0.0145748,-0.020748 0.0180906,-0.0392638l0.0693583 0.0117441c-0.00720079,0.0318031 -0.0210906,0.0558976 -0.0414961,0.0721024 -0.0204016,0.0162913 -0.047752,0.0243465 -0.0821339,0.0243465 -0.0390118,0 -0.0701299,-0.0122598 -0.0932795,-0.0368622 -0.0232362,-0.0246102 -0.0348071,-0.0587323 -0.0348071,-0.102283 0,-0.0439843 0.0116614,-0.0782756 0.0348937,-0.102799 0.0233189,-0.0246063 0.0547795,-0.0368661 0.0944803,-0.0368661 0.0324921,0 0.0582992,0.00703543 0.0775079,0.0210079 0.0191181,0.0139724 0.0329173,0.0353189 0.0413189,0.0639567zm0.416807 0.187846l-0.0705591 0 0 -0.243374c0.0215236,0.0436102 0.0450551,0.0862835 0.0705591,0.127866l0 0.115508zm-0.0782362 -0.25915c-0.0240906,0.0207008 -0.0518898,0.0362402 -0.0834606,0.0466102l0 -0.0640433c0.0183031,-0.00598425 0.038311,-0.0173465 0.0598543,-0.0340827 0.00755906,0.0173071 0.0154291,0.0344803 0.0236063,0.0515157z"/>
     <g>
      <polygon id="_460867736" class="fil1" points="1.25504,0.885717 1.25504,4.37007 1.19296,4.37007 1.19296,0.885717 "/>
      <polygon id="_460867520" class="fil1" points="1.43976,0.885717 1.43976,4.37007 1.3341,4.37007 1.3341,0.885717 "/>
     </g>
    </g>
   </g>
   <path id="_460867472" class="fil1" d="M5.21388 5.63251l9.05512e-005 -7.48031e-005 0.33622 0.339783 0.425843 0 0 -0.409587 -0.338669 -0.342256c-0.00109055,-0.0012126 -0.00220866,-0.00240551 -0.00336614,-0.00357087 -0.121059,-0.12235 -0.540063,0.294484 -0.420118,0.415705z"/>
  </g>
 </g>
</svg>
