<?xml version="1.0" encoding="UTF-8"?>
<!DOCTYPE svg PUBLIC "-//W3C//DTD SVG 1.1//EN" "http://www.w3.org/Graphics/SVG/1.1/DTD/svg11.dtd">
<!-- Creator: CorelDRAW -->
<svg xmlns="http://www.w3.org/2000/svg" xml:space="preserve" width="6.82666in" height="6.82666in" style="shape-rendering:geometricPrecision; text-rendering:geometricPrecision; image-rendering:optimizeQuality; fill-rule:evenodd; clip-rule:evenodd"
viewBox="0 0 6.82666 6.82666"
 xmlns:xlink="http://www.w3.org/1999/xlink">
 <defs>
  <style type="text/css">
   <![CDATA[
    .fil0 {fill:#424242}
    .fil2 {fill:#FFFFFE}
    .fil1 {fill:#FFFFFE;fill-rule:nonzero}
   ]]>
  </style>
 </defs>
 <rect class="fil0" width="6.82666" height="6.82666"/>
 <g id="Layer_x0020_1">
  <metadata id="CorelCorpID_0Corel-Layer"/>
  <g id="_460869992">
   <path id="_460870592" class="fil1" d="M3.48701 1.59725c0.470406,0.0135945 0.895059,0.209799 1.2055,0.520236 0.0131063,0.0131024 0.0259961,0.0264291 0.0386811,0.0399409 -0.0425669,0.0236024 -0.130386,0.072252 -0.13837,0.0764646 -0.120075,0.0633189 -0.249811,0.112106 -0.381299,0.149224 -0.0307795,-0.0878937 -0.0665433,-0.172858 -0.107681,-0.253453 -0.125213,-0.245291 -0.33372,-0.503146 -0.616827,-0.531839l0 -0.000574803zm0.622992 0.812213c-0.00894882,0.00212598 -0.0179016,0.00420079 -0.0268465,0.00622835 -0.194795,0.0441142 -0.396201,0.0663425 -0.596146,0.0697244l0 -0.779043c0.24061,0.0304528 0.419024,0.266386 0.524665,0.47335 0.0373583,0.073185 0.0700118,0.150165 0.0983268,0.22974zm-0.727642 0.0760354c-0.200343,-0.00309449 -0.40226,-0.0247913 -0.597402,-0.0692047 -0.00862205,-0.00196063 -0.0172441,-0.00398031 -0.0258701,-0.00604724 0.0283819,-0.0798504 0.061122,-0.157098 0.0986063,-0.230524 0.105642,-0.206965 0.284055,-0.442898 0.524665,-0.47335l0 0.779126zm-0.724661 -0.101949c-0.124516,-0.0358031 -0.247346,-0.0823228 -0.362213,-0.138937 -0.0122126,-0.00601575 -0.101413,-0.0586732 -0.154776,-0.0898661 0.0118819,-0.0125827 0.0239134,-0.0250236 0.0361535,-0.0372598 0.310437,-0.310437 0.735091,-0.506642 1.2055,-0.520236l0 0.000574803c-0.283106,0.0286929 -0.491614,0.286547 -0.616827,0.531839 -0.0412087,0.0807244 -0.0770197,0.165839 -0.107835,0.253886zm2.14408 -0.146398c0.246681,0.295969 0.399043,0.673303 0.410965,1.08583l-0.844992 0c-0.00421654,-0.275563 -0.0419843,-0.569165 -0.12402,-0.840909 0.138366,-0.0393504 0.274748,-0.0910984 0.401012,-0.158043 0.00925591,-0.00490157 0.136606,-0.0755394 0.157035,-0.086874zm-0.538677 1.08583l-0.776091 0 0 -0.732906c0.207591,-0.00348819 0.416563,-0.0270709 0.618815,-0.0728701 0.0122756,-0.00277953 0.0245591,-0.00565354 0.0368425,-0.00861417 0.0799882,0.262791 0.116264,0.547531 0.120433,0.81439zm-0.88074 0l-0.776091 0c0.00416535,-0.266559 0.0403622,-0.550957 0.120165,-0.813512 0.0119173,0.00285433 0.0238346,0.00562992 0.035752,0.00831496 0.20272,0.0456969 0.412157,0.0691102 0.620173,0.0723543l0 0.732843zm-0.88074 0l-0.321035 0c-0.165417,-0.10274 -0.328535,-0.212315 -0.483472,-0.330106 0.0622835,-0.28426 0.19252,-0.543083 0.372862,-0.758555 0.047063,0.0275118 0.163862,0.096815 0.178886,0.104413 0.119421,0.060378 0.247079,0.107776 0.376476,0.144366 -0.0818307,0.271457 -0.119508,0.564657 -0.123717,0.839882zm2.71112 0.10465c-0.0113189,0.391752 -0.149327,0.751736 -0.374453,1.04048 -0.0252402,-0.00604331 -0.0504567,-0.0122795 -0.0756417,-0.0186929 -0.0451063,-0.0250039 -0.111327,-0.061685 -0.117906,-0.0651693 -0.12278,-0.0650984 -0.255126,-0.115835 -0.389571,-0.154764 0.0741339,-0.260677 0.108563,-0.539441 0.112579,-0.801854l0.844992 0zm-1.05842 0.774898c-0.0161693,-0.00397638 -0.0323346,-0.00779921 -0.0484961,-0.0114606 -0.0912205,-0.0206535 -0.183811,-0.0367913 -0.27702,-0.0486024 -0.11478,-0.0449567 -0.228744,-0.0920906 -0.341795,-0.141142l0 -0.573693 0.776091 0c-0.00395669,0.253543 -0.0368976,0.523224 -0.10878,0.774898zm-1.31137 -0.029c-0.0270276,0.00526772 -0.0539528,0.0109173 -0.0807638,0.0169606 -0.0157953,0.00355906 -0.0316063,0.00727165 -0.0474016,0.0111339 -0.0099685,-0.0349606 -0.019189,-0.0702717 -0.0276811,-0.105831 0.0517559,0.0263268 0.103709,0.0522402 0.155846,0.0777362zm-0.231177 -0.599272c-0.00293701,-0.0493031 -0.00474803,-0.0982598 -0.00550394,-0.146626l0.776091 0 0 0.52763c-0.0475197,-0.0212126 -0.0948701,-0.0427638 -0.142043,-0.0646181 -0.212543,-0.0984764 -0.422685,-0.203728 -0.628543,-0.316386zm0.00212598 0.654177c-0.12548,0.0361378 -0.249138,0.0825079 -0.365039,0.14111 -0.0178543,0.00902362 -0.179449,0.105201 -0.196913,0.114819 -0.00187795,0.00103543 -0.00366535,0.00216142 -0.00536614,0.00338583 -0.221795,-0.276406 -0.362724,-0.620457 -0.386953,-0.996291 0.138398,0.0954252 0.280654,0.185579 0.423689,0.27122 0.158205,0.0947244 0.319496,0.184882 0.483059,0.270732 0.0135394,0.0657559 0.0293268,0.130937 0.0475236,0.195024zm-0.260311 -0.800803l0.148031 0c0.000440945,0.0287441 0.00124803,0.0576811 0.00242913,0.0867717 -0.0504449,-0.0284606 -0.100606,-0.0573858 -0.150461,-0.0867717zm2.12654 1.38699c-0.280327,0.203965 -0.62252,0.328039 -0.993122,0.338748l0 -0.000574803c0.258465,-0.0261969 0.454736,-0.24339 0.582228,-0.467657l0.000791339 0.000271654c0.134815,0.0462126 0.271811,0.0898583 0.410102,0.129213zm-0.993122 0.229626l0 -0.57985c0.158925,0.0658661 0.319465,0.127921 0.481366,0.185504 -0.108213,0.184063 -0.27102,0.367724 -0.481366,0.394346zm-0.10465 0.109122c-0.470406,-0.0135945 -0.895059,-0.209799 -1.2055,-0.520236 -0.0210787,-0.0210748 -0.0416024,-0.042689 -0.0616024,-0.0647953 0.0427283,-0.0246614 0.165728,-0.0975315 0.180224,-0.104677 0.110835,-0.054622 0.229079,-0.0998504 0.349106,-0.135118 0.0336299,0.101768 0.073752,0.199965 0.120941,0.292413 0.125213,0.245295 0.33372,0.503146 0.616827,0.531839l0 0.000574803zm-0.63674 -0.852075c0.0131102,-0.00322441 0.0262244,-0.00632677 0.0393386,-0.00931496 0.0727992,-0.0165669 0.146539,-0.0299764 0.220787,-0.0404331 0.0185551,0.00871654 0.0371299,0.0173819 0.0557205,0.0259961 0.106134,0.0491732 0.213126,0.0968583 0.320894,0.142843l0 0.623862c-0.24061,-0.0304528 -0.419024,-0.266386 -0.524665,-0.47335 -0.0435669,-0.0853386 -0.0807323,-0.175843 -0.112075,-0.269602z"/>
   <path id="_460870208" class="fil1" d="M5.09317 4.01967l-0.539031 0 0 -0.592043 0.658598 0c-0.00601969,0.208307 -0.0478583,0.407634 -0.119567,0.592043z"/>
   <path id="_460869656" class="fil1" d="M5.17272 4.8641c0.0579882,0.00943307 0.11265,-0.0299291 0.122083,-0.0879173 0.00943307,-0.0579882 -0.0299291,-0.11265 -0.0879173,-0.122083 -0.0175236,-0.00290551 -0.0620315,-0.0120709 -0.10102,-0.0200945 -0.0296417,-0.00610236 -0.0565748,-0.0116535 -0.0643189,-0.0131181 -0.253346,-0.0480354 -0.547862,-0.128398 -0.867764,-0.238055 -0.309311,-0.106024 -0.640205,-0.23876 -0.978307,-0.395409 -0.686969,-0.318295 -1.27557,-0.675205 -1.67187,-0.994933 -0.362559,-0.292508 -0.558177,-0.535232 -0.500917,-0.658823 0.0271772,-0.0586614 0.129276,-0.0900118 0.288264,-0.0963583 0.109807,-0.00438583 0.241559,0.0051063 0.391154,0.0276378 0.0918898,0.0138386 0.0863898,0.0152756 0.190839,0.038815l0.144126 -0.184752c-0.11548,-0.0281969 -0.121339,-0.0339291 -0.224811,-0.051689 -0.195453,-0.0335512 -0.367685,-0.048185 -0.509638,-0.0425157 -0.242433,0.0096811 -0.408941,0.0808701 -0.473264,0.219697 -0.103709,0.223843 0.118236,0.556673 0.560917,0.913823 0.408945,0.329937 1.01328,0.696815 1.71604,1.02243 0.346449,0.160516 0.684035,0.296024 0.998307,0.403748 0.327768,0.112354 0.632528,0.19526 0.897764,0.245551 0.0167165,0.00316535 0.0377835,0.00750787 0.0609803,0.0122835 0.0423346,0.0087126 0.0906575,0.0186654 0.109358,0.0217638z"/>
   <path id="_460870232" class="fil1" d="M5.26224 3.84064c0.197114,0.153161 0.342921,0.298701 0.435783,0.428087 0.0976457,0.136051 0.132618,0.243984 0.101531,0.311079 -0.00175197,0.00379528 -0.00325197,0.00764173 -0.00452362,0.0115197l0.170382 0.113984c0.0113386,-0.0096811 0.0208189,-0.0219094 0.0274724,-0.0363386 0.0648701,-0.140008 0.0228504,-0.322079 -0.122358,-0.524409 -0.117575,-0.163819 -0.306815,-0.347654 -0.564539,-0.537232 -0.00966929,0.0786417 -0.0242677,0.156559 -0.043748,0.233311z"/>
   <polygon id="_460869944" class="fil2" points="5.16277,4.30088 4.96485,5.17289 5.49981,4.83585 "/>
  </g>
 </g>
</svg>
