<?xml version="1.0" encoding="UTF-8"?>
<!DOCTYPE svg PUBLIC "-//W3C//DTD SVG 1.1//EN" "http://www.w3.org/Graphics/SVG/1.1/DTD/svg11.dtd">
<!-- Creator: CorelDRAW -->
<svg xmlns="http://www.w3.org/2000/svg" xml:space="preserve" width="6.82666in" height="6.82666in" style="shape-rendering:geometricPrecision; text-rendering:geometricPrecision; image-rendering:optimizeQuality; fill-rule:evenodd; clip-rule:evenodd"
viewBox="0 0 6.82666 6.82666"
 xmlns:xlink="http://www.w3.org/1999/xlink">
 <defs>
  <style type="text/css">
   <![CDATA[
    .fil0 {fill:#424242}
    .fil2 {fill:#FFFFFE}
    .fil1 {fill:#FFFFFE;fill-rule:nonzero}
   ]]>
  </style>
 </defs>
 <rect class="fil0" width="6.82666" height="6.82666"/>
 <g id="Layer_x0020_1">
  <metadata id="CorelCorpID_0Corel-Layer"/>
  <g id="_461095440">
   <path id="_461096112" class="fil1" d="M3.95379 5.92507c0.470406,-0.0135945 0.895059,-0.209799 1.2055,-0.520236 0.0131063,-0.0131024 0.0259961,-0.0264291 0.0386811,-0.0399409 -0.0425669,-0.0236024 -0.130386,-0.072252 -0.13837,-0.0764646 -0.120075,-0.0633189 -0.249811,-0.112106 -0.381299,-0.149224 -0.0307795,0.0878937 -0.0665433,0.172858 -0.107681,0.253453 -0.125213,0.245291 -0.33372,0.503146 -0.616827,0.531839l0 0.000574803zm0.751472 -2.69495l0.0167441 0.0627008 -5.51181e-005 1.5748e-005c0.0741339,0.260677 0.108563,0.539441 0.112579,0.801854l0.844992 0c-0.0113189,-0.391752 -0.149327,-0.751736 -0.374453,-1.04048 -0.0252402,0.00604331 -0.0504567,0.0122795 -0.0756417,0.0186929 -0.177016,0.0450827 -0.352559,0.0990354 -0.524165,0.157217zm-0.0837598 0.0905472l-0.0150669 -0.0564134c-0.10422,0.0366614 -0.207862,0.0752559 -0.31085,0.115602 -0.11478,0.0449567 -0.228744,0.0920906 -0.341795,0.141142l0 0.573693 0.776091 0c-0.00395669,-0.253228 -0.0368228,-0.522567 -0.10852,-0.773988l0.000141732 -3.54331e-005zm-0.0447205 1.79219c-0.00894882,-0.00212598 -0.0179016,-0.00420079 -0.0268465,-0.00622835 -0.194795,-0.0441142 -0.396201,-0.0663425 -0.596146,-0.0697244l0 0.779043c0.24061,-0.0304528 0.419024,-0.266386 0.524665,-0.47335 0.0373583,-0.073185 0.0700118,-0.150165 0.0983268,-0.22974zm-0.727642 -0.0760354c-0.200343,0.00309449 -0.40226,0.0247913 -0.597402,0.0692047 -0.00862205,0.00196063 -0.0172441,0.00398031 -0.0258701,0.00604724 0.0283819,0.0798504 0.061122,0.157098 0.0986063,0.230524 0.105642,0.206965 0.284055,0.442898 0.524665,0.47335l0 -0.779126zm-0.724661 0.101949c-0.124516,0.0358031 -0.247346,0.0823228 -0.362213,0.138937 -0.0122126,0.00601575 -0.101413,0.0586732 -0.154776,0.0898661 0.0118819,0.0125827 0.0239134,0.0250236 0.0361535,0.0372598 0.310437,0.310437 0.735091,0.506642 1.2055,0.520236l0 -0.000574803c-0.283106,-0.0286929 -0.491614,-0.286547 -0.616827,-0.531839 -0.0412087,-0.0807244 -0.0770197,-0.165839 -0.107835,-0.253886zm2.14408 0.146398c0.246681,-0.295969 0.399043,-0.673303 0.410965,-1.08583l-0.844992 0c-0.00421654,0.275563 -0.0419843,0.569165 -0.12402,0.840909 0.138366,0.0393504 0.274748,0.0910984 0.401012,0.158043 0.00925591,0.00490157 0.136606,0.0755394 0.157035,0.086874zm-0.538677 -1.08583l-0.776091 0 0 0.732906c0.207591,0.00348819 0.416563,0.0270709 0.618815,0.0728701 0.0122756,0.00277953 0.0245591,0.00565354 0.0368425,0.00861417 0.0799882,-0.262791 0.116264,-0.547531 0.120433,-0.81439zm-0.88074 0l-0.776091 0c0.00416535,0.266559 0.0403622,0.550957 0.120165,0.813512 0.0119173,-0.00285433 0.0238346,-0.00562992 0.035752,-0.00831496 0.20272,-0.0456969 0.412157,-0.0691102 0.620173,-0.0723543l0 -0.732843zm-0.88074 0l-0.321035 0c-0.165417,0.10274 -0.328535,0.212315 -0.483472,0.330106 0.0622835,0.28426 0.19252,0.543083 0.372862,0.758555 0.047063,-0.0275118 0.163862,-0.096815 0.178886,-0.104413 0.119421,-0.060378 0.247079,-0.107776 0.376476,-0.144366 -0.0818307,-0.271457 -0.119508,-0.564657 -0.123717,-0.839882zm0.341331 -0.850547c-0.0270276,-0.00526772 -0.0539528,-0.0109173 -0.0807638,-0.0169606 -0.0157953,-0.00355906 -0.0316063,-0.00727165 -0.0474016,-0.0111339 -0.0099685,0.0349606 -0.019189,0.0702717 -0.0276811,0.105831 0.0517559,-0.0263268 0.103709,-0.0522402 0.155846,-0.0777362zm-0.231177 0.599272c-0.00293701,0.0493031 -0.00474803,0.0982598 -0.00550394,0.146626l0.776091 0 0 -0.52763c-0.0475197,0.0212126 -0.0948701,0.0427638 -0.142043,0.0646181 -0.212543,0.0984764 -0.422685,0.203728 -0.628543,0.316386zm0.00212598 -0.654177c-0.12548,-0.0361378 -0.249138,-0.0825079 -0.365039,-0.14111 -0.0178543,-0.00902362 -0.179449,-0.105201 -0.196913,-0.114819 -0.00187795,-0.00103543 -0.00366535,-0.00216142 -0.00536614,-0.00338583 -0.221795,0.276406 -0.362724,0.620457 -0.386953,0.996291 0.138398,-0.0954252 0.280654,-0.185579 0.423689,-0.27122 0.158205,-0.0947244 0.319496,-0.184882 0.483059,-0.270732 0.0135394,-0.0657559 0.0293268,-0.130937 0.0475236,-0.195024zm-0.260311 0.800803l0.148031 0c0.000440945,-0.0287441 0.00124803,-0.0576811 0.00242913,-0.0867717 -0.0504449,0.0284606 -0.100606,0.0573858 -0.150461,0.0867717zm2.12654 -1.38699c-0.280327,-0.203965 -0.62252,-0.328039 -0.993122,-0.338748l0 0.000574803c0.258465,0.0261969 0.454736,0.24339 0.582228,0.467657l0.000791339 -0.000271654c0.134815,-0.0462126 0.271811,-0.0898583 0.410102,-0.129213zm-0.993122 -0.229626l0 0.57985c0.158925,-0.0658661 0.319465,-0.127921 0.481366,-0.185504 -0.108213,-0.184063 -0.27102,-0.367724 -0.481366,-0.394346zm-0.10465 -0.109122c-0.470406,0.0135945 -0.895059,0.209799 -1.2055,0.520236 -0.0210787,0.0210748 -0.0416024,0.042689 -0.0616024,0.0647953 0.0427283,0.0246614 0.165728,0.0975315 0.180224,0.104677 0.110835,0.054622 0.229079,0.0998504 0.349106,0.135118 0.0336299,-0.101768 0.073752,-0.199965 0.120941,-0.292413 0.125213,-0.245295 0.33372,-0.503146 0.616827,-0.531839l0 -0.000574803zm-0.63674 0.852075c0.0131102,0.00322441 0.0262244,0.00632677 0.0393386,0.00931496 0.0727992,0.0165669 0.146539,0.0299764 0.220787,0.0404331 0.0185551,-0.00871654 0.0371299,-0.0173819 0.0557205,-0.0259961 0.106134,-0.0491732 0.213126,-0.0968583 0.320894,-0.142843l0 -0.623862c-0.24061,0.0304528 -0.419024,0.266386 -0.524665,0.47335 -0.0435669,0.0853386 -0.0807323,0.175843 -0.112075,0.269602z"/>
   <path id="_461095944" class="fil1" d="M5.55996 3.50265l-0.539031 0 0 0.592043 0.658598 0c-0.00601969,-0.208307 -0.0478583,-0.407634 -0.119567,-0.592043z"/>
   <path id="_461095800" class="fil1" d="M5.6395 2.65822c0.0579882,-0.00943307 0.11265,0.0299291 0.122083,0.0879173 0.00943307,0.0579882 -0.0299291,0.11265 -0.0879173,0.122083 -0.0175236,0.00290551 -0.0620315,0.0120709 -0.10102,0.0200945 -0.0296417,0.00610236 -0.0565748,0.0116535 -0.0643189,0.0131181 -0.253346,0.0480354 -0.547862,0.128398 -0.867764,0.238055 -0.309311,0.106024 -0.640205,0.23876 -0.978307,0.395409 -0.686969,0.318295 -1.27557,0.675205 -1.67187,0.994933 -0.362559,0.292508 -0.558177,0.535232 -0.500917,0.658823 0.0271772,0.0586614 0.129276,0.0900118 0.288264,0.0963583 0.109807,0.00438583 0.241559,-0.0051063 0.391154,-0.0276378 0.0918898,-0.0138386 0.0863898,-0.0152756 0.190839,-0.038815l0.144126 0.184752c-0.11548,0.0281969 -0.121339,0.0339291 -0.224811,0.051689 -0.195453,0.0335512 -0.367685,0.048185 -0.509638,0.0425157 -0.242433,-0.0096811 -0.408941,-0.0808701 -0.473264,-0.219697 -0.103709,-0.223843 0.118236,-0.556673 0.560917,-0.913823 0.408945,-0.329937 1.01328,-0.696815 1.71604,-1.02243 0.346449,-0.160516 0.684035,-0.296024 0.998307,-0.403748 0.327768,-0.112354 0.632528,-0.19526 0.897764,-0.245551 0.0167165,-0.00316535 0.0377835,-0.00750787 0.0609803,-0.0122835 0.0423346,-0.0087126 0.0906575,-0.0186654 0.109358,-0.0217638z"/>
   <polygon id="_461096280" class="fil2" points="5.62955,3.22144 5.43164,2.34943 5.9666,2.68647 "/>
   <g>
    <path id="_461095344" class="fil2" d="M3.44414 0.886484c-0.545898,0.14398 -1.06553,0.365787 -1.5836,0.586945 -0.149039,0.063622 -0.297961,0.127189 -0.44172,0.186567l-0.312508 -0.143 0.000106299 -0.000228346c-0.0164803,-0.00753937 -0.0343937,-0.00799213 -0.050315,-0.0026378l-0.130535 0.0343071 -3.93701e-005 -0.000153543c-0.0365827,0.00961417 -0.0584449,0.0470669 -0.0488307,0.0836496 0.00185433,0.00706299 0.00475591,0.0135748 0.00848031,0.0194213l0.276098 0.492882c0.0145748,0.026 0.0435787,0.0388071 0.0713701,0.0340236l0.0410827 -0.236646 0.49722 -0.149685 -0.0915118 0.267508c0.0446142,-0.011248 0.0776772,-0.0197402 0.120024,-0.0320079l0.0796063 -0.0209252 0.836524 -0.219866 6.69291e-005 0.00162992 0.0674331 -0.321681 0.732343 -0.220469 -0.124496 0.36576 0.52078 -0.137677 2.3622e-005 0.000106299 0.0025315 -0.000614173 0.000255906 -7.08661e-005 0.00125197 -0.000346457 0.000354331 -0.000102362 0.00150394 -0.000456693 3.54331e-005 -7.87402e-006 0.00172835 -0.00057874c0.0385551,-0.0108661 0.112756,-0.0390394 0.175559,-0.0729724 0.082815,-0.044748 0.149957,-0.104894 0.138228,-0.174173 -0.000622047,-0.00490945 -0.00176378,-0.00964961 -0.00337008,-0.0141732 -0.0383268,-0.134965 -0.172295,-0.234118 -0.328425,-0.289992 -0.148854,-0.0532756 -0.321598,-0.0683189 -0.447189,-0.0369488 -0.00345276,0.00061811 -0.00681102,0.00149606 -0.0100669,0.00261417zm0.225488 0.0775276c0.0961929,-0.00117323 0.184287,0.00312205 0.269709,0.0500551l-0.173307 0.0604961 -0.0964016 -0.110551z"/>
    <path id="_461095584" class="fil1" d="M2.84178 1.52044l-0.180319 0.860193c-5.90551e-005,-1.1811e-005 0.257406,0.0342756 0.408677,-0.0388228l0.337571 -0.99174 -0.565929 0.17037z"/>
    <path id="_461095464" class="fil1" d="M2.38952 1.18259l-0.424874 -0.140736c-0.0631063,-0.025815 -0.0297402,-0.0779291 0.0217441,-0.0877323l0.319531 -0.092563 -1.9685e-005 -0.000161417c0.0114921,-0.00301969 0.0230709,-0.00292913 0.0338504,-0.000255906l0.60124 0.117291c-0.18515,0.0643701 -0.368909,0.132701 -0.551472,0.204157z"/>
    <path id="_461095128" class="fil1" d="M1.33397 1.995l-0.067252 0.387343c-3.14961e-005,-3.93701e-006 0.149646,0.0199291 0.237591,-0.0225669l0.158669 -0.463819 -0.329008 0.0990433z"/>
   </g>
  </g>
 </g>
</svg>
