<?xml version="1.0" encoding="UTF-8"?>
<!DOCTYPE svg PUBLIC "-//W3C//DTD SVG 1.1//EN" "http://www.w3.org/Graphics/SVG/1.1/DTD/svg11.dtd">
<!-- Creator: CorelDRAW -->
<svg xmlns="http://www.w3.org/2000/svg" xml:space="preserve" width="6.82666in" height="6.82666in" style="shape-rendering:geometricPrecision; text-rendering:geometricPrecision; image-rendering:optimizeQuality; fill-rule:evenodd; clip-rule:evenodd"
viewBox="0 0 6.82666 6.82666"
 xmlns:xlink="http://www.w3.org/1999/xlink">
 <defs>
  <style type="text/css">
   <![CDATA[
    .fil0 {fill:#424242}
    .fil1 {fill:#FFFFFE}
    .fil2 {fill:#FFFFFE;fill-rule:nonzero}
   ]]>
  </style>
 </defs>
 <rect class="fil0" width="6.82666" height="6.82666"/>
 <g id="Layer_x0020_1">
  <metadata id="CorelCorpID_0Corel-Layer"/>
  <path class="fil1" d="M2.63887 3.80124l3.41333 3.93701e-006c0.0232677,-1.5748e-005 0.0467008,0.00754331 0.0663346,0.0231339 0.0461299,0.0366339 0.0538307,0.103736 0.0171969,0.149866l-0.00019685 -8.26772e-005 -0.899346 1.13251c-0.0192795,0.0276181 -0.0512874,0.045689 -0.0875197,0.045689 -0.42798,0 -0.988626,0.0703701 -1.47807,-0.0172717 -0.279031,-0.0499606 -0.534925,-0.151283 -0.729913,-0.346276 -0.214594,-0.214594 -0.356429,-0.505736 -0.40135,-0.81989 -0.00261811,-0.018311 -0.0071378,-0.0427874 -0.0071378,-0.0610118 0,-0.0589094 0.0477598,-0.106669 0.106669,-0.106669zm2.14818 0.343114l0.170016 0 0.0426654 0 0 0.0426693 0 0.160626 0 0.0426654 -0.0426654 0 -0.170016 0 -0.0426654 0 0 -0.0426654 0 -0.160626 0 -0.0426693 0.0426654 0zm-0.364925 0l0.170016 0 0.0426654 0 0 0.0426693 0 0.160626 0 0.0426654 -0.0426654 0 -0.170016 0 -0.0426654 0 0 -0.0426654 0 -0.160626 0 -0.0426693 0.0426654 0zm-0.364925 0l0.170016 0 0.0426654 0 0 0.0426693 0 0.160626 0 0.0426654 -0.0426654 0 -0.170016 0 -0.0426654 0 0 -0.0426654 0 -0.160626 0 -0.0426693 0.0426654 0zm-0.364925 0l0.170016 0 0.0426654 0 0 0.0426693 0 0.160626 0 0.0426654 -0.0426654 0 -0.170016 0 -0.0426654 0 0 -0.0426654 0 -0.160626 0 -0.0426693 0.0426654 0z"/>
  <path class="fil1" d="M1.02453 1.99131l1.17333 0c0.0589094,0 0.106669,0.0526732 0.106669,0.117642l0 0.823453c0,0.0649685 -0.0477598,0.117642 -0.106669,0.117642l-1.17333 0c-0.0589094,0 -0.106669,-0.0526732 -0.106669,-0.117642l0 -0.823453c0,-0.0649685 0.0477598,-0.117642 0.106669,-0.117642zm0.0966969 0.421567l0.213339 0 0 0.213331 -0.213339 0 0 -0.213331zm0.317713 0l0.213339 0 0 0.213331 -0.213339 0 0 -0.213331zm0.319079 0l0.319976 0 0 0.533331 -0.319976 0 0 -0.533331z"/>
  <path class="fil2" d="M4.91443 2.86118l-3.93701e-006 0c-0.00736614,0 -0.0141457,0.00309449 -0.0191181,0.00806693 -0.00497244,0.00497244 -0.00806693,0.011752 -0.00806693,0.0191181l0 0.562614 0.054374 0 0 -0.562614c0,-0.00736614 -0.00309449,-0.0141457 -0.00806693,-0.0191181 -0.00497244,-0.00497244 -0.011752,-0.00806693 -0.0191181,-0.00806693zm-3.93701e-006 -0.213339l3.93701e-006 0c0.066252,0 0.126413,0.0270315 0.169953,0.0705709 0.0435394,0.0435394 0.0705709,0.103701 0.0705709,0.169953l0 0.669283c0,0.0589094 -0.0477598,0.106669 -0.106669,0.106669l-0.267713 0c-0.0589094,0 -0.106669,-0.0477598 -0.106669,-0.106669l0 -0.669283c0,-0.066252 0.0270315,-0.126413 0.0705709,-0.169953 0.0435394,-0.0435394 0.103701,-0.0705709 0.169953,-0.0705709z"/>
  <path class="fil2" d="M4.39167 3.39889l1.38378 0c0.0589094,0 0.106669,0.0477598 0.106669,0.106669l0 0.18902 -1.59712 -3.93701e-006 0 -0.189016c0,-0.0589094 0.0477598,-0.106669 0.106669,-0.106669z"/>
  <path class="fil2" d="M4.96777 2.00503c0,-0.0294528 -0.0238819,-0.0533346 -0.0533346,-0.0533346 -0.0294528,0 -0.0533346,0.0238819 -0.0533346,0.0533346l0 0.66928c0,0.0294528 0.0238819,0.0533346 0.0533346,0.0533346 0.0294528,0 0.0533346,-0.0238819 0.0533346,-0.0533346l0 -0.66928z"/>
  <polygon class="fil2" points="3.56883,2.94879 4.10867,2.94879 4.21312,2.94879 4.21312,3.05324 4.21312,3.59523 4.21312,3.69968 4.10867,3.69968 3.56883,3.69968 3.46439,3.69968 3.46439,3.59523 3.46439,3.05324 3.46439,2.94879 "/>
  <polygon class="fil2" points="2.71438,2.94879 3.25422,2.94879 3.35867,2.94879 3.35867,3.05324 3.35867,3.59523 3.35867,3.69968 3.25422,3.69968 2.71438,3.69968 2.60993,3.69968 2.60993,3.59523 2.60993,3.05324 2.60993,2.94879 "/>
  <polygon class="fil2" points="0.667787,5.8834 0.667787,3.51034 0.667787,3.40367 0.774457,3.40367 1.90452,3.40367 2.01119,3.40367 2.01119,3.51034 2.01119,5.8834 1.79785,5.8834 1.79785,5.62131 0.881126,5.62131 0.881126,5.8834 "/>
  <path class="fil2" d="M1.58491 2.8654l-0.000307087 -0.000665354 -0.000228346 -0.000480315 -0.000791339 -0.00165748 -0.000448819 -0.000909449 -0.000799213 -0.00156693 -0.000330709 -0.000629921 -0.00096063 -0.00178346 -0.000334646 -0.000598425 -0.000944882 -0.00164567 -0.000413386 -0.000700787 -0.000948819 -0.00155906 -0.000464567 -0.000748031 -0.000740157 -0.00115354 -0.000862205 -0.00131496 -0.000484252 -0.000708661 -0.000937008 -0.00135827 -0.000665354 -0.000933071 -0.000814961 -0.00112205 -0.000791339 -0.00104331 -0.000822835 -0.0010748 -0.00061811 -0.000779528 -0.00108268 -0.00134646 -0.000515748 -0.000614173 -0.00105906 -0.00125197 -0.000807087 -0.00092126 -0.000956693 -0.00107874 -0.000688976 -0.000744094 -0.00109843 -0.00117717 -0.000692913 -0.000712598 -0.00107087 -0.00109449 -0.00109449 -0.00107087 -0.000712598 -0.000692913 -0.00117717 -0.00109843 -0.000744094 -0.000688976 -0.00107874 -0.000956693 -0.00092126 -0.000807087 -0.00125197 -0.00105906 -0.000614173 -0.000515748 -0.00134646 -0.00108268 -0.000779528 -0.00061811 -0.0010748 -0.000822835 -0.00104331 -0.000791339 -0.00112205 -0.000814961 -0.000933071 -0.000665354 -0.00135827 -0.000937008 -0.000708661 -0.000484252 -0.00131496 -0.000862205 -0.00115354 -0.000740157 -0.000748031 -0.000464567 -0.00155906 -0.000948819 -0.000700787 -0.000413386 -0.00164567 -0.000944882 -0.000598425 -0.000334646 -0.00178346 -0.00096063 -0.000629921 -0.000330709 -0.00156693 -0.000799213 -0.000909449 -0.000448819 -0.00165748 -0.000791339 -0.000480315 -0.000228346 -0.000188976 -8.26772e-005 -0.00175984 -0.000787402 -0.000771654 -0.000338583 -0.00111024 -0.00046063c-0.0118307,-0.00491339 -0.0240827,-0.00752756 -0.0362402,-0.00803937l-0.00034252 -1.5748e-005 -0.00188976 -5.51181e-005 -0.000897638 -1.5748e-005 -0.00138189 -7.87402e-006 -0.00138189 7.87402e-006 -0.000897638 1.5748e-005 -0.00188976 5.51181e-005 -0.00034252 1.5748e-005c-0.0121614,0.000507874 -0.0244134,0.00312205 -0.0362402,0.00803937l-0.00111024 0.00046063 -0.000771654 0.000338583 -0.00175984 0.000787402 -0.000188976 8.26772e-005 -0.000480315 0.000228346 -0.00165748 0.000791339 -0.000909449 0.000448819 -0.00156693 0.000799213 -0.000629921 0.000330709 -0.00178346 0.00096063 -0.000598425 0.000334646 -0.00164567 0.000944882 -0.000700787 0.000413386 -0.00155906 0.000948819 -0.000748031 0.000464567 -0.00115354 0.000740157 -0.00131496 0.000862205 -0.000708661 0.000484252 -0.00135827 0.000937008 -0.000933071 0.000665354 -0.00112205 0.000814961 -0.00104331 0.000791339 -0.0010748 0.000822835 -0.000779528 0.00061811 -0.00134646 0.00108268 -0.000614173 0.000515748 -0.00125197 0.00105906 -0.00092126 0.000807087 -0.00107874 0.000956693 -0.000744094 0.000688976 -0.00117717 0.00109843 -0.000712598 0.000692913 -0.00109449 0.00107087 -0.00107087 0.00109449 -0.000692913 0.000712598 -0.00109843 0.00117717 -0.000688976 0.000744094 -0.000956693 0.00107874 -0.000807087 0.00092126 -0.00105906 0.00125197 -0.000515748 0.000614173 -0.00108268 0.00134646 -0.00061811 0.000779528 -0.000822835 0.0010748 -0.000791339 0.00104331 -0.000814961 0.00112205 -0.000665354 0.000933071 -0.000937008 0.00135827 -0.000484252 0.000708661 -0.000862205 0.00131496 -0.000740157 0.00115354 -0.000464567 0.000748031 -0.000948819 0.00155906 -0.000413386 0.000700787 -0.000944882 0.00164567 -0.000334646 0.000598425 -0.00096063 0.00178346 -0.000330709 0.000629921 -0.000799213 0.00156693 -0.000448819 0.000909449 -0.000791339 0.00165748 -0.000228346 0.000480315 -0.000307087 0.000665354 -0.246213 0.53224c-0.024622,0.0533858 -0.00130315,0.116626 0.0520827,0.141248 0.0533858,0.024622 0.116626,0.00130315 0.141248,-0.0520827l0.149854 -0.323941 0.149854 0.323941c0.024622,0.0533858 0.0878622,0.0767047 0.141248,0.0520827 0.0533858,-0.024622 0.0767047,-0.0878622 0.0520827,-0.141248l-0.246213 -0.53224z"/>
  <path class="fil2" d="M2.1807 2.34047c-0.0515472,0.0283031 -0.0703858,0.0930394 -0.0420827,0.144587 0.0283031,0.0515472 0.0930394,0.0703858 0.144587,0.0420827l1.94737 -1.07517 -0.051252 -0.0933346 0.0515551 0.0933819c0.0392953,-0.0216969 0.0595157,-0.0645354 0.0543228,-0.106516l-0.0119921 -0.287756c-0.00229921,-0.0586811 -0.0517362,-0.104386 -0.110417,-0.102087 -0.0586811,0.00229921 -0.104386,0.0517362 -0.102087,0.110417l0.00962992 0.231102 -1.88963 1.0433z"/>
  <path class="fil2" d="M1.58529 2.05256c-0.0538465,0.0234685 -0.0784685,0.0861535 -0.055,0.14 0.0234685,0.0538465 0.0861535,0.0784685 0.14,0.055l2.53156 -1.10041c0.0538465,-0.0234685 0.0784685,-0.0861535 0.055,-0.14 -0.0234685,-0.0538465 -0.0861535,-0.0784685 -0.14,-0.055l-2.53156 1.10041z"/>
  <path class="fil2" d="M3.83049 1.30987c0.0188661,-0.0225512 0.0158819,-0.0561339 -0.00666929,-0.075 -0.0225512,-0.0188661 -0.0561339,-0.0158819 -0.075,0.00666929l-0.317713 0.378886c-0.0188661,0.0225512 -0.0158819,0.0561339 0.00666929,0.075 0.0225512,0.0188661 0.0561339,0.0158819 0.075,-0.00666929l0.317713 -0.378886z"/>
  <path class="fil2" d="M3.17809 1.52587c-0.0279567,-0.00885827 -0.057811,0.00662598 -0.0666693,0.0345827 -0.00885827,0.0279567 0.00662598,0.057811 0.0345827,0.0666693l0.305988 0.0976339c0.0279567,0.00885827 0.057811,-0.00662598 0.0666693,-0.0345827 0.00885827,-0.0279567 -0.00662598,-0.057811 -0.0345827,-0.0666693l-0.305988 -0.0976339z"/>
  <path class="fil2" d="M3.79118 1.2461c-0.0279567,-0.00885827 -0.057811,0.00662598 -0.0666693,0.0345827 -0.00885827,0.0279567 0.00662598,0.057811 0.0345827,0.0666693l0.305988 0.0976339c0.0279567,0.00885827 0.057811,-0.00662598 0.0666693,-0.0345827 0.00885827,-0.0279567 -0.00662598,-0.057811 -0.0345827,-0.0666693l-0.305988 -0.0976339z"/>
  <path class="fil2" d="M3.19413 1.58852c0.0131142,-0.0263465 0.00238583,-0.0583425 -0.0239606,-0.0714567 -0.0263465,-0.0131142 -0.0583425,-0.00238583 -0.0714567,0.0239606l-0.1875 0.376283c-0.0131142,0.0263465 -0.00238583,0.0583425 0.0239606,0.0714567 0.0263465,0.0131142 0.0583425,0.00238583 0.0714567,-0.0239606l0.1875 -0.376283z"/>
  <path class="fil2" d="M2.64387 1.7693c-0.0272677,-0.010815 -0.0581417,0.00252362 -0.0689567,0.0297913 -0.010815,0.0272677 0.00252362,0.0581417 0.0297913,0.0689567l0.342449 0.136697c0.0272677,0.010815 0.0581417,-0.00252362 0.0689567,-0.0297913 0.010815,-0.0272677 -0.00252362,-0.0581417 -0.0297913,-0.0689567l-0.342449 -0.136697z"/>
  <path class="fil2" d="M2.63987 1.8409c0.00598031,-0.0287638 -0.0124843,-0.056937 -0.041248,-0.0629173 -0.0287638,-0.00598031 -0.056937,0.0124843 -0.0629173,0.041248l-0.0845945 0.405957c-0.00598031,0.0287638 0.0124843,0.056937 0.041248,0.0629173 0.0287638,0.00598031 0.056937,-0.0124843 0.0629173,-0.041248l0.0845945 -0.405957z"/>
  <path class="fil2" d="M4.22113 1.40339c0,-0.0184094 -0.0149252,-0.0333346 -0.0333346,-0.0333346 -0.0184094,0 -0.0333346,0.0149252 -0.0333346,0.0333346l0 1.06667c0,0.0184094 0.0149252,0.0333346 0.0333346,0.0333346 0.0184094,0 0.0333346,-0.0149252 0.0333346,-0.0333346l0 -1.06667z"/>
  <path class="fil1" d="M2.26779 5.99725c0.0872008,0 0.154346,-0.0665906 0.212736,-0.12326 0.0138976,-0.0134882 0.0738583,-0.0731181 0.0921496,-0.0740157 0.0182913,0.000889764 0.0782559,0.0605276 0.0921535,0.0740157 0.0583858,0.0566732 0.125535,0.12326 0.212736,0.12326 0.0872047,0 0.154346,-0.0665866 0.212736,-0.12326 0.0138976,-0.0134882 0.0738583,-0.0731181 0.0921496,-0.0740157 0.0182913,0.000897638 0.078248,0.0605276 0.0921457,0.0740157 0.0583858,0.0566693 0.125543,0.12326 0.21274,0.12326 0.0872047,0 0.15435,-0.0665866 0.21274,-0.12326 0.0138976,-0.0134882 0.0738543,-0.0731181 0.0921457,-0.0740157 0.0182913,0.000897638 0.078252,0.0605276 0.0921496,0.0740157 0.0583898,0.0566732 0.125531,0.12326 0.212736,0.12326 0.0872047,0 0.15435,-0.0665866 0.21274,-0.12326 0.0138976,-0.0134843 0.0738583,-0.073122 0.0921496,-0.0740157 0.0182913,0.000897638 0.078252,0.0605276 0.0921496,0.0740157 0.0583898,0.0566693 0.125535,0.12326 0.212736,0.12326 0.0872047,0 0.15435,-0.0665866 0.21274,-0.12326 0.0138976,-0.0134882 0.0738543,-0.0731181 0.0921457,-0.0740157 0.0182913,0.000897638 0.078252,0.0605276 0.0921496,0.0740157 0.0583898,0.0566732 0.125535,0.12326 0.21274,0.12326 0.0872047,0 0.15435,-0.0665866 0.21274,-0.12326 0.0138976,-0.0134882 0.0738858,-0.0731181 0.0921732,-0.0740157 0.0478504,0 0.0866378,-0.038815 0.0866378,-0.0866654 0,-0.0478504 -0.038815,-0.0866654 -0.0866654,-0.0866654 -0.0872008,0 -0.154346,0.0665906 -0.212736,0.12326 -0.0138976,0.0134882 -0.0738583,0.0731181 -0.0921496,0.0740157 -0.0182913,-0.000893701 -0.078252,-0.0605315 -0.0921496,-0.0740157 -0.0583898,-0.0566732 -0.125535,-0.12326 -0.21274,-0.12326 -0.0872008,0 -0.154346,0.0665906 -0.212736,0.12326 -0.0138976,0.0134882 -0.0738583,0.0731181 -0.0921496,0.0740157 -0.0182913,-0.000897638 -0.078248,-0.0605276 -0.0921457,-0.0740157 -0.0583898,-0.0566732 -0.125535,-0.12326 -0.21274,-0.12326 -0.0872047,0 -0.15435,0.0665866 -0.21274,0.12326 -0.0138976,0.0134882 -0.0738583,0.0731181 -0.0921496,0.0740157 -0.0182913,-0.000897638 -0.078248,-0.0605276 -0.0921457,-0.0740157 -0.0583858,-0.0566732 -0.125535,-0.12326 -0.21274,-0.12326 -0.0872008,0 -0.154346,0.0665906 -0.212736,0.12326 -0.0138976,0.0134882 -0.0738583,0.0731181 -0.0921496,0.0740157 -0.0182913,-0.000897638 -0.078252,-0.0605276 -0.0921496,-0.0740157 -0.0583898,-0.0566693 -0.125535,-0.12326 -0.212736,-0.12326 -0.0872047,0 -0.154354,0.0665866 -0.21274,0.12326 -0.0138976,0.0134882 -0.0738543,0.0731181 -0.0921457,0.0740157 -0.0182913,-0.000901575 -0.078248,-0.0605276 -0.0921457,-0.0740157 -0.0583898,-0.0566772 -0.125535,-0.12326 -0.212744,-0.12326 -0.0872047,0 -0.15435,0.0665866 -0.21274,0.12326 -0.0138976,0.0134882 -0.0738858,0.0731181 -0.0921732,0.0740157 -0.0478504,0 -0.0866378,0.038815 -0.0866378,0.0866654 0,0.0478504 0.038815,0.0866654 0.0866654,0.0866654z"/>
  <path class="fil2" d="M2.26779 5.68362c-0.0294528,0 -0.0533346,-0.0238819 -0.0533346,-0.0533346 0,-0.0294528 0.0238819,-0.0533346 0.0533346,-0.0533346 0.0294016,0 0.0723858,-0.0417205 0.115358,-0.0834291 0.0586496,-0.0569213 0.117303,-0.113846 0.189528,-0.113846 0.0722323,0 0.130886,0.0569291 0.189531,0.113846 0.0429724,0.0417126 0.0859606,0.0834291 0.115358,0.0834291 0.0294016,0 0.0723858,-0.0417165 0.115358,-0.0834291 0.0586496,-0.0569213 0.117303,-0.113846 0.189528,-0.113846 0.0722244,0 0.130878,0.0569291 0.189524,0.113846 0.0429724,0.0417087 0.0859606,0.0834291 0.115362,0.0834291 0.0294016,0 0.0723858,-0.0417165 0.115362,-0.0834291 0.0586457,-0.0569173 0.117299,-0.113846 0.189524,-0.113846 0.0722244,0 0.130878,0.0569252 0.189528,0.113846 0.0429724,0.0417126 0.0859567,0.0834291 0.115358,0.0834291 0.0294016,0 0.0723858,-0.0417165 0.115362,-0.0834291 0.0586457,-0.0569173 0.117299,-0.113846 0.189528,-0.113846 0.0722244,0 0.130878,0.0569252 0.189528,0.113846 0.0429724,0.0417087 0.0859567,0.0834291 0.115358,0.0834291 0.0294016,0 0.0723858,-0.0417165 0.115362,-0.0834291 0.0586457,-0.0569173 0.117299,-0.113846 0.189524,-0.113846 0.0722244,0 0.130878,0.0569252 0.189528,0.113846 0.0429724,0.0417087 0.0859567,0.0834291 0.115362,0.0834291 0.0294016,0 0.0723858,-0.0417165 0.115362,-0.0834291 0.0586457,-0.0569173 0.117299,-0.113846 0.189524,-0.113846 0.0294528,0 0.0533346,0.0238819 0.0533346,0.0533346 0,0.0294528 -0.0238819,0.0533346 -0.0533346,0.0533346 -0.0294016,0 -0.0723858,0.0417205 -0.115358,0.0834291 -0.0586496,0.0569213 -0.117303,0.113846 -0.189528,0.113846 -0.0722283,0 -0.130882,-0.0569291 -0.189528,-0.113846 -0.0429764,-0.0417126 -0.0859606,-0.0834291 -0.115362,-0.0834291 -0.0294016,0 -0.0723858,0.0417205 -0.115358,0.0834291 -0.0586496,0.0569213 -0.117303,0.113846 -0.189528,0.113846 -0.0722244,0 -0.130878,-0.0569291 -0.189524,-0.113846 -0.0429764,-0.0417126 -0.0859606,-0.0834291 -0.115362,-0.0834291 -0.0294055,0 -0.0723898,0.0417205 -0.115362,0.0834291 -0.0586496,0.0569213 -0.117303,0.113846 -0.189528,0.113846 -0.0722283,0 -0.130882,-0.0569291 -0.189524,-0.113846 -0.0429764,-0.0417126 -0.0859606,-0.0834291 -0.115362,-0.0834291 -0.0294016,0 -0.0723858,0.0417205 -0.115358,0.0834291 -0.0586496,0.0569213 -0.117303,0.113846 -0.189528,0.113846 -0.0722205,0 -0.130882,-0.0569291 -0.189528,-0.113846 -0.0429724,-0.0417087 -0.0859567,-0.0834291 -0.115358,-0.0834291 -0.0294016,0 -0.0723858,0.0417165 -0.115362,0.0834291 -0.0586417,0.0569173 -0.117295,0.113846 -0.189524,0.113846 -0.0722244,0 -0.130882,-0.0569252 -0.189524,-0.113846 -0.0429724,-0.0417087 -0.0859567,-0.0834291 -0.115366,-0.0834291 -0.0294016,0 -0.0723858,0.0417165 -0.115362,0.0834291 -0.0586457,0.0569173 -0.117299,0.113846 -0.189524,0.113846z"/>
  <path class="fil1" d="M2.26779 5.46019c-0.0110551,0 -0.0200039,-0.00894882 -0.0200039,-0.0200039 0,-0.0110551 0.00894882,-0.0200039 0.0200039,-0.0200039 0.0481142,0 0.105894,-0.061126 0.138571,-0.0928425 0.0422008,-0.0409567 0.102953,-0.104433 0.166315,-0.104433 0.0633701,0 0.124114,0.0634685 0.166319,0.104433 0.0326732,0.0317126 0.0904606,0.0928425 0.138571,0.0928425 0.0481142,0 0.105894,-0.061126 0.138571,-0.0928425 0.0422008,-0.0409606 0.102949,-0.104433 0.166315,-0.104433 0.0633622,0 0.12411,0.0634764 0.166311,0.104433 0.0326772,0.0317165 0.0904606,0.0928425 0.138575,0.0928425 0.0481142,0 0.105898,-0.061126 0.138575,-0.0928425 0.0422008,-0.0409567 0.102949,-0.104433 0.166311,-0.104433 0.0633661,0 0.124114,0.0634724 0.166315,0.104433 0.0326772,0.0317165 0.0904567,0.0928425 0.138571,0.0928425 0.0481142,0 0.105898,-0.061126 0.138575,-0.0928425 0.0422008,-0.0409567 0.102949,-0.104433 0.166315,-0.104433 0.0633622,0 0.124114,0.0634764 0.166315,0.104433 0.0326772,0.0317165 0.0904567,0.0928425 0.138571,0.0928425 0.0481142,0 0.105898,-0.061126 0.138575,-0.0928425 0.0422008,-0.0409567 0.102949,-0.104433 0.166311,-0.104433 0.0633622,0 0.124114,0.0634764 0.166315,0.104433 0.0326772,0.0317165 0.0904567,0.0928425 0.138575,0.0928425 0.0481142,0 0.105898,-0.061126 0.138575,-0.0928425 0.0422008,-0.0409567 0.102949,-0.104433 0.166311,-0.104433 0.0110551,0 0.0200039,0.00894882 0.0200039,0.0200039 0,0.0110551 -0.00894882,0.0200039 -0.0200039,0.0200039 -0.0481142,0 -0.105894,0.061126 -0.138571,0.0928425 -0.0422008,0.0409567 -0.102953,0.104433 -0.166315,0.104433 -0.0633661,0 -0.124114,-0.0634764 -0.166315,-0.104433 -0.0326772,-0.0317165 -0.0904606,-0.0928425 -0.138575,-0.0928425 -0.0481142,0 -0.105894,0.061126 -0.138571,0.0928425 -0.0422008,0.0409567 -0.102953,0.104433 -0.166315,0.104433 -0.0633622,0 -0.12411,-0.0634764 -0.166311,-0.104433 -0.0326772,-0.0317165 -0.0904606,-0.0928425 -0.138575,-0.0928425 -0.0481181,0 -0.105898,0.061126 -0.138575,0.0928425 -0.0422008,0.0409567 -0.102953,0.104433 -0.166315,0.104433 -0.0633661,0 -0.12411,-0.0634724 -0.166311,-0.104433 -0.0326772,-0.0317165 -0.0904606,-0.0928425 -0.138575,-0.0928425 -0.0481142,0 -0.105894,0.061126 -0.138571,0.0928425 -0.0422008,0.0409567 -0.102953,0.104433 -0.166315,0.104433 -0.0633583,0 -0.124118,-0.0634764 -0.166315,-0.104433 -0.0326772,-0.0317165 -0.0904567,-0.0928425 -0.138571,-0.0928425 -0.0481142,0 -0.105898,0.061126 -0.138575,0.0928425 -0.0422008,0.0409606 -0.102945,0.104433 -0.166311,0.104433 -0.0633622,0 -0.12411,-0.0634724 -0.166311,-0.104433 -0.0326772,-0.0317205 -0.0904567,-0.0928425 -0.138579,-0.0928425 -0.0481142,0 -0.105898,0.061126 -0.138575,0.0928425 -0.0422008,0.0409567 -0.102949,0.104433 -0.166311,0.104433z"/>
  <g id="_461088576">
   <path id="_461088048" class="fil2" d="M4.24905 2.66431c0.00111024,-0.00782283 -0.00433071,-0.0150669 -0.0121496,-0.0161811 -0.00782283,-0.00111417 -0.0150669,0.00432677 -0.0161811,0.0121496 -0.00118504,0.00830315 -0.0053189,0.0155236 -0.0112402,0.0206614 -0.00591732,0.00512992 -0.0136654,0.00820079 -0.0220748,0.00820079 -0.0092874,0 -0.0176969,-0.00376378 -0.0237795,-0.00985039 -0.00608661,-0.00608268 -0.00985039,-0.0144921 -0.00985039,-0.0237795 0,-0.00180315 -7.08661e-005,0.000425197 -4.33071e-005,-0.000826772 0.000204724,-0.00908661 0.00404331,-0.0172874 0.0101063,-0.0232205 0.00610236,-0.00596457 0.0144173,-0.0096378 0.0235315,-0.0096378l0 5.51181e-005c0.00179134,0 -0.000374016,-7.08661e-005 0.000779528,-4.33071e-005l0 5.11811e-005c0.0028189,6.69291e-005 0.00547244,-0.000688976 0.00772047,-0.00205118l1.1811e-005 1.9685e-005c0.00485827,-0.00256693 0.00762992,-0.0075315 0.0076378,-0.0126693l0 -0.00019685 0 -0.0300512c0,-0.00791339 -0.00641732,-0.0143307 -0.0143346,-0.0143307 -0.00791339,0 -0.0143346,0.00641732 -0.0143346,0.0143307l0 0.0175945c-0.0119055,0.00242913 -0.0225787,0.00825984 -0.0309409,0.016437 -0.0112402,0.0109921 -0.0183465,0.0262244 -0.0187323,0.0431535 -4.33071e-005,0.00198425 -6.69291e-005,0.000322835 -6.69291e-005,0.00138583 0,0.0172008 0.00697638,0.0327756 0.018248,0.0440472 0.0112717,0.0112717 0.0268465,0.018248 0.0440472,0.018248 0.0154567,0 0.0297638,-0.00570866 0.0407717,-0.0152559 0.0110079,-0.00954724 0.018685,-0.0229173 0.020874,-0.0382402z"/>
   <path id="_461088624" class="fil2" d="M4.1585 2.55678c0,0.0158307 0.0128346,0.0286654 0.0286654,0.0286654 0.0158307,0 0.0286654,-0.0128346 0.0286654,-0.0286654l0 -0.0767008c0,-0.0158307 -0.0128346,-0.0286654 -0.0286654,-0.0286654 -0.0158307,0 -0.0286654,0.0128346 -0.0286654,0.0286654l0 0.0767008z"/>
   <path id="_461088384" class="fil2" d="M4.27316 2.50875c0.0158307,0 0.0146693,-0.0135354 0.0146693,-0.0293661 0,-0.0158307 0.00116142,-0.0279685 -0.0146693,-0.0279685l-0.171996 0c-0.0158307,0 -0.0132677,0.0128346 -0.0132677,0.0286654 0,0.0158307 -0.00256299,0.0286693 0.0132677,0.0286693l0.0282717 0 -7.87402e-006 0.000299213c0,0.016622 0.0258504,0.0300945 0.0577362,0.0300945 0.0318858,0 0.0577362,-0.0134724 0.0577362,-0.0300945l-7.87402e-006 -0.000299213 0.0282677 0z"/>
  </g>
  <line class="fil1" x1="3.77665" y1="5.13672" x2="3.77665" y2= "5.13672" />
 </g>
</svg>
