<?xml version="1.0" encoding="UTF-8"?>
<!DOCTYPE svg PUBLIC "-//W3C//DTD SVG 1.1//EN" "http://www.w3.org/Graphics/SVG/1.1/DTD/svg11.dtd">
<!-- Creator: CorelDRAW -->
<svg xmlns="http://www.w3.org/2000/svg" xml:space="preserve" width="6.82666in" height="6.82666in" style="shape-rendering:geometricPrecision; text-rendering:geometricPrecision; image-rendering:optimizeQuality; fill-rule:evenodd; clip-rule:evenodd"
viewBox="0 0 6.82666 6.82666"
 xmlns:xlink="http://www.w3.org/1999/xlink">
 <defs>
  <style type="text/css">
   <![CDATA[
    .fil0 {fill:#424242}
    .fil1 {fill:#FFFFFE}
    .fil2 {fill:#FFFFFE;fill-rule:nonzero}
   ]]>
  </style>
 </defs>
 <rect class="fil0" width="6.82666" height="6.82666"/>
 <g id="Layer_x0020_1">
  <metadata id="CorelCorpID_0Corel-Layer"/>
  <path class="fil1" d="M1.64939 1.64106c-0.443961,0.443957 -0.72272,1.0948 -0.72272,1.77228 0,0.461138 0.102224,0.892559 0.323484,1.26107 -0.0018189,0.00687402 0.088248,0.292504 0.186831,0.192787 0.0470236,-0.0404409 0.0745984,-0.108075 0.0887244,-0.194559 0.0214606,-0.131394 0.00633071,-0.311067 -0.00885039,-0.491386 -0.0184646,-0.219287 -0.0370197,-0.439681 0.00792913,-0.508484 0.00600787,-0.00920079 0.0363701,0.00244488 0.106787,0.0484488 0.0185787,0.0121339 0.0383307,0.0410197 0.057626,0.0692441 0.0453386,0.0663071 0.089378,0.130701 0.174748,0.150217 0.0459213,0.0542913 0.119287,0.128736 0.198854,0.209472 0.144957,0.147087 0.312654,0.31726 0.325898,0.361878 0.0104921,0.0532402 0.0599291,0.0908189 0.115055,0.0854094 0.151571,-0.0148701 0.0885118,-0.225429 0.0494882,-0.30937 -0.0742362,-0.159638 -0.135303,-0.370843 -0.188535,-0.55498 -0.046874,-0.16215 -0.0880315,-0.304504 -0.130512,-0.386693 -0.0874764,-0.169244 -0.0588031,-0.366047 -0.0329449,-0.543528 0.0269055,-0.184705 0.051315,-0.352224 -0.0342598,-0.496705 -0.0773898,-0.130677 -0.134425,-0.179602 -0.17322,-0.203114 0.000251969,-0.0208504 0.000791339,-0.0582717 0.00164961,-0.117717 0.000405512,-0.0282283 0.00088189,-0.0608622 0.00133858,-0.101551 0.00137795,-0.122358 0.0438465,-0.236075 0.0801142,-0.333197 0.262154,-0.33765 0.119134,-0.328173 -0.0584134,-0.206433 -0.138772,0.0951496 -0.319717,0.231134 -0.369071,0.296909z"/>
  <path class="fil2" d="M3.41333 0.746661c0.517213,0 1.00004,0.147264 1.40884,0.402134l-0.0991417 0.189705c-0.378961,-0.239713 -0.82811,-0.3785 -1.3097,-0.3785 -0.67748,0 -1.29082,0.274594 -1.73478,0.718555 -0.443961,0.443957 -0.718555,1.0573 -0.718555,1.73478 0,0.67748 0.274594,1.29082 0.718555,1.73478 0.443957,0.443961 1.0573,0.718555 1.73478,0.718555 0.67748,0 1.29082,-0.274594 1.73478,-0.718555 0.443961,-0.443957 0.718555,-1.0573 0.718555,-1.73478 0,-0.471587 -0.133091,-0.912067 -0.363701,-1.286l0.000401575 -0.00245669 0.000122047 -0.00080315c0.000389764,-0.00254724 0.000724409,-0.00510236 0.00100787,-0.00766142l0.000141732 -0.00133071 0.000224409 -0.00229134 3.93701e-006 -3.14961e-005 0.000244094 -0.00292126 0 -2.3622e-005 0.000149606 -0.00224409 6.29921e-005 -0.00106693 0.000125984 -0.00235827 4.72441e-005 -0.00127953c5.11811e-005,-0.00140551 9.05512e-005,-0.00281102 0.000110236,-0.00421654l1.1811e-005 -0.000807087c2.75591e-005,-0.0026811 0,-0.0053622 -8.66142e-005,-0.00804331l-2.3622e-005 -0.00073622 -0.000102362 -0.00240551 -8.26772e-005 -0.00149606 -0.000216535 -0.00332283 -0.000145669 -0.00187795 -0.000169291 -0.00188189 -0.000161417 -0.00158268c-0.00011811,-0.00112992 -0.000240157,-0.00226378 -0.000377953,-0.0033937l-0.00023622 -0.00185827 -0.000259843 -0.0018937 -0.000244094 -0.00167323c-0.000177165,-0.00116929 -0.000366142,-0.00233465 -0.000566929,-0.0035l-0.000212598 -0.00123622 -0.000393701 -0.00215354 -0.000377953 -0.00193701 -0.000476378 -0.00231102 -0.000566929 -0.00256299 -0.000366142 -0.00157874 -0.000464567 -0.00189764 -0.000716535 -0.00279528 -0.000555118 -0.00206299 -0.000527559 -0.00187008 -0.000476378 -0.00161024 -0.000653543 -0.00216929 -0.000893701 -0.00280315 -0.000543307 -0.00162205 -0.000681102 -0.00197638 -0.000515748 -0.00145669c-0.000385827,-0.00108268 -0.000787402,-0.00216142 -0.00120079,-0.00323622l-0.000511811 -0.00132677 -0.000972441 -0.00244094 -0.000464567 -0.00114173c-0.000440945,-0.00107087 -0.000897638,-0.00214173 -0.0013622,-0.00320866l-0.000602362 -0.00135827 -0.00102362 -0.00225197 -0.000559055 -0.0012126c-0.000507874,-0.00108268 -0.0010315,-0.00216142 -0.00156299,-0.00323622l-0.000531496 -0.00106299 -0.00134646 -0.00263386 -0.000425197 -0.000818898c-0.000606299,-0.00114961 -0.00122441,-0.0022874 -0.00185827,-0.0034252l-0.000374016 -0.000665354 -0.00160236 -0.00279528 -0.000492126 -0.000850394c-0.000653543,-0.0011063 -0.0013189,-0.00220472 -0.002,-0.00329921l-0.000417323 -0.000665354 -0.00164173 -0.0025748 -0.000732283 -0.00112598 -0.0019685 -0.00292913 -0.000665354 -0.000952756 -0.00175591 -0.00248425 -0.000610236 -0.00084252c-0.000740157,-0.00101575 -0.00148425,-0.00201575 -0.00224409,-0.00301575l-0.000559055 -0.000724409c-0.000728346,-0.000944882 -0.0014685,-0.0018937 -0.00221654,-0.00282677l-0.00026378 -0.000334646c-0.000834646,-0.00103543 -0.0016811,-0.0020748 -0.00254331,-0.00309843l-0.000200787 -0.000240157 -0.000346457 -0.000401575 -0.00217717 -0.00251969 -0.000822835 -0.000929134c-0.000826772,-0.000925197 -0.00165354,-0.00184646 -0.00249606,-0.00275591l-0.000145669 -0.00015748 -0.000283465 -0.000295276c-0.000811024,-0.000866142 -0.00162992,-0.00172835 -0.00246063,-0.00258268l-0.000744094 -0.00076378c-0.00092126,-0.000940945 -0.00185039,-0.00187008 -0.00279528,-0.00279528l-7.48031e-005 -7.48031e-005 -0.000299213 -0.000287402 -0.00259449 -0.00246457 -0.000897638 -0.000834646c-0.000972441,-0.000893701 -0.00194882,-0.00178346 -0.00294094,-0.00266142l0.128472 -0.10952c0.320012,0.439909 0.508795,0.981421 0.508795,1.56702 0,0.736366 -0.29848,1.40304 -0.781059,1.88561 -0.482575,0.482579 -1.14924,0.781059 -1.88561,0.781059 -0.736366,0 -1.40304,-0.29848 -1.88561,-0.781059 -0.482579,-0.482575 -0.781059,-1.14924 -0.781059,-1.88561 0,-0.736366 0.29848,-1.40304 0.781059,-1.88561 0.482575,-0.482579 1.14924,-0.781059 1.88561,-0.781059z"/>
  <path class="fil2" d="M5.8315 4.5379c-0.197417,0.423783 -0.502921,0.787043 -0.881075,1.05432 -0.371118,0.262299 -0.812646,0.432142 -1.29104,0.475969l3.54331e-005 0.000401575c-0.0253189,0.0023189 -0.049374,-0.00441339 -0.0689803,-0.0175315 -0.0559134,-0.0312677 -0.101276,-0.065252 -0.146858,-0.108445 -0.0452638,-0.0428898 -0.0889803,-0.0930748 -0.14374,-0.158669l-0.0295 -0.0353386c-0.0890472,-0.106661 -0.206866,-0.412382 -0.240563,-0.694154 -0.0259331,-0.216823 -0.00358268,-0.428 0.113193,-0.550795 0.15152,-0.159339 0.15139,-0.361386 0.151283,-0.53585 -0.000129921,-0.209299 -0.000244094,-0.388634 0.188106,-0.496138 0.0290748,-0.0165945 0.0600827,-0.0452677 0.0880551,-0.0711299 0.0815433,-0.0753937 0.149744,-0.138421 0.249283,-0.0774961l0.0791929 0.0484843c0.156579,0.0958543 0.250406,0.173606 0.324972,0.235398 0.370366,0.306913 0.571339,0.00438976 0.871157,0.259031 0.108472,0.0921339 0.169024,0.21676 0.161937,0.355283 -0.00450787,0.0878661 0.219831,0.119579 0.39035,0.143677 0.0415984,0.00588189 0.0808937,0.011437 0.109134,0.016378l5.51181e-005 -7.08661e-005c0.0580276,0.0101535 0.0968346,0.0654331 0.0866811,0.123461 -0.00209449,0.0119764 -0.00611811,0.0231339 -0.011685,0.0332126z"/>
  <path class="fil2" d="M3.76675 0.806669c-0.0485551,-0.0331339 -0.114783,-0.0206378 -0.147917,0.0279173 -0.0336496,0.0491142 -0.0740236,0.0965906 -0.111382,0.14052 -0.0505394,0.0594252 -0.0962638,0.113185 -0.124874,0.168217 -0.0657874,0.126571 -0.0557756,0.233028 0.11724,0.322969 0.0344803,0.0179213 0.0522638,0.0472992 0.0593307,0.0801417 0.0126969,0.0589921 -0.00196063,0.129004 -0.0234724,0.182697 -0.0188228,0.0469882 -0.0161732,0.0754094 -0.0131614,0.107768 0.00286614,0.0307756 0.0066378,0.0712047 -0.143472,0.273197 -0.038563,0.0518858 -0.0349567,0.0815551 -0.0299173,0.123008 0.00234252,0.0192677 0.006,0.0493858 -0.0715118,0.167331 -0.268449,0.408492 0.0403937,-0.0327323 -0.345728,0.410988 -0.127075,0.146028 -0.116268,0.376791 -0.0144843,0.368114 0.0702598,-0.00112992 0.192224,-0.0263346 0.313996,-0.0589134 0.146598,-0.0392205 0.299331,-0.0903622 0.361504,-0.12276 0.0475276,-0.0247598 0.0765984,-0.0623858 0.109528,-0.105012 0.0583622,-0.0755433 0.138346,-0.179063 0.451264,-0.0521496 0.114102,0.0462717 0.198815,0.0469724 0.287598,0.0476969 0.137524,0.00112598 0.287638,0.00235433 0.641496,0.28361 0.270083,0.214669 0.502866,0.0874843 0.708646,-0.0249449 0.058126,-0.0317559 0.113531,-0.0620315 0.161193,-0.0770197 0.0561457,-0.0174882 0.0874882,-0.077185 0.07,-0.133331 -0.00111024,-0.00356299 -0.425425,-0.721102 -0.502996,-0.846882 -0.0051063,0.0298976 -0.0342362,0.0964488 -0.0544055,0.121819 -0.064,0.0805039 -0.181661,0.0939449 -0.262126,0.029878 -0.0735787,-0.0585906 -0.147098,-0.11726 -0.220622,-0.175921l-0.370941 0.391421 -0.207378 -0.175075 0.297709 -0.440169c-0.0732638,-0.0584606 -0.146516,-0.116933 -0.219843,-0.175319 -0.0804016,-0.0640236 -0.0938307,-0.181551 -0.0298583,-0.262012 0.0621024,-0.0781181 0.17476,-0.0931181 0.254882,-0.0353661l0.0316339 -0.0593425c-0.036811,-0.0165709 -0.0616496,-0.0500197 -0.100524,-0.0713031 -0.487394,-0.273181 -0.523201,-0.194157 -0.871406,-0.431772z"/>
  <path class="fil2" d="M5.26954 2.15808c0.0345157,0.0274409 0.084748,0.0217047 0.112189,-0.012811 0.0274409,-0.0345157 0.0217047,-0.084748 -0.012811,-0.112189l-0.0936339 -0.0746732 0.519291 -0.442681 0.00119291 -0.000885827c0.0350866,-0.0268504 0.0417638,-0.077063 0.0149134,-0.11215l-0.000145669 0.000114173c-0.0888976,-0.116161 -0.186854,-0.217819 -0.294406,-0.304047 -0.106791,-0.0856142 -0.222846,-0.155925 -0.348673,-0.210012 -0.0390354,-0.019937 -0.0869252,-0.00473622 -0.107272,0.0341929l0.000275591 0.000181102 -0.318689 0.609807 -0.0939291 -0.0749094c-0.0345157,-0.0274409 -0.084748,-0.0217047 -0.112189,0.012811 -0.0274409,0.0345157 -0.0217047,0.084748 0.012811,0.112189 0.0999449,0.0797087 0.199445,0.159075 0.299358,0.238756 -0.00424016,0.00349606 -0.00818898,0.00748425 -0.0117441,0.0119606l-0.289858 0.428559 0.0571654 0.0482598 0.357693 -0.377441 0.00890157 -0.0139173c0.0998543,0.0796339 0.199705,0.159252 0.299559,0.238886z"/>
 </g>
</svg>
