<?xml version="1.0" encoding="UTF-8"?>
<!DOCTYPE svg PUBLIC "-//W3C//DTD SVG 1.1//EN" "http://www.w3.org/Graphics/SVG/1.1/DTD/svg11.dtd">
<!-- Creator: CorelDRAW -->
<svg xmlns="http://www.w3.org/2000/svg" xml:space="preserve" width="6.82666in" height="6.82666in" style="shape-rendering:geometricPrecision; text-rendering:geometricPrecision; image-rendering:optimizeQuality; fill-rule:evenodd; clip-rule:evenodd"
viewBox="0 0 6.82666 6.82666"
 xmlns:xlink="http://www.w3.org/1999/xlink">
 <defs>
  <style type="text/css">
   <![CDATA[
    .fil0 {fill:#424242}
    .fil1 {fill:#FFFFFE}
    .fil2 {fill:#FFFFFE;fill-rule:nonzero}
   ]]>
  </style>
 </defs>
 <rect class="fil0" width="6.82666" height="6.82666"/>
 <g id="Layer_x0020_1">
  <metadata id="CorelCorpID_0Corel-Layer"/>
  <path class="fil1" d="M5.95407 2.04184c0.0121417,0.0172047 0.0192598,0.0380669 0.0192598,0.060563l0 3.76427c0,0.0589094 -0.0487795,0.106669 -0.108941,0.106669l-4.90212 0c-0.0601614,0 -0.108941,-0.0477598 -0.108941,-0.106669l0 -3.76427c0,-0.0224961 0.00711811,-0.0433583 0.0192598,-0.060563l5.08148 0zm-0.198622 1.01723l-4.68425 0 0 2.70093 4.68425 0 0 -2.70093zm-4.61803 -0.712406l0.582441 0 0.0582441 0 0 0.0533346 0 0.426665 0 0.0533346 -0.0582441 0 -0.582441 0 -0.0582441 0 0 -0.0533346 0 -0.426665 0 -0.0533346 0.0582441 0zm3.96937 0l0.582441 0 0.0582441 0 0 0.0533346 0 0.426665 0 0.0533346 -0.0582441 0 -0.582441 0 -0.0582441 0 0 -0.0533346 0 -0.426665 0 -0.0533346 0.0582441 0zm-0.992343 0l0.582441 0 0.0582441 0 0 0.0533346 0 0.426665 0 0.0533346 -0.0582441 0 -0.582441 0 -0.0582441 0 0 -0.0533346 0 -0.426665 0 -0.0533346 0.0582441 0zm-0.992343 0l0.582437 0 0.0582441 0 0 0.0533346 0 0.426665 0 0.0533346 -0.0582441 0 -0.582437 0 -0.0582441 0 0 -0.0533346 0 -0.426665 0 -0.0533346 0.0582441 0zm-0.992346 0l0.582441 0 0.0582441 0 0 0.0533346 0 0.426665 0 0.0533346 -0.0582441 0 -0.582441 0 -0.0582441 0 0 -0.0533346 0 -0.426665 0 -0.0533346 0.0582441 0z"/>
  <path class="fil2" d="M0.657083 1.75391c-0.0552283,0.0181457 -0.0837677,0.073437 -0.063748,0.123492 0.0200197,0.0500551 0.0810236,0.0759213 0.136252,0.0577756l5.36749 0c0.0552283,0.0181457 0.116232,-0.00772047 0.136252,-0.0577756 0.0200197,-0.0500551 -0.00851969,-0.105346 -0.063748,-0.123492l-2.71248 -0.894075c-0.0244488,-0.00997244 -0.0530354,-0.0116575 -0.0802205,-0.00269685l0.000102362 0.000251969 -2.7199 0.89652z"/>
  <path class="fil1" d="M2.55062 3.5098l0.354114 0 0 0.286189 0 0.00198031 0.0216693 0.0327441 0.0217598 -0.032878 0.0217598 0.032878 0.021752 -0.032878 0.0217559 0.032878 0.0217598 -0.032878 0.0217598 0.032878 0.0217559 -0.032878 0.0217559 0.032878 0.0217598 -0.032878 0.0217598 0.032878 0.0216732 -0.032748 0 -0.000129921 0 -0.288035 0.35411 0c0.0274488,0 0.0497008,0.0224134 0.0497008,0.0500669l-0.00147244 0.549055 -0.0259803 -0.0643071 -0.0643661 0 -3.93701e-006 3.93701e-006 0.0554213 0.137177 0.0347362 0 -0.000807087 0.300024c0,0.0276496 -0.022252,0.0500669 -0.0497008,0.0500669l-0.969146 0c-0.0274488,0 -0.0497008,-0.0224173 -0.0497008,-0.0500669l0.000980315 -0.365543 0.0264724 0.0655197 0.0643701 0 -0.0554213 -0.137181 -0.0352283 0 0.00129921 -0.484748c0,-0.0276535 0.022252,-0.0500669 0.0497008,-0.0500669zm0.0757874 0.534815l0.0554252 0.137181 -0.0643701 0 -0.0554213 -0.137177 0 -3.93701e-006 0.0643661 0zm0.091563 0l0.0554213 0.137181 -0.0643701 0 -0.0554213 -0.137177 3.93701e-006 -3.93701e-006 0.0643661 0zm0.0915591 0l0.0554213 0.137181 -0.0643701 0 -0.0554213 -0.137177 3.93701e-006 -3.93701e-006 0.0643661 0zm0.0915591 0l0.0554252 0.137181 -0.064374 0 -0.0554213 -0.137177 7.87402e-006 -3.93701e-006 0.0643622 0zm0.091563 0l0.0554213 0.137181 -0.064374 0 -0.0554213 -0.137177 7.87402e-006 -3.93701e-006 0.0643661 0zm0.091563 0l0.0554213 0.137181 -0.0643701 0 -0.0554252 -0.137177 7.87402e-006 -3.93701e-006 0.0643661 0zm0.0915591 0l0.0554213 0.137181 -0.0643701 0 -0.0554213 -0.137177 3.93701e-006 -3.93701e-006 0.0643661 0zm0.091563 0l0.0554213 0.137181 -0.064374 0 -0.0554213 -0.137177 7.87402e-006 -3.93701e-006 0.0643661 0zm0.0915551 0l0.0554252 0.137181 -0.064374 0 -0.0554213 -0.137177 7.87402e-006 -3.93701e-006 0.0643622 0zm0.091563 0l0.0554213 0.137181 -0.0643701 0 -0.0554213 -0.137177 3.93701e-006 -3.93701e-006 0.0643661 0zm-0.855256 0.34628l0.425488 0 0 0.0374843 -0.425488 0 0 -0.0374843zm0.71415 0.0207677l0.160894 0 0 0.0167165 -0.160894 0 0 -0.0167165zm0.0552008 -0.0175197l0 -0.0513307 0.0183189 0 -0.0366378 -0.0513307 -0.0366378 0.0513307 0.0183189 0 0 0.0513307 0.0366378 0zm0.0868701 0l0 -0.0513307 0.0183189 0 -0.0366378 -0.0513307 -0.0366378 0.0513307 0.0183189 0 0 0.0513307 0.0366378 0zm-0.85622 -0.102661l0.425488 0 0 0.0374843 -0.425488 0 0 -0.0374843z"/>
  <path class="fil2" d="M2.77308 3.5098c-0.0137205,0 -0.0248504,0.011126 -0.0248504,0.0248504 0,0.0137205 0.0111299,0.0248504 0.0248504,0.0248504l0.521756 0c0.0137244,0 0.0248504,-0.0111299 0.0248504,-0.0248504 0,-0.0137244 -0.011126,-0.0248504 -0.0248504,-0.0248504l-0.521756 0z"/>
  <path class="fil1" d="M3.90896 4.62861l0.354114 0 0 0.286189 0 0.00198031 0.0216693 0.0327441 0.0217598 -0.032878 0.0217598 0.032878 0.021752 -0.032878 0.0217559 0.032878 0.0217598 -0.032878 0.0217598 0.032878 0.0217559 -0.032878 0.0217559 0.032878 0.0217598 -0.032878 0.0217598 0.032878 0.0216732 -0.032748 0 -0.000129921 0 -0.288035 0.35411 0c0.0274488,0 0.0497008,0.0224134 0.0497008,0.0500669l-0.00147244 0.549055 -0.0259803 -0.0643071 -0.0643661 0 -3.93701e-006 3.93701e-006 0.0554213 0.137177 0.0347362 0 -0.000807087 0.300024c0,0.0276496 -0.022252,0.0500669 -0.0497008,0.0500669l-0.969146 0c-0.0274488,0 -0.0497008,-0.0224173 -0.0497008,-0.0500669l0.000980315 -0.365543 0.0264724 0.0655197 0.0643701 0 -0.0554213 -0.137181 -0.0352283 0 0.00129921 -0.484748c0,-0.0276535 0.022252,-0.0500669 0.0497008,-0.0500669zm0.0757874 0.534815l0.0554252 0.137181 -0.0643701 0 -0.0554213 -0.137177 0 -3.93701e-006 0.0643661 0zm0.091563 0l0.0554213 0.137181 -0.0643701 0 -0.0554213 -0.137177 3.93701e-006 -3.93701e-006 0.0643661 0zm0.0915591 0l0.0554213 0.137181 -0.0643701 0 -0.0554213 -0.137177 3.93701e-006 -3.93701e-006 0.0643661 0zm0.0915591 0l0.0554252 0.137181 -0.064374 0 -0.0554213 -0.137177 7.87402e-006 -3.93701e-006 0.0643622 0zm0.091563 0l0.0554213 0.137181 -0.064374 0 -0.0554213 -0.137177 7.87402e-006 -3.93701e-006 0.0643661 0zm0.091563 0l0.0554213 0.137181 -0.0643701 0 -0.0554252 -0.137177 7.87402e-006 -3.93701e-006 0.0643661 0zm0.0915591 0l0.0554213 0.137181 -0.0643701 0 -0.0554213 -0.137177 3.93701e-006 -3.93701e-006 0.0643661 0zm0.091563 0l0.0554213 0.137181 -0.064374 0 -0.0554213 -0.137177 7.87402e-006 -3.93701e-006 0.0643661 0zm0.0915551 0l0.0554252 0.137181 -0.064374 0 -0.0554213 -0.137177 7.87402e-006 -3.93701e-006 0.0643622 0zm0.091563 0l0.0554213 0.137181 -0.0643701 0 -0.0554213 -0.137177 3.93701e-006 -3.93701e-006 0.0643661 0zm-0.855256 0.34628l0.425488 0 0 0.0374843 -0.425488 0 0 -0.0374843zm0.71415 0.0207677l0.160894 0 0 0.0167165 -0.160894 0 0 -0.0167165zm0.0552008 -0.0175197l0 -0.0513307 0.0183189 0 -0.0366378 -0.0513307 -0.0366378 0.0513307 0.0183189 0 0 0.0513307 0.0366378 0zm0.0868701 0l0 -0.0513307 0.0183189 0 -0.0366378 -0.0513307 -0.0366378 0.0513307 0.0183189 0 0 0.0513307 0.0366378 0zm-0.85622 -0.102661l0.425488 0 0 0.0374843 -0.425488 0 0 -0.0374843z"/>
  <path class="fil1" d="M1.38553 3.5098l0.35411 0 0 0.286189 0 0.00198031 0.0216732 0.0327441 0.0217559 -0.032878 0.0217598 0.032878 0.0217559 -0.032878 0.0217559 0.032878 0.0217598 -0.032878 0.0217598 0.032878 0.0217559 -0.032878 0.0217559 0.032878 0.0217598 -0.032878 0.0217598 0.032878 0.0216732 -0.032748 0 -0.000129921 0 -0.288035 0.35411 0c0.0274488,0 0.0497008,0.0224134 0.0497008,0.0500669l-0.00147244 0.549055 -0.0259803 -0.0643071 -0.0643661 0 -3.93701e-006 3.93701e-006 0.0554213 0.137177 0.0347323 0 -0.00080315 0.300024c0,0.0276496 -0.022252,0.0500669 -0.0497008,0.0500669l-0.969146 0c-0.0274488,0 -0.0497008,-0.0224173 -0.0497008,-0.0500669l0.000980315 -0.365543 0.0264724 0.0655197 0.0643701 0 -0.0554252 -0.137181 -0.0352283 0 0.00130315 -0.484748c0,-0.0276535 0.022252,-0.0500669 0.0497008,-0.0500669zm0.0757874 0.534815l0.0554252 0.137181 -0.064374 0 -0.0554213 -0.137177 3.93701e-006 -3.93701e-006 0.0643661 0zm0.091563 0l0.0554213 0.137181 -0.0643701 0 -0.0554252 -0.137177 7.87402e-006 -3.93701e-006 0.0643661 0zm0.0915591 0l0.0554213 0.137181 -0.064374 0 -0.0554173 -0.137177 3.93701e-006 -3.93701e-006 0.0643661 0zm0.0915591 0l0.0554213 0.137181 -0.0643701 0 -0.0554213 -0.137177 3.93701e-006 -3.93701e-006 0.0643661 0zm0.0915591 0l0.0554252 0.137181 -0.064374 0 -0.0554213 -0.137177 3.93701e-006 -3.93701e-006 0.0643661 0zm0.091563 0l0.0554252 0.137181 -0.064374 0 -0.0554213 -0.137177 3.93701e-006 -3.93701e-006 0.0643661 0zm0.0915591 0l0.0554252 0.137181 -0.0643701 0 -0.0554252 -0.137177 7.87402e-006 -3.93701e-006 0.0643622 0zm0.091563 0l0.0554213 0.137181 -0.0643701 0 -0.0554213 -0.137177 7.87402e-006 -3.93701e-006 0.0643622 0zm0.0915591 0l0.0554213 0.137181 -0.0643701 0 -0.0554213 -0.137177 3.93701e-006 -3.93701e-006 0.0643661 0zm0.0915591 0l0.0554213 0.137181 -0.0643701 0 -0.0554213 -0.137177 7.87402e-006 -3.93701e-006 0.0643622 0zm-0.855252 0.34628l0.425488 0 0 0.0374843 -0.425488 0 0 -0.0374843zm0.71415 0.0207677l0.160894 0 0 0.0167165 -0.160894 0 0 -0.0167165zm0.0551969 -0.0175197l0 -0.0513307 0.0183189 0 -0.0366339 -0.0513307 -0.0366417 0.0513307 0.0183189 0 0 0.0513307 0.0366378 0zm0.0868701 0l0 -0.0513307 0.0183189 0 -0.0366378 -0.0513307 -0.0366378 0.0513307 0.0183189 0 0 0.0513307 0.0366378 0zm-0.856217 -0.102661l0.425488 0 0 0.0374843 -0.425488 0 0 -0.0374843z"/>
  <path class="fil2" d="M1.60799 3.5098c-0.0137205,0 -0.0248504,0.011126 -0.0248504,0.0248504 0,0.0137205 0.0111299,0.0248504 0.0248504,0.0248504l0.521756 0c0.0137205,0 0.0248504,-0.0111299 0.0248504,-0.0248504 0,-0.0137244 -0.0111299,-0.0248504 -0.0248504,-0.0248504l-0.521756 0z"/>
  <path class="fil1" d="M2.55062 4.62861l0.354114 0 0 0.286185 0 0.00198425 0.0216693 0.0327441 0.0217598 -0.032878 0.0217598 0.032878 0.021752 -0.032878 0.0217559 0.032878 0.0217598 -0.032878 0.0217598 0.032878 0.0217559 -0.032878 0.0217559 0.032878 0.0217598 -0.032878 0.0217598 0.032878 0.0216732 -0.032748 0 -0.000129921 0 -0.288035 0.35411 0c0.0274488,0 0.0497008,0.0224134 0.0497008,0.050063l-0.00147244 0.549059 -0.0259803 -0.0643071 -0.0643661 0 -3.93701e-006 3.93701e-006 0.0554213 0.137177 0.0347362 0 -0.000807087 0.300024c0,0.0276496 -0.022252,0.050063 -0.0497008,0.050063l-0.969146 0c-0.0274488,0 -0.0497008,-0.0224134 -0.0497008,-0.050063l0.000980315 -0.365543 0.0264724 0.0655197 0.0643701 0 -0.0554213 -0.137181 -0.0352283 0 0.00129921 -0.484752c0,-0.0276496 0.022252,-0.050063 0.0497008,-0.050063zm0.0757874 0.534815l0.0554252 0.137181 -0.0643701 0 -0.0554213 -0.137177 0 -3.93701e-006 0.0643661 0zm0.091563 0l0.0554213 0.137181 -0.0643701 0 -0.0554213 -0.137177 3.93701e-006 -3.93701e-006 0.0643661 0zm0.0915591 0l0.0554213 0.137181 -0.0643701 0 -0.0554213 -0.137177 3.93701e-006 -3.93701e-006 0.0643661 0zm0.0915591 0l0.0554252 0.137181 -0.064374 0 -0.0554213 -0.137177 7.87402e-006 -3.93701e-006 0.0643622 0zm0.091563 0l0.0554213 0.137181 -0.064374 0 -0.0554213 -0.137177 7.87402e-006 -3.93701e-006 0.0643661 0zm0.091563 0l0.0554213 0.137181 -0.0643701 0 -0.0554252 -0.137177 7.87402e-006 -3.93701e-006 0.0643661 0zm0.0915591 0l0.0554213 0.137181 -0.0643701 0 -0.0554213 -0.137177 3.93701e-006 -3.93701e-006 0.0643661 0zm0.091563 0l0.0554213 0.137181 -0.064374 0 -0.0554213 -0.137177 7.87402e-006 -3.93701e-006 0.0643661 0zm0.0915551 0l0.0554252 0.137181 -0.064374 0 -0.0554213 -0.137177 7.87402e-006 -3.93701e-006 0.0643622 0zm0.091563 0l0.0554213 0.137181 -0.0643701 0 -0.0554213 -0.137177 3.93701e-006 -3.93701e-006 0.0643661 0zm-0.855256 0.34628l0.425488 0 0 0.0374803 -0.425488 0 0 -0.0374803zm0.71415 0.0207677l0.160894 0 0 0.0167126 -0.160894 0 0 -0.0167126zm0.0552008 -0.0175197l0 -0.0513307 0.0183189 0 -0.0366378 -0.0513307 -0.0366378 0.0513307 0.0183189 0 0 0.0513307 0.0366378 0zm0.0868701 0l0 -0.0513307 0.0183189 0 -0.0366378 -0.0513307 -0.0366378 0.0513307 0.0183189 0 0 0.0513307 0.0366378 0zm-0.85622 -0.102661l0.425488 0 0 0.0374843 -0.425488 0 0 -0.0374843z"/>
  <path class="fil2" d="M2.77308 4.62861c-0.0137205,0 -0.0248504,0.011126 -0.0248504,0.0248504 0,0.0137205 0.0111299,0.0248504 0.0248504,0.0248504l0.521756 0c0.0137244,0 0.0248504,-0.0111299 0.0248504,-0.0248504 0,-0.0137244 -0.011126,-0.0248504 -0.0248504,-0.0248504l-0.521756 0z"/>
  <path class="fil2" d="M4.13141 4.62861c-0.0137205,0 -0.0248504,0.011126 -0.0248504,0.0248504 0,0.0137205 0.0111299,0.0248504 0.0248504,0.0248504l0.521756 0c0.0137244,0 0.0248504,-0.0111299 0.0248504,-0.0248504 0,-0.0137244 -0.011126,-0.0248504 -0.0248504,-0.0248504l-0.521756 0z"/>
  <g id="_457595952">
   <path id="_457595784" class="fil1" d="M1.38553 4.62861l0.35411 0 0 0.286185 0 0.00198425 0.0216732 0.0327441 0.0217559 -0.032878 0.0217598 0.032878 0.0217559 -0.032878 0.0217559 0.032878 0.0217598 -0.032878 0.0217598 0.032878 0.0217559 -0.032878 0.0217559 0.032878 0.0217598 -0.032878 0.0217598 0.032878 0.0216732 -0.032748 0 -0.000129921 0 -0.288035 0.35411 0c0.0274488,0 0.0497008,0.0224134 0.0497008,0.050063l-0.00147244 0.549059 -0.0259803 -0.0643071 -0.0643661 0 -3.93701e-006 3.93701e-006 0.0554213 0.137177 0.0347323 0 -0.00080315 0.300024c0,0.0276496 -0.022252,0.050063 -0.0497008,0.050063l-0.969146 0c-0.0274488,0 -0.0497008,-0.0224134 -0.0497008,-0.050063l0.000980315 -0.365543 0.0264724 0.0655197 0.0643701 0 -0.0554252 -0.137181 -0.0352283 0 0.00130315 -0.484752c0,-0.0276496 0.022252,-0.050063 0.0497008,-0.050063zm0.0757874 0.534815l0.0554252 0.137181 -0.064374 0 -0.0554213 -0.137177 3.93701e-006 -3.93701e-006 0.0643661 0zm0.091563 0l0.0554213 0.137181 -0.0643701 0 -0.0554252 -0.137177 7.87402e-006 -3.93701e-006 0.0643661 0zm0.0915591 0l0.0554213 0.137181 -0.064374 0 -0.0554173 -0.137177 3.93701e-006 -3.93701e-006 0.0643661 0zm0.0915591 0l0.0554213 0.137181 -0.0643701 0 -0.0554213 -0.137177 3.93701e-006 -3.93701e-006 0.0643661 0zm0.0915591 0l0.0554252 0.137181 -0.064374 0 -0.0554213 -0.137177 3.93701e-006 -3.93701e-006 0.0643661 0zm0.091563 0l0.0554252 0.137181 -0.064374 0 -0.0554213 -0.137177 3.93701e-006 -3.93701e-006 0.0643661 0zm0.0915591 0l0.0554252 0.137181 -0.0643701 0 -0.0554252 -0.137177 7.87402e-006 -3.93701e-006 0.0643622 0zm0.091563 0l0.0554213 0.137181 -0.0643701 0 -0.0554213 -0.137177 7.87402e-006 -3.93701e-006 0.0643622 0zm0.0915591 0l0.0554213 0.137181 -0.0643701 0 -0.0554213 -0.137177 3.93701e-006 -3.93701e-006 0.0643661 0zm0.0915591 0l0.0554213 0.137181 -0.0643701 0 -0.0554213 -0.137177 7.87402e-006 -3.93701e-006 0.0643622 0zm-0.855252 0.34628l0.425488 0 0 0.0374803 -0.425488 0 0 -0.0374803zm0.71415 0.0207677l0.160894 0 0 0.0167126 -0.160894 0 0 -0.0167126zm0.0551969 -0.0175197l0 -0.0513307 0.0183189 0 -0.0366339 -0.0513307 -0.0366417 0.0513307 0.0183189 0 0 0.0513307 0.0366378 0zm0.0868701 0l0 -0.0513307 0.0183189 0 -0.0366378 -0.0513307 -0.0366378 0.0513307 0.0183189 0 0 0.0513307 0.0366378 0zm-0.856217 -0.102661l0.425488 0 0 0.0374843 -0.425488 0 0 -0.0374843z"/>
   <path id="_457595928" class="fil2" d="M1.60799 4.62861c-0.0137205,0 -0.0248504,0.011126 -0.0248504,0.0248504 0,0.0137205 0.0111299,0.0248504 0.0248504,0.0248504l0.521756 0c0.0137205,0 0.0248504,-0.0111299 0.0248504,-0.0248504 0,-0.0137244 -0.0111299,-0.0248504 -0.0248504,-0.0248504l-0.521756 0z"/>
  </g>
 </g>
</svg>
