<?xml version="1.0" encoding="UTF-8"?>
<!DOCTYPE svg PUBLIC "-//W3C//DTD SVG 1.1//EN" "http://www.w3.org/Graphics/SVG/1.1/DTD/svg11.dtd">
<!-- Creator: CorelDRAW -->
<svg xmlns="http://www.w3.org/2000/svg" xml:space="preserve" width="6.82666in" height="6.82666in" style="shape-rendering:geometricPrecision; text-rendering:geometricPrecision; image-rendering:optimizeQuality; fill-rule:evenodd; clip-rule:evenodd"
viewBox="0 0 6.82666 6.82666"
 xmlns:xlink="http://www.w3.org/1999/xlink">
 <defs>
  <style type="text/css">
   <![CDATA[
    .fil0 {fill:#424242}
    .fil1 {fill:#FFFFFE}
    .fil2 {fill:#FFFFFE;fill-rule:nonzero}
   ]]>
  </style>
 </defs>
 <rect class="fil0" width="6.82666" height="6.82666"/>
 <g id="Layer_x0020_1">
  <metadata id="CorelCorpID_0Corel-Layer"/>
  <path class="fil1" d="M0.853331 4.02846l5.12 0c0.0441811,0 0.08,0.0358189 0.08,0.08 0,0.0441811 -0.0358189,0.530004 -0.08,0.530004l-5.12 0c-0.0441811,0 -0.08,-0.485823 -0.08,-0.530004 0,-0.0441811 0.0358189,-0.08 0.08,-0.08zm2.50802 0.198331c-0.0589094,0 -0.106669,0.0477598 -0.106669,0.106669 0,0.0589094 0.0477598,0.106669 0.106669,0.106669l0.103961 0c0.0589094,0 0.106669,-0.0477598 0.106669,-0.106669 0,-0.0589094 -0.0477598,-0.106669 -0.106669,-0.106669l-0.103961 0z"/>
  <path class="fil2" d="M0.853331 1.06666l5.12 0c0.0589094,0 0.106669,0.0477598 0.106669,0.106669l0 3.52c0,0.0589094 -0.0477598,0.106669 -0.106669,0.106669l-5.12 0c-0.0589094,0 -0.106669,-0.0477598 -0.106669,-0.106669l0 -3.52c0,-0.0589094 0.0477598,-0.106669 0.106669,-0.106669zm5.01333 0.213339l-4.90666 0 0 3.30666 4.90666 0 0 -3.30666z"/>
  <path class="fil2" d="M3.92417 4.69333c0,-0.0589094 -0.474421,-0.106669 -0.533331,-0.106669 -0.0589094,0 -0.488343,0.0477598 -0.488343,0.106669l0 0.853335c0,0.0589094 0.429433,0.106669 0.488343,0.106669 0.0589094,0 0.533331,-0.0477598 0.533331,-0.106669l0 -0.853335z"/>
  <path class="fil2" d="M2.36896 5.54666c-0.0640866,0 -0.116043,0.0477598 -0.116043,0.106669 0,0.0589094 0.0519567,0.106669 0.116043,0.106669l2.08874 0c0.0640866,0 0.116043,-0.0477598 0.116043,-0.106669 0,-0.0589094 -0.0519567,-0.106669 -0.116043,-0.106669l-0.484571 -0.0533307 -1.13321 0 -0.470961 0.0533307z"/>
  <g id="_458280960">
   <path id="_458281752" class="fil1" d="M5.56361 1.87881l-0.00563386 1.04196 -3.11344 0c-0.00122047,0.000106299 -0.00245669,0.000165354 -0.00370866,0.000165354 -0.0232126,0 -0.0420354,-0.0188228 -0.0420354,-0.0420354l0 -1.00009c0,-0.0232126 0.0188228,-0.0420354 0.0420354,-0.0420354l3.08074 0c0.0232165,0 0.0420354,0.0188228 0.0420354,0.0420354zm-1.5048 0.94328c0.108961,-0.00314567 0.207327,-0.0485945 0.279232,-0.120504 0.00303543,-0.0030315 0.00601969,-0.00612205 0.00896063,-0.00925197 -0.00985827,-0.00546457 -0.0302008,-0.0167362 -0.0320512,-0.0177087 -0.027815,-0.0146693 -0.0578622,-0.0259685 -0.0883228,-0.0345669 -0.00712598,0.0203583 -0.0154134,0.0400394 -0.0249409,0.0587087 -0.0290039,0.056815 -0.0772992,0.116543 -0.142878,0.123193l0 0.000129921zm0.388161 -0.626248l-0.0173189 -0.076311c-0.00511417,0.00105118 -0.00933858,0.00191732 -0.0107598,0.00218504 -0.058685,0.011126 -0.126906,0.0297441 -0.201004,0.0551417 -0.0716457,0.0245591 -0.148291,0.0553071 -0.226606,0.0915906 -0.159126,0.0737283 -0.295469,0.156402 -0.38726,0.230461 -0.0839803,0.067752 -0.129291,0.123976 -0.116031,0.152602 0.00629528,0.0135906 0.0299449,0.0208504 0.0667717,0.0223189 0.025437,0.00101575 0.0559528,-0.0011811 0.0906063,-0.00640157 0.0212835,-0.00320472 0.0200118,-0.00353543 0.0442008,-0.00898819l0.0333858 0.0427953c-0.026748,0.0065315 -0.0281063,0.00785827 -0.0520748,0.0119724 -0.0452717,0.00777165 -0.0851654,0.0111614 -0.118047,0.00984646 -0.0561535,-0.00224016 -0.0947244,-0.0187323 -0.109622,-0.0508858 -0.0240236,-0.0518504 0.0273858,-0.128945 0.129925,-0.211673 0.0947244,-0.0764252 0.234709,-0.161406 0.397492,-0.236827 0.080248,-0.037185 0.158445,-0.0685709 0.23124,-0.0935236 0.0759213,-0.0260236 0.146516,-0.0452283 0.207949,-0.056878 0.00257874,-0.000488189 0.00561024,-0.00109843 0.00893307,-0.00177953l-0.017622 -0.0776339 0.123913 0.0780709 -0.0780709 0.123917zm-0.0161181 0.0651378l-3.93701e-006 0c-0.0146299,-0.0376181 -0.034622,-0.0725551 -0.0590354,-0.103874 -0.00585039,0.00140157 -0.011689,0.00284252 -0.0175236,0.00433071 -0.0410039,0.0104409 -0.0816614,0.0229409 -0.121413,0.0364173l0.00387795 0.0145236 -1.1811e-005 0c0.0171732,0.0603858 0.0251457,0.124953 0.0260748,0.18574l0.0431732 0 0.152555 0c-3.54331e-005,-0.00129134 -7.87402e-005,-0.00257874 -0.000129921,-0.00386614l-1.1811e-005 -0.000385827 -1.1811e-005 -0.000267717c-0.000110236,-0.00269685 -0.000244094,-0.00538583 -0.000401575,-0.00807087l-1.1811e-005 -0.000232283c-8.26772e-005,-0.00136614 -0.000169291,-0.00273228 -0.000267717,-0.00409843l0 -1.1811e-005 -0.000295276 -0.00399606 -3.93701e-005 -0.000429134 -0.000326772 -0.00386614 -2.75591e-005 -0.00030315 -0.000338583 -0.0036063 -3.93701e-005 -0.000366142 -1.5748e-005 -0.000177165 -0.000413386 -0.00388976 -7.87402e-006 -0.000102362c-0.000153543,-0.00138583 -0.000318898,-0.00277165 -0.000484252,-0.00415354l-1.5748e-005 -0.000161417 -0.000452756 -0.00358268 -5.11811e-005 -0.000397638 -5.51181e-005 -0.000425197c-0.000161417,-0.00120472 -0.000326772,-0.00240945 -0.000496063,-0.00361417l-1.9685e-005 -0.000137795 -0.000574803 -0.00390945 -4.72441e-005 -0.000330709c-0.000200787,-0.00130315 -0.000401575,-0.00260236 -0.000614173,-0.00390551l-7.87402e-006 -4.72441e-005c-0.000216535,-0.00133071 -0.000437008,-0.00266142 -0.000665354,-0.00398819l-4.33071e-005 -0.000244094 -0.000614173 -0.00345669 -8.26772e-005 -0.000452756 -6.29921e-005 -0.000346457c-0.000216535,-0.00117717 -0.000437008,-0.00234646 -0.000661417,-0.00351969l-3.93701e-005 -0.000192913 -5.90551e-005 -0.00030315c-0.000240157,-0.00125197 -0.000488189,-0.00249606 -0.000744094,-0.00374409l-1.1811e-005 -6.29921e-005 -0.000724409 -0.00346063 -0.000106299 -0.000511811 -6.69291e-005 -0.000314961 -0.000748031 -0.00340157 -0.000110236 -0.000488189 -0.000791339 -0.00344094 -0.000165354 -0.00069685 -0.000866142 -0.00359843 -3.14961e-005 -0.000133858c-0.000299213,-0.00122441 -0.000606299,-0.00244488 -0.00092126,-0.00366929l-0.000169291 -0.000649606 -0.000787402 -0.00301181 -0.000141732 -0.000535433 -0.000102362 -0.000385827 -0.000893701 -0.00327165 -7.87402e-005 -0.000283465 -0.000102362 -0.000362205c-0.000330709,-0.0011811 -0.00065748,-0.00235827 -0.001,-0.0035315l-1.1811e-005 -3.14961e-005c-0.000751969,-0.00260236 -0.00152756,-0.00518898 -0.00232677,-0.00777165l-1.5748e-005 -4.72441e-005c-0.000755906,-0.00243307 -0.0015315,-0.00485433 -0.00233071,-0.00726772l-0.00030315 -0.000897638 -0.00107087 -0.00317323 -0.000165354 -0.000480315 -0.00116929 -0.00334646 -0.000208661 -0.000582677c-0.00084252,-0.00237402 -0.00170472,-0.00474016 -0.00259449,-0.00709843l-1.1811e-005 -3.14961e-005 -4.72441e-005 -0.000125984 -0.000122047 -0.000314961 -0.00136614 -0.0035748zm0.0253543 0.103469c-0.000153543,-0.00138583 -0.000318898,-0.00277165 -0.000484252,-0.00415354m-0.242248 -0.141469l-0.00348819 -0.0130669c-0.0241417,0.00849213 -0.0481496,0.0174291 -0.0720039,0.0267756 -0.0265906,0.0104134 -0.0529882,0.0213346 -0.0791732,0.0326969l0 0.132886 0.179768 0c-0.000913386,-0.0586575 -0.00852756,-0.121043 -0.0251378,-0.179283l3.54331e-005 -7.87402e-006zm-0.0103583 0.41513c-0.0020748,-0.000492126 -0.00414961,-0.000972441 -0.00622047,-0.00144094 -0.045122,-0.0102205 -0.0917717,-0.0153661 -0.138087,-0.0161535l0 0.180453c0.0557362,-0.00705118 0.0970591,-0.0617047 0.121531,-0.109642 0.00865354,-0.0169528 0.0162165,-0.0347835 0.0227756,-0.0532165zm-0.168547 -0.0176102c-0.0464055,0.000712598 -0.0931772,0.00574016 -0.138378,0.0160276 -0.00199606,0.000452756 -0.00399606,0.00092126 -0.00599213,0.00140157 0.0065748,0.0184961 0.0141575,0.0363898 0.0228386,0.0533976 0.0244724,0.047937 0.0657992,0.102591 0.121531,0.109642l0 -0.180469zm-0.167854 0.0236142c-0.0288425,0.00829134 -0.0572953,0.0190669 -0.0839016,0.0321811 -0.00282677,0.0013937 -0.0234921,0.0135906 -0.0358504,0.020815 0.00275197,0.00291339 0.00553937,0.00579528 0.00837402,0.00862992 0.0719094,0.0719094 0.170272,0.117358 0.279232,0.120504l0 -0.000129921c-0.0655787,-0.00664961 -0.113874,-0.066378 -0.142878,-0.123193 -0.00954331,-0.0187008 -0.0178386,-0.0384134 -0.0249764,-0.0588071zm0.496638 0.0339094c0.0571378,-0.0685551 0.0924331,-0.155961 0.0951929,-0.251512l-0.195728 0c-0.000976378,0.0638268 -0.00972441,0.131835 -0.0287244,0.19478 0.0320512,0.00911417 0.0636378,0.0211024 0.0928858,0.0366102 0.00214567,0.00113386 0.0316417,0.0174961 0.036374,0.020122zm-0.124776 -0.251512l-0.179768 0 0 0.169764c0.0480866,0.000807087 0.0964921,0.00627165 0.143339,0.016878 0.00284252,0.000645669 0.00568898,0.00131102 0.00853543,0.00199606 0.0185236,-0.0608701 0.0269291,-0.126827 0.0278937,-0.188638zm-0.204008 0l-0.179768 0c0.000964567,0.0617441 0.00935039,0.127618 0.0278346,0.188433 0.00275984,-0.000661417 0.00551969,-0.00130315 0.00827953,-0.0019252 0.0469567,-0.0105827 0.0954685,-0.0160079 0.143654,-0.0167598l0 -0.169748zm-0.204008 0l-0.0743622 0c-0.038315,0.0237953 -0.0760984,0.0491772 -0.111988,0.0764606 0.0144252,0.0658465 0.0445945,0.125795 0.0863661,0.175709 0.0109016,-0.00637402 0.0379567,-0.0224291 0.041437,-0.024185 0.0276614,-0.0139882 0.0572323,-0.0249646 0.0872047,-0.0334409 -0.0189567,-0.062878 -0.0276811,-0.130795 -0.0286575,-0.194543zm0.079063 -0.197016c-0.00625984,-0.00122047 -0.0124961,-0.0025315 -0.0187087,-0.00392913 -0.00365748,-0.000826772 -0.0073189,-0.00168504 -0.0109803,-0.00257874 -0.00230709,0.00809843 -0.00444094,0.0162756 -0.00640945,0.0245118 0.0119882,-0.00609449 0.0240236,-0.0120984 0.0360984,-0.0180039zm-0.0535472 0.138811c-0.000681102,0.0114173 -0.00109843,0.0227598 -0.00127559,0.0339646l0.179768 0 0 -0.12222c-0.0110079,0.00491339 -0.0219764,0.00990551 -0.0329016,0.0149685 -0.0492323,0.022811 -0.0979094,0.047189 -0.145591,0.0732874zm0.000492126 -0.151528c-0.0290669,-0.00837402 -0.0577087,-0.0191142 -0.0845551,-0.032689 -0.0041378,-0.00208661 -0.0415669,-0.0243661 -0.0456142,-0.0265945 -0.000433071,-0.000240157 -0.000846457,-0.000503937 -0.00124016,-0.000783465 -0.051374,0.0640236 -0.0840197,0.143717 -0.0896299,0.230772 0.0320551,-0.0221024 0.0650079,-0.0429843 0.0981378,-0.0628228 0.0366457,-0.0219409 0.0740079,-0.0428268 0.111894,-0.0627126 0.00313386,-0.0152283 0.00679134,-0.0303268 0.0110079,-0.0451693zm-0.0602953 0.185492l0.0342874 0c0.000102362,-0.00666142 0.000291339,-0.0133622 0.000562992,-0.0201024 -0.011685,0.00659449 -0.0233031,0.0132913 -0.0348504,0.0201024zm0.492575 -0.321276c-0.0649331,-0.0472441 -0.144193,-0.0759843 -0.230039,-0.0784646l0 0.000133858c0.0598701,0.00607087 0.105331,0.056378 0.134862,0.108323l0.000185039 -5.90551e-005c0.0312283,-0.0107087 0.0629606,-0.020815 0.0949921,-0.0299331zm-0.230039 -0.053189l0 0.134315c0.036815,-0.0152598 0.074,-0.0296339 0.1115,-0.0429685 -0.0250669,-0.0426378 -0.0627756,-0.0851811 -0.1115,-0.0913465zm-0.0242402 -0.0252756c-0.108961,0.00314961 -0.207323,0.0485984 -0.279232,0.120504 -0.00488189,0.00488189 -0.0096378,0.00988976 -0.0142677,0.0150118 0.00989764,0.00570866 0.0383858,0.0225906 0.0417441,0.0242441 0.0256732,0.0126535 0.053063,0.0231299 0.0808661,0.0312953 0.0077874,-0.0235709 0.0170827,-0.046315 0.0280118,-0.0677283 0.0290039,-0.0568189 0.0772992,-0.116547 0.142878,-0.123193l0 -0.000133858zm-0.147488 0.19737c0.00303543,0.000748031 0.00607087,0.00146457 0.00911024,0.00215748 0.0168622,0.00383858 0.0339449,0.00694094 0.0511417,0.00936614 0.00429921,-0.00201969 0.00860236,-0.00402756 0.0129055,-0.00602362 0.0245866,-0.0113898 0.0493661,-0.0224331 0.0743307,-0.0330866l0 -0.144508c-0.0557323,0.00705512 -0.0970591,0.0617047 -0.121531,0.109646 -0.0100906,0.0197677 -0.0187008,0.0407283 -0.0259567,0.0624488z"/>
   <path id="_458281680" class="fil2" d="M2.03017 2.28992c-0.00325197,0 -0.00644488,0.000251969 -0.00955906,0.000732283 0.00311024,-0.000224409 0.00626772,-0.00034252 0.00946457,-0.00034252l9.44882e-005 0 0 -0.000389764zm0.313906 0.413835l-0.801268 0c0.0321299,-0.0539252 0.0730787,-0.102811 0.120394,-0.14448 0.0990748,-0.0872559 0.225547,-0.142252 0.356693,-0.144988 0.00333858,0.000259843 0.00673622,0.000397638 0.0101811,0.000397638 0.00394094,0 0.00782283,-0.000177165 0.0116299,-0.000515748l0.30237 0 0 0.289587zm-0.10802 0.656327l0.170142 0c0.0343071,0 0.062122,-0.027815 0.062122,-0.062122l0 -3.93701e-006 0 0 0 -0.00218504c0,-0.0343071 -0.027815,-0.062122 -0.062122,-0.062122 -0.00566535,0 -0.0111496,0.00076378 -0.0163622,0.0021811l0.0163622 0c0.0335748,0 0.0609291,0.0266457 0.0620827,0.0599409l3.93701e-005 0 0 -0.943724c0,-0.034311 -0.027815,-0.062126 -0.062122,-0.062126l-0.376028 0c0.00331102,0 0.00655906,0.00026378 0.00972835,0.000759843 -0.00319685,-0.000240157 -0.00644094,-0.000366142 -0.00972835,-0.000370079l0 -0.000389764c-0.165969,0 -0.325563,0.0674724 -0.448988,0.176173 -0.123185,0.108484 -0.210882,0.258736 -0.233339,0.424555l-0.0467598 0.345181 -0.00502362 0c-0.034311,0 -0.062126,0.027815 -0.062126,0.062126 0,0.0343071 0.027815,0.062122 0.062126,0.062122l0.0587638 0 0.000358268 3.93701e-006 0.170142 0c-0.00354331,-0.0203543 -0.00535827,-0.0411299 -0.00535827,-0.062126 0,-0.0959409 0.0378346,-0.18724 0.105661,-0.255067 0.0678228,-0.0678228 0.159122,-0.105657 0.255063,-0.105657 0.095937,0 0.187236,0.0378346 0.255063,0.105661 0.0678268,0.0678268 0.105657,0.159126 0.105657,0.255063 0,0.0209961 -0.00181496,0.0417717 -0.00535433,0.062126z"/>
   <path id="_458280576" class="fil2" d="M1.88069 2.99935c0.0824449,0 0.157098,0.0334291 0.211138,0.0874646 0.0540354,0.0540354 0.0874606,0.128689 0.0874606,0.211138 0,0.0824488 -0.0334252,0.157102 -0.0874606,0.211134 -0.0540394,0.0540394 -0.128693,0.0874646 -0.211138,0.0874646 -0.0824488,0 -0.157102,-0.0334252 -0.211138,-0.0874646 -0.0540354,-0.0540354 -0.0874646,-0.128689 -0.0874646,-0.211134 0,-0.0824488 0.0334291,-0.157102 0.0874646,-0.211138 0.0540354,-0.0540354 0.128689,-0.0874646 0.211138,-0.0874646zm0.123291 0.175307c-0.0315433,-0.0315433 -0.0751378,-0.051063 -0.123291,-0.051063 -0.0481535,0 -0.091748,0.0195197 -0.123295,0.051063 -0.0315433,0.0315472 -0.0510591,0.0751417 -0.0510591,0.123295 0,0.0481496 0.0195157,0.0917441 0.0510591,0.123291 0.0315472,0.0315433 0.0751417,0.051063 0.123295,0.051063 0.0481535,0 0.091748,-0.0195197 0.123291,-0.051063 0.0315472,-0.0315472 0.051063,-0.0751378 0.051063,-0.123291 0,-0.0481535 -0.0195157,-0.091748 -0.051063,-0.123295z"/>
   <path id="_458280552" class="fil2" d="M1.88069 2.99935c0.0824528,0 0.157102,0.0334291 0.211138,0.0874646 0.0540354,0.0540354 0.0874606,0.128689 0.0874606,0.211138 0,0.0824488 -0.0334252,0.157102 -0.0874606,0.211134 -0.0540354,0.0540394 -0.128685,0.0874646 -0.211138,0.0874646 -0.0824488,0 -0.157102,-0.0334252 -0.211138,-0.0874646 -0.0540354,-0.0540354 -0.0874646,-0.128689 -0.0874646,-0.211134 0,-0.0824488 0.0334291,-0.157102 0.0874646,-0.211138 0.0540354,-0.0540354 0.128689,-0.0874646 0.211138,-0.0874646zm0.0791654 0.219433c-0.0202559,-0.0202559 -0.0482441,-0.0327874 -0.0791654,-0.0327874 -0.0309213,0 -0.0589134,0.0125354 -0.0791654,0.0327874 -0.0202559,0.0202559 -0.0327913,0.048248 -0.0327913,0.0791693 0,0.0309173 0.0125354,0.0589094 0.0327913,0.0791654 0.020252,0.0202559 0.0482441,0.0327874 0.0791654,0.0327874 0.0309213,0 0.0589094,-0.0125315 0.0791654,-0.0327874 0.0202559,-0.0202559 0.0327874,-0.0482441 0.0327874,-0.0791654 0,-0.0309213 -0.0125315,-0.0589134 -0.0327874,-0.0791693z"/>
   <circle id="_458280504" class="fil1" cx="1.88069" cy="3.29796" r="0.050003"/>
   <path id="_458281032" class="fil2" d="M4.6663 2.99935c0.0824528,0 0.157106,0.0334291 0.211138,0.0874646 0.0540354,0.0540354 0.0874646,0.128689 0.0874646,0.211138 0,0.0824488 -0.0334291,0.157102 -0.0874646,0.211134 -0.0540315,0.0540394 -0.128685,0.0874646 -0.211138,0.0874646 -0.0824449,0 -0.157098,-0.0334252 -0.211134,-0.0874646 -0.0540394,-0.0540354 -0.0874646,-0.128689 -0.0874646,-0.211134 0,-0.0824488 0.0334252,-0.157102 0.0874646,-0.211138 0.0540354,-0.0540354 0.128689,-0.0874646 0.211134,-0.0874646zm0 0.248598c0.0276181,0 0.0500039,0.0223858 0.0500039,0.0500039 0,0.0276142 -0.0223858,0.05 -0.0500039,0.05 -0.0276181,0 -0.05,-0.0223858 -0.05,-0.05 0,-0.0276181 0.0223819,-0.0500039 0.05,-0.0500039zm-0.792535 0c0.0276181,0 0.0500039,0.0223858 0.0500039,0.0500039 0,0.0276142 -0.0223858,0.05 -0.0500039,0.05 -0.0276181,0 -0.0500039,-0.0223858 -0.0500039,-0.05 0,-0.0276181 0.0223858,-0.0500039 0.0500039,-0.0500039zm1.19419 0.112126l0 0 0.000177165 0 0.524594 0 0 -0.124248 -0.0359882 0 0 -0.310146c0,-0.0343071 -0.027815,-0.062122 -0.062122,-0.062122l-3.09853 0c-0.0343071,0 -0.062122,0.027815 -0.062122,0.062122l0 0.372276c0,0.0343071 0.027815,0.062122 0.062122,0.062122 0.00184646,0 0.00367323,-8.66142e-005 0.00547638,-0.000244094l1.1168 0c-0.00808661,-0.064937 -0.00409449,-0.0920551 0,-0.12376 0.0126063,-0.072748 0.0473031,-0.140146 0.100346,-0.193189 0.0678228,-0.0678228 0.159126,-0.105657 0.255063,-0.105657 0.095937,0 0.187236,0.0378346 0.255063,0.105661 0.0678268,0.0678268 0.105657,0.159126 0.105657,0.255063 0,0.0209961 -0.00181102,0.0417677 -0.00535433,0.062122l0.0818031 0c-0.00354331,-0.0203543 -0.00535433,-0.041126 -0.00535433,-0.062122 0,-0.0959409 0.0378307,-0.18724 0.105657,-0.255067 0.0678268,-0.0678228 0.159126,-0.105657 0.255063,-0.105657 0.0959409,0 0.187236,0.0378346 0.255067,0.105661 0.0678228,0.0678268 0.105657,0.159126 0.105657,0.255063 0,0.0209961 -0.00181102,0.0417677 -0.00535433,0.062122l0.0462835 0zm-1.19419 -0.360724c0.0824528,0 0.157102,0.0334291 0.211138,0.0874646 0.0540354,0.0540354 0.0874646,0.128689 0.0874646,0.211138 0,0.0824488 -0.0334291,0.157102 -0.0874646,0.211134 -0.0540354,0.0540394 -0.128685,0.0874646 -0.211138,0.0874646 -0.0824488,0 -0.157102,-0.0334252 -0.211138,-0.0874646 -0.0540354,-0.0540354 -0.0874646,-0.128689 -0.0874646,-0.211134 0,-0.0824488 0.0334291,-0.157102 0.0874646,-0.211138 0.0540354,-0.0540354 0.128689,-0.0874646 0.211138,-0.0874646zm0.0791654 0.219433c-0.0202559,-0.0202559 -0.0482441,-0.0327874 -0.0791654,-0.0327874 -0.0309213,0 -0.0589094,0.0125354 -0.0791654,0.0327874 -0.0202559,0.0202559 -0.0327874,0.048248 -0.0327874,0.0791693 0,0.0309173 0.0125315,0.0589094 0.0327874,0.0791654 0.0202559,0.0202559 0.0482441,0.0327874 0.0791654,0.0327874 0.0309213,0 0.0589094,-0.0125315 0.0791654,-0.0327874 0.0202598,-0.0202559 0.0327874,-0.0482441 0.0327874,-0.0791654 0,-0.0309213 -0.0125315,-0.0589134 -0.0327874,-0.0791693zm0.792539 0c-0.0202559,-0.0202559 -0.048248,-0.0327874 -0.0791693,-0.0327874 -0.0309173,0 -0.0589094,0.0125354 -0.0791654,0.0327874 -0.0197559,0.0114094 -0.0327874,0.048248 -0.0327874,0.0791693 0,0.0309173 0.0125315,0.0589094 0.0327874,0.0791654 0.0202559,0.0202559 0.048248,0.0327874 0.0791654,0.0327874 0.0309213,0 0.0589134,-0.0125315 0.0791693,-0.0327874 0.0202559,-0.0202559 0.0327874,-0.0482441 0.0327874,-0.0791654 0,-0.0309213 -0.0125354,-0.0589134 -0.0327874,-0.0791693z"/>
  </g>
 </g>
</svg>
