<svg id="Group_832" data-name="Group 832" xmlns="http://www.w3.org/2000/svg" viewBox="0 0 1822.77 888.233">
  <defs>
    <style>
      .cls-1, .cls-2, .cls-6, .cls-7 {
        fill: none;
      }

      .cls-1, .cls-2, .cls-6 {
        stroke: #c5ecff;
      }

      .cls-1, .cls-2, .cls-6, .cls-7, .cls-8 {
        stroke-miterlimit: 10;
      }

      .cls-1, .cls-2, .cls-7, .cls-8 {
        stroke-width: 2px;
      }

      .cls-2, .cls-4 {
        opacity: 0.6;
      }

      .cls-3, .cls-5 {
        opacity: 0.5;
      }

      .cls-5, .cls-8, .cls-9 {
        fill: #4fbafb;
      }

      .cls-7, .cls-8 {
        stroke: #4fbafb;
      }
    </style>
  </defs>
  <circle id="Ellipse_113" data-name="Ellipse 113" class="cls-1" cx="6.25" cy="6.25" r="6.25" transform="translate(1 128.5)"/>
  <g id="Group_785" data-name="Group 785">
    <g id="Group_784" data-name="Group 784">
      <path id="Path_800" data-name="Path 800" class="cls-1" d="M124.985,134.719A16.223,16.223,0,0,0,108.762,118.5c-.373,0-.737.031-1.1.056a24.609,24.609,0,0,0-45.843-.051,16.169,16.169,0,0,0-15.574,20.425h78.174A16.216,16.216,0,0,0,124.985,134.719Z"/>
    </g>
    <path id="Path_801" data-name="Path 801" class="cls-1" d="M124.985,138.925h0Z"/>
  </g>
  <circle id="Ellipse_114" data-name="Ellipse 114" class="cls-1" cx="5.708" cy="5.708" r="5.708" transform="translate(191.681 128.711)"/>
  <g id="Group_786" data-name="Group 786">
    <path id="Path_802" data-name="Path 802" class="cls-1" d="M274.6,118.5c-.373,0-.737.031-1.1.056a24.625,24.625,0,0,0-22.931-15.678A25.338,25.338,0,0,0,227.132,118.5c-.522,0,.179-.007,0,0-.265.689-4.553,12.271,3.6,20.43h59.516A16.175,16.175,0,0,0,274.6,118.5Z"/>
  </g>
  <circle id="Ellipse_115" data-name="Ellipse 115" class="cls-1" cx="5.107" cy="5.107" r="5.107" transform="translate(302.241 129.518)"/>
  <circle id="Ellipse_116" data-name="Ellipse 116" class="cls-1" cx="39.808" cy="39.808" r="39.808" transform="translate(334.045 1)"/>
  <g id="Group_787" data-name="Group 787">
    <path id="Path_803" data-name="Path 803" class="cls-1" d="M375.8,221.157c.373,0,.737.031,1.1.056a24.625,24.625,0,0,1,22.931-15.678,25.338,25.338,0,0,1,23.434,15.623c.522,0-.179-.007,0,0,.265.689,4.553,12.271-3.605,20.43H360.148A16.175,16.175,0,0,1,375.8,221.157Z"/>
  </g>
  <line id="Line_46" data-name="Line 46" class="cls-1" x1="49.271" transform="translate(310.465 241.587)"/>
  <line id="Line_47" data-name="Line 47" class="cls-1" x1="33.649" transform="translate(240.764 241.587)"/>
  <circle id="Ellipse_117" data-name="Ellipse 117" class="cls-1" cx="5.708" cy="5.708" r="5.708" transform="translate(456.476 230.17)"/>
  <line id="Line_48" data-name="Line 48" class="cls-1" x2="44.464" transform="translate(461.884 241.587)"/>
  <circle id="Ellipse_118" data-name="Ellipse 118" class="cls-2" cx="11.118" cy="11.118" r="11.118" transform="translate(1399.001 176.493)"/>
  <g id="Group_788" data-name="Group 788" class="cls-3">
    <path id="Path_804" data-name="Path 804" class="cls-1" d="M1534.328,190.47a17.154,17.154,0,0,0-17.154-17.154c-.394,0-.78.033-1.167.059a26.022,26.022,0,0,0-48.474-.055,17.1,17.1,0,0,0-16.468,21.6h82.659A17.073,17.073,0,0,0,1534.328,190.47Z"/>
  </g>
  <circle id="Ellipse_119" data-name="Ellipse 119" class="cls-2" cx="6.036" cy="6.036" r="6.036" transform="translate(1604.85 186.34)"/>
  <g id="Group_789" data-name="Group 789" class="cls-4">
    <path id="Path_805" data-name="Path 805" class="cls-1" d="M1692.528,173.316c-.394,0-.78.033-1.167.059a26.038,26.038,0,0,0-24.247-16.578,26.791,26.791,0,0,0-24.778,16.519c-.552,0,.189-.007,0,0-.28.728-4.815,12.975,3.812,21.6h62.931a17.1,17.1,0,0,0-16.551-21.6Z"/>
  </g>
  <circle id="Ellipse_120" data-name="Ellipse 120" class="cls-1" cx="5.4" cy="5.4" r="5.4" transform="translate(1721.754 186.976)"/>
  <g id="Group_791" data-name="Group 791">
    <g id="Group_790" data-name="Group 790">
      <path id="Path_806" data-name="Path 806" class="cls-1" d="M515.441,133.028a20.872,20.872,0,0,0-20.872-20.872c-.479,0-.949.04-1.42.072a31.661,31.661,0,0,0-58.978-.066,20.8,20.8,0,0,0-20.036,26.278H514.707A20.825,20.825,0,0,0,515.441,133.028Z"/>
    </g>
    <line id="Line_49" data-name="Line 49" class="cls-1" x2="42" transform="translate(515.5 138.5)"/>
  </g>
  <g id="Group_793" data-name="Group 793">
    <rect id="Rectangle_1543" data-name="Rectangle 1543" class="cls-5" width="11" height="205" transform="translate(164.721 680.518)"/>
    <g id="Group_792" data-name="Group 792">
      <line id="Line_50" data-name="Line 50" class="cls-6" x2="122.945" transform="translate(171.276 690.518)"/>
      <line id="Line_51" data-name="Line 51" class="cls-6" x2="122.945" transform="translate(171.276 703.063)"/>
      <line id="Line_52" data-name="Line 52" class="cls-6" x2="122.945" transform="translate(171.276 715.609)"/>
      <line id="Line_53" data-name="Line 53" class="cls-6" x2="122.945" transform="translate(171.276 728.154)"/>
      <line id="Line_54" data-name="Line 54" class="cls-6" x2="122.945" transform="translate(171.276 740.699)"/>
      <line id="Line_55" data-name="Line 55" class="cls-6" x2="122.945" transform="translate(171.276 753.245)"/>
      <line id="Line_56" data-name="Line 56" class="cls-6" x2="122.945" transform="translate(171.276 765.79)"/>
      <line id="Line_57" data-name="Line 57" class="cls-6" x2="122.945" transform="translate(171.276 778.336)"/>
      <line id="Line_58" data-name="Line 58" class="cls-6" x2="122.945" transform="translate(171.276 790.881)"/>
      <line id="Line_59" data-name="Line 59" class="cls-6" x2="122.945" transform="translate(171.276 803.427)"/>
      <line id="Line_60" data-name="Line 60" class="cls-6" x2="122.945" transform="translate(171.276 815.972)"/>
      <line id="Line_61" data-name="Line 61" class="cls-6" x2="122.945" transform="translate(171.276 828.518)"/>
    </g>
    <rect id="Rectangle_1544" data-name="Rectangle 1544" class="cls-5" width="22" height="56" transform="translate(304.721 772.518)"/>
    <rect id="Rectangle_1545" data-name="Rectangle 1545" class="cls-5" width="10" height="17" transform="translate(257.721 639.518)"/>
    <rect id="Rectangle_1546" data-name="Rectangle 1546" class="cls-7" width="129" height="205" transform="translate(165.221 681.018)"/>
    <path id="Path_807" data-name="Path 807" class="cls-7" d="M188.721,886.018v-246.5h79v17h-61v137h121v-21h-121"/>
    <line id="Line_62" data-name="Line 62" class="cls-7" y2="137" transform="translate(214.721 656.518)"/>
    <line id="Line_63" data-name="Line 63" class="cls-7" y2="137" transform="translate(258.221 656.518)"/>
    <line id="Line_64" data-name="Line 64" class="cls-7" y2="137" transform="translate(251.721 656.518)"/>
    <line id="Line_65" data-name="Line 65" class="cls-8" x2="51.5" transform="translate(206.721 712.518)"/>
    <line id="Line_66" data-name="Line 66" class="cls-8" x2="51.5" transform="translate(206.721 719.518)"/>
    <line id="Line_67" data-name="Line 67" class="cls-8" x2="121" transform="translate(206.721 777.518)"/>
    <line id="Line_68" data-name="Line 68" class="cls-8" y2="21" transform="translate(279.721 772.518)"/>
    <line id="Line_69" data-name="Line 69" class="cls-8" y2="21" transform="translate(314.721 772.518)"/>
    <path id="Path_808" data-name="Path 808" class="cls-7" d="M188.721,839.518h-13v46"/>
    <path id="Path_809" data-name="Path 809" class="cls-7" d="M214.721,885.518l-.5-56.5h113v-36"/>
    <path id="Path_810" data-name="Path 810" class="cls-7" d="M221.221,885.018v-46h65v46"/>
    <line id="Line_70" data-name="Line 70" class="cls-6" x2="65" transform="translate(221.221 846.851)"/>
    <line id="Line_71" data-name="Line 71" class="cls-6" x2="65" transform="translate(221.221 853.384)"/>
    <line id="Line_72" data-name="Line 72" class="cls-6" x2="65" transform="translate(221.221 859.918)"/>
    <line id="Line_73" data-name="Line 73" class="cls-6" x2="65" transform="translate(221.221 866.451)"/>
    <line id="Line_74" data-name="Line 74" class="cls-6" x2="65" transform="translate(221.221 872.984)"/>
    <line id="Line_75" data-name="Line 75" class="cls-6" x2="65" transform="translate(221.221 879.518)"/>
  </g>
  <g id="Group_795" data-name="Group 795">
    <rect id="Rectangle_1547" data-name="Rectangle 1547" class="cls-5" width="9.833" height="205" transform="translate(409.084 680.518)"/>
    <g id="Group_794" data-name="Group 794">
      <line id="Line_76" data-name="Line 76" class="cls-6" x1="13.571" transform="translate(415.417 639.518)"/>
      <line id="Line_77" data-name="Line 77" class="cls-6" x1="13.571" transform="translate(415.417 647.933)"/>
      <line id="Line_78" data-name="Line 78" class="cls-6" x1="13.571" transform="translate(415.417 656.348)"/>
      <line id="Line_79" data-name="Line 79" class="cls-6" x1="13.571" transform="translate(415.417 664.763)"/>
      <line id="Line_80" data-name="Line 80" class="cls-6" x1="13.028" transform="translate(415.689 673.178)"/>
      <line id="Line_81" data-name="Line 81" class="cls-6" x1="13.028" transform="translate(415.689 681.594)"/>
      <line id="Line_82" data-name="Line 82" class="cls-6" x1="13.028" transform="translate(415.689 690.009)"/>
      <line id="Line_83" data-name="Line 83" class="cls-6" x1="13.571" transform="translate(415.417 698.424)"/>
      <line id="Line_84" data-name="Line 84" class="cls-6" x1="13.571" transform="translate(415.417 706.839)"/>
      <line id="Line_85" data-name="Line 85" class="cls-6" x1="13.571" transform="translate(415.417 715.255)"/>
      <line id="Line_86" data-name="Line 86" class="cls-6" x1="13.571" transform="translate(415.417 723.67)"/>
      <line id="Line_87" data-name="Line 87" class="cls-6" x1="13.571" transform="translate(415.417 732.085)"/>
      <line id="Line_88" data-name="Line 88" class="cls-6" x1="13.571" transform="translate(415.417 740.5)"/>
      <line id="Line_89" data-name="Line 89" class="cls-6" x1="13.028" transform="translate(415.689 748.915)"/>
      <line id="Line_90" data-name="Line 90" class="cls-6" x1="13.028" transform="translate(415.689 757.331)"/>
      <line id="Line_91" data-name="Line 91" class="cls-6" x1="13.028" transform="translate(415.689 765.746)"/>
      <line id="Line_92" data-name="Line 92" class="cls-6" x1="13.571" transform="translate(415.417 774.161)"/>
      <line id="Line_93" data-name="Line 93" class="cls-6" x1="13.571" transform="translate(415.417 782.576)"/>
      <line id="Line_94" data-name="Line 94" class="cls-6" x1="13.571" transform="translate(415.417 790.992)"/>
      <line id="Line_95" data-name="Line 95" class="cls-6" x1="13.571" transform="translate(415.417 799.407)"/>
      <line id="Line_96" data-name="Line 96" class="cls-6" x1="13.571" transform="translate(415.417 807.822)"/>
      <line id="Line_97" data-name="Line 97" class="cls-6" x1="13.571" transform="translate(415.417 816.237)"/>
      <line id="Line_98" data-name="Line 98" class="cls-6" x1="13.028" transform="translate(415.689 824.652)"/>
      <line id="Line_99" data-name="Line 99" class="cls-6" x1="13.028" transform="translate(415.689 833.068)"/>
      <line id="Line_100" data-name="Line 100" class="cls-6" x1="13.028" transform="translate(415.689 841.483)"/>
      <line id="Line_101" data-name="Line 101" class="cls-6" x1="13.571" transform="translate(415.417 849.898)"/>
      <line id="Line_102" data-name="Line 102" class="cls-6" x1="13.571" transform="translate(415.417 858.313)"/>
      <line id="Line_103" data-name="Line 103" class="cls-6" x1="13.571" transform="translate(415.417 866.729)"/>
      <line id="Line_104" data-name="Line 104" class="cls-6" x1="13.571" transform="translate(415.417 875.144)"/>
    </g>
    <path id="Path_811" data-name="Path 811" class="cls-6" d="M524.5,722.562v-3.228h19.092v3.228"/>
    <rect id="Rectangle_1548" data-name="Rectangle 1548" class="cls-7" width="150" height="262.183" transform="translate(408.917 623.834)"/>
    <path id="Path_812" data-name="Path 812" class="cls-7" d="M510.917,623.834v-38h-82v62.184h82Z"/>
    <path id="Path_813" data-name="Path 813" class="cls-7" d="M454.917,585.834v62.184"/>
    <path id="Path_814" data-name="Path 814" class="cls-7" d="M483.917,585.834v62.184"/>
    <rect id="Rectangle_1549" data-name="Rectangle 1549" class="cls-7" width="95" height="11" transform="translate(422.417 574.834)"/>
    <rect id="Rectangle_1550" data-name="Rectangle 1550" class="cls-6" width="16.148" height="29.016" transform="translate(461.343 590.326)"/>
    <rect id="Rectangle_1551" data-name="Rectangle 1551" class="cls-6" width="17.384" height="11.242" transform="translate(433.867 630.501)"/>
    <rect id="Rectangle_1552" data-name="Rectangle 1552" class="cls-6" width="17.384" height="11.242" transform="translate(460.725 630.501)"/>
    <path id="Path_815" data-name="Path 815" class="cls-7" d="M510.917,604.834h48v19"/>
    <path id="Path_816" data-name="Path 816" class="cls-7" d="M428.917,604.834h-20v19"/>
    <rect id="Rectangle_1553" data-name="Rectangle 1553" class="cls-7" width="68.582" height="11" transform="translate(500.917 608.834)"/>
    <rect id="Rectangle_1554" data-name="Rectangle 1554" class="cls-7" width="36.482" height="11" transform="translate(400.676 608.834)"/>
    <path id="Path_817" data-name="Path 817" class="cls-7" d="M414.584,623.834V630.5h7.833v-6.667"/>
    <path id="Path_818" data-name="Path 818" class="cls-7" d="M520.584,623.834V630.5h7.833v-6.667"/>
    <path id="Path_819" data-name="Path 819" class="cls-7" d="M539.677,623.834V630.5h7.833v-6.667"/>
    <path id="Path_820" data-name="Path 820" class="cls-7" d="M428.917,648.018V809.834h82V648.018"/>
    <rect id="Rectangle_1555" data-name="Rectangle 1555" class="cls-7" width="90.612" height="18.683" transform="translate(424.949 809.834)"/>
    <line id="Line_105" data-name="Line 105" class="cls-7" y2="57.5" transform="translate(428.917 828.518)"/>
    <line id="Line_106" data-name="Line 106" class="cls-7" y2="57.5" transform="translate(510.917 828.518)"/>
    <line id="Line_107" data-name="Line 107" class="cls-6" x2="82.692" transform="translate(428.571 833.784)"/>
    <line id="Line_108" data-name="Line 108" class="cls-6" x2="82.692" transform="translate(428.571 840.318)"/>
    <line id="Line_109" data-name="Line 109" class="cls-6" x2="82.692" transform="translate(428.571 846.851)"/>
    <line id="Line_110" data-name="Line 110" class="cls-6" x2="82.692" transform="translate(428.571 853.384)"/>
    <line id="Line_111" data-name="Line 111" class="cls-6" x2="82.692" transform="translate(428.571 859.918)"/>
    <line id="Line_112" data-name="Line 112" class="cls-6" x2="82.692" transform="translate(428.571 866.451)"/>
    <line id="Line_113" data-name="Line 113" class="cls-6" x2="82.692" transform="translate(428.071 872.984)"/>
    <line id="Line_114" data-name="Line 114" class="cls-6" x2="82.692" transform="translate(428.571 879.518)"/>
    <line id="Line_115" data-name="Line 115" class="cls-7" y2="18.684" transform="translate(440.845 809.834)"/>
    <line id="Line_116" data-name="Line 116" class="cls-7" y2="18.683" transform="translate(500.917 808.568)"/>
    <path id="Path_821" data-name="Path 821" class="cls-7" d="M510.417,736.694V722.888h-81.5V745.48h81.5Z"/>
    <path id="Path_822" data-name="Path 822" class="cls-7" d="M454.917,721.812V746"/>
    <path id="Path_823" data-name="Path 823" class="cls-7" d="M483.917,721.812V746"/>
    <rect id="Rectangle_1556" data-name="Rectangle 1556" class="cls-6" width="17.384" height="11.242" transform="translate(433.867 728.563)"/>
    <rect id="Rectangle_1557" data-name="Rectangle 1557" class="cls-6" width="17.384" height="11.242" transform="translate(460.725 728.563)"/>
    <path id="Path_824" data-name="Path 824" class="cls-7" d="M476.384,715.832H462.8v-54.86a6.811,6.811,0,0,1,6.791-6.791h0a6.811,6.811,0,0,1,6.791,6.791v54.86Z"/>
    <path id="Path_825" data-name="Path 825" class="cls-7" d="M503.417,715.832H489.835v-54.86a6.811,6.811,0,0,1,6.791-6.791h0a6.811,6.811,0,0,1,6.791,6.791v54.86Z"/>
    <path id="Path_826" data-name="Path 826" class="cls-7" d="M449.35,715.832H435.768v-54.86a6.811,6.811,0,0,1,6.791-6.791h0a6.811,6.811,0,0,1,6.791,6.791v54.86Z"/>
    <path id="Path_827" data-name="Path 827" class="cls-7" d="M476.708,802.512H463.126V758.2a6.162,6.162,0,0,1,6.144-6.144h1.294a6.162,6.162,0,0,1,6.144,6.144v44.317Z"/>
    <path id="Path_828" data-name="Path 828" class="cls-7" d="M503.742,802.512H490.16V758.2a6.162,6.162,0,0,1,6.144-6.144H497.6a6.162,6.162,0,0,1,6.144,6.144v44.317Z"/>
    <path id="Path_829" data-name="Path 829" class="cls-7" d="M449.675,802.512H436.093V758.2a6.162,6.162,0,0,1,6.144-6.144h1.294a6.162,6.162,0,0,1,6.144,6.144v44.317Z"/>
    <line id="Line_117" data-name="Line 117" class="cls-7" x2="13.582" transform="translate(435.768 690.518)"/>
    <line id="Line_118" data-name="Line 118" class="cls-7" x2="13.582" transform="translate(462.802 690.518)"/>
    <line id="Line_119" data-name="Line 119" class="cls-7" x2="13.907" transform="translate(489.835 690.518)"/>
    <line id="Line_120" data-name="Line 120" class="cls-7" x2="13.907" transform="translate(435.768 783.018)"/>
    <line id="Line_121" data-name="Line 121" class="cls-7" x2="13.582" transform="translate(463.126 783.018)"/>
    <line id="Line_122" data-name="Line 122" class="cls-7" x2="13.907" transform="translate(489.835 783.018)"/>
    <rect id="Rectangle_1558" data-name="Rectangle 1558" class="cls-5" width="8.505" height="17" transform="translate(440.845 691.534)"/>
    <rect id="Rectangle_1559" data-name="Rectangle 1559" class="cls-5" width="8.505" height="17" transform="translate(467.878 691.534)"/>
    <rect id="Rectangle_1560" data-name="Rectangle 1560" class="cls-5" width="8.505" height="17" transform="translate(494.912 691.534)"/>
    <rect id="Rectangle_1561" data-name="Rectangle 1561" class="cls-5" width="6.791" height="12.008" transform="translate(442.559 783.628)"/>
    <rect id="Rectangle_1562" data-name="Rectangle 1562" class="cls-5" width="6.791" height="12.008" transform="translate(469.417 783.632)"/>
    <rect id="Rectangle_1563" data-name="Rectangle 1563" class="cls-5" width="6.791" height="12.008" transform="translate(496.789 783.628)"/>
    <path id="Path_830" data-name="Path 830" class="cls-7" d="M542,715.832H528.418v-54.86a6.811,6.811,0,0,1,6.791-6.791h0A6.811,6.811,0,0,1,542,660.972v54.86Z"/>
    <line id="Line_123" data-name="Line 123" class="cls-7" x2="13.583" transform="translate(528.417 690.518)"/>
    <rect id="Rectangle_1564" data-name="Rectangle 1564" class="cls-5" width="8.505" height="17" transform="translate(533.494 691.534)"/>
    <path id="Path_831" data-name="Path 831" class="cls-7" d="M542,813.843H528.418v-54.86a6.811,6.811,0,0,1,6.791-6.791h0A6.811,6.811,0,0,1,542,758.983v54.86Z"/>
    <line id="Line_124" data-name="Line 124" class="cls-7" x2="13.583" transform="translate(528.417 771.342)"/>
    <rect id="Rectangle_1565" data-name="Rectangle 1565" class="cls-5" width="8.505" height="35.204" transform="translate(533.494 771.342)"/>
    <path id="Path_832" data-name="Path 832" class="cls-7" d="M525.667,728.926V739.8h-4.916V715.832H547.51V739.8H542V728.926"/>
    <rect id="Rectangle_1566" data-name="Rectangle 1566" class="cls-7" width="33" height="6" transform="translate(517.667 722.888)"/>
    <rect id="Rectangle_1567" data-name="Rectangle 1567" class="cls-7" width="5.917" height="64.875" transform="translate(523.183 820.947)"/>
    <rect id="Rectangle_1568" data-name="Rectangle 1568" class="cls-7" width="5.917" height="64.875" transform="translate(541.317 820.947)"/>
    <line id="Line_125" data-name="Line 125" class="cls-7" x2="12.9" transform="translate(528.417 827.251)"/>
    <line id="Line_126" data-name="Line 126" class="cls-7" x2="12.217" transform="translate(529.1 834.525)"/>
    <line id="Line_127" data-name="Line 127" class="cls-7" x2="12.217" transform="translate(529.1 841.799)"/>
    <line id="Line_128" data-name="Line 128" class="cls-7" x2="12.217" transform="translate(529.1 856.346)"/>
    <line id="Line_129" data-name="Line 129" class="cls-7" x2="12.217" transform="translate(529.1 863.62)"/>
    <line id="Line_130" data-name="Line 130" class="cls-7" x2="12.217" transform="translate(529.1 870.894)"/>
    <line id="Line_131" data-name="Line 131" class="cls-7" x2="12.217" transform="translate(529.1 878.168)"/>
    <line id="Line_132" data-name="Line 132" class="cls-7" x2="12.217" transform="translate(529.1 849.072)"/>
  </g>
  <g id="Group_801" data-name="Group 801">
    <g id="Group_796" data-name="Group 796">
      <path id="Path_833" data-name="Path 833" class="cls-6" d="M818.641,742.359h-8.833V786.9h8.833"/>
      <line id="Line_133" data-name="Line 133" class="cls-6" x2="8.833" transform="translate(809.808 777.184)"/>
      <line id="Line_134" data-name="Line 134" class="cls-6" x2="8.833" transform="translate(809.808 764.98)"/>
      <line id="Line_135" data-name="Line 135" class="cls-6" x2="8.833" transform="translate(809.808 752.776)"/>
    </g>
    <g id="Group_797" data-name="Group 797">
      <path id="Path_834" data-name="Path 834" class="cls-6" d="M818.641,647.506h-8.833v44.54h8.833"/>
      <line id="Line_136" data-name="Line 136" class="cls-6" x2="8.833" transform="translate(809.808 682.33)"/>
      <line id="Line_137" data-name="Line 137" class="cls-6" x2="8.833" transform="translate(809.808 670.127)"/>
      <line id="Line_138" data-name="Line 138" class="cls-6" x2="8.833" transform="translate(809.808 657.923)"/>
    </g>
    <g id="Group_798" data-name="Group 798">
      <path id="Path_835" data-name="Path 835" class="cls-6" d="M646.309,647.506h8.833v44.54h-8.833"/>
      <line id="Line_139" data-name="Line 139" class="cls-6" x1="8.833" transform="translate(646.309 682.33)"/>
      <line id="Line_140" data-name="Line 140" class="cls-6" x1="8.833" transform="translate(646.309 670.127)"/>
      <line id="Line_141" data-name="Line 141" class="cls-6" x1="8.833" transform="translate(646.309 657.923)"/>
    </g>
    <g id="Group_799" data-name="Group 799">
      <path id="Path_836" data-name="Path 836" class="cls-6" d="M646.309,742.359h8.833V786.9h-8.833"/>
      <line id="Line_142" data-name="Line 142" class="cls-6" x1="8.833" transform="translate(646.309 777.184)"/>
      <line id="Line_143" data-name="Line 143" class="cls-6" x1="8.833" transform="translate(646.309 764.98)"/>
      <line id="Line_144" data-name="Line 144" class="cls-6" x1="8.833" transform="translate(646.309 752.776)"/>
    </g>
    <rect id="Rectangle_1569" data-name="Rectangle 1569" class="cls-5" width="19" height="61.408" transform="translate(680.475 824.609)"/>
    <rect id="Rectangle_1570" data-name="Rectangle 1570" class="cls-7" width="172.332" height="258.145" transform="translate(646.309 627.872)"/>
    <rect id="Rectangle_1571" data-name="Rectangle 1571" class="cls-7" width="186.271" height="7" transform="translate(639.34 807.609)"/>
    <rect id="Rectangle_1572" data-name="Rectangle 1572" class="cls-7" width="38" height="61.408" transform="translate(661.475 824.609)"/>
    <rect id="Rectangle_1573" data-name="Rectangle 1573" class="cls-7" width="38" height="61.408" transform="translate(711.975 824.609)"/>
    <rect id="Rectangle_1574" data-name="Rectangle 1574" class="cls-7" width="38" height="61.408" transform="translate(762.475 824.609)"/>
    <line id="Line_145" data-name="Line 145" class="cls-7" y2="61.409" transform="translate(680.475 824.609)"/>
    <line id="Line_146" data-name="Line 146" class="cls-7" y2="61.409" transform="translate(730.975 824.609)"/>
    <line id="Line_147" data-name="Line 147" class="cls-7" y2="61.409" transform="translate(781.475 824.609)"/>
    <line id="Line_148" data-name="Line 148" class="cls-7" x2="38" transform="translate(661.475 834.601)"/>
    <line id="Line_149" data-name="Line 149" class="cls-7" x2="38" transform="translate(661.475 854.689)"/>
    <line id="Line_150" data-name="Line 150" class="cls-7" x2="38" transform="translate(661.475 874.776)"/>
    <line id="Line_151" data-name="Line 151" class="cls-7" x2="38" transform="translate(711.975 835.226)"/>
    <line id="Line_152" data-name="Line 152" class="cls-7" x2="38" transform="translate(711.975 855.313)"/>
    <line id="Line_153" data-name="Line 153" class="cls-7" x2="38" transform="translate(711.975 875.401)"/>
    <line id="Line_154" data-name="Line 154" class="cls-7" x2="38" transform="translate(762.475 834.601)"/>
    <line id="Line_155" data-name="Line 155" class="cls-7" x2="38" transform="translate(762.475 854.689)"/>
    <line id="Line_156" data-name="Line 156" class="cls-7" x2="38" transform="translate(762.475 874.776)"/>
    <rect id="Rectangle_1575" data-name="Rectangle 1575" class="cls-5" width="19" height="61.408" transform="translate(730.975 823.984)"/>
    <rect id="Rectangle_1576" data-name="Rectangle 1576" class="cls-5" width="19" height="61.408" transform="translate(781.475 824.609)"/>
    <rect id="Rectangle_1577" data-name="Rectangle 1577" class="cls-7" width="21" height="45" transform="translate(668.975 749.109)"/>
    <rect id="Rectangle_1578" data-name="Rectangle 1578" class="cls-7" width="21" height="45" transform="translate(720.475 749.109)"/>
    <rect id="Rectangle_1579" data-name="Rectangle 1579" class="cls-7" width="21" height="45" transform="translate(770.975 749.109)"/>
    <line id="Line_157" data-name="Line 157" class="cls-7" x2="21" transform="translate(668.975 767.109)"/>
    <line id="Line_158" data-name="Line 158" class="cls-7" x2="20" transform="translate(720.475 767.109)"/>
    <line id="Line_159" data-name="Line 159" class="cls-7" x2="21" transform="translate(770.975 767.109)"/>
    <rect id="Rectangle_1580" data-name="Rectangle 1580" class="cls-5" width="10.661" height="19.431" transform="translate(678.319 767.468)"/>
    <rect id="Rectangle_1581" data-name="Rectangle 1581" class="cls-5" width="10.661" height="19.431" transform="translate(730.475 767.468)"/>
    <rect id="Rectangle_1582" data-name="Rectangle 1582" class="cls-5" width="10.661" height="19.431" transform="translate(780.814 767.468)"/>
    <path id="Path_837" data-name="Path 837" class="cls-7" d="M668.975,756.945h-7.5V742.359h35.75v14.586h-7.25"/>
    <path id="Path_838" data-name="Path 838" class="cls-7" d="M720.1,756.945h-7.5V742.359h35.75v14.586H741.1"/>
    <path id="Path_839" data-name="Path 839" class="cls-7" d="M770.439,756.945h-7.5V742.359h35.75v14.586h-7.25"/>
    <rect id="Rectangle_1583" data-name="Rectangle 1583" class="cls-7" width="186.271" height="7" transform="translate(639.34 720.331)"/>
    <rect id="Rectangle_1584" data-name="Rectangle 1584" class="cls-7" width="21" height="45" transform="translate(669.368 655.527)"/>
    <rect id="Rectangle_1585" data-name="Rectangle 1585" class="cls-7" width="21" height="45" transform="translate(720.868 655.527)"/>
    <rect id="Rectangle_1586" data-name="Rectangle 1586" class="cls-7" width="21" height="45" transform="translate(771.368 655.527)"/>
    <line id="Line_160" data-name="Line 160" class="cls-7" x2="21" transform="translate(669.368 673.527)"/>
    <line id="Line_161" data-name="Line 161" class="cls-7" x2="20" transform="translate(720.868 673.527)"/>
    <line id="Line_162" data-name="Line 162" class="cls-7" x2="21" transform="translate(771.368 673.527)"/>
    <rect id="Rectangle_1587" data-name="Rectangle 1587" class="cls-5" width="10.661" height="19.431" transform="translate(678.712 673.886)"/>
    <rect id="Rectangle_1588" data-name="Rectangle 1588" class="cls-5" width="10.661" height="19.431" transform="translate(730.868 673.886)"/>
    <rect id="Rectangle_1589" data-name="Rectangle 1589" class="cls-5" width="10.661" height="19.431" transform="translate(781.207 673.886)"/>
    <path id="Path_840" data-name="Path 840" class="cls-7" d="M669.368,663.363h-7.5V648.777h35.75v14.586h-7.25"/>
    <path id="Path_841" data-name="Path 841" class="cls-7" d="M720.493,663.363h-7.5V648.777h35.75v14.586h-7.25"/>
    <path id="Path_842" data-name="Path 842" class="cls-7" d="M770.832,663.363h-7.5V648.777h35.75v14.586h-7.25"/>
    <line id="Line_163" data-name="Line 163" class="cls-7" x2="172.332" transform="translate(646.309 633.853)"/>
    <rect id="Rectangle_1590" data-name="Rectangle 1590" class="cls-7" width="186.271" height="7" transform="translate(639.34 619.973)"/>
    <rect id="Rectangle_1591" data-name="Rectangle 1591" class="cls-7" width="11.386" height="75.859" transform="translate(645.033 543.215)"/>
    <rect id="Rectangle_1592" data-name="Rectangle 1592" class="cls-7" width="11.386" height="75.859" transform="translate(808.532 543.215)"/>
    <line id="Line_164" data-name="Line 164" class="cls-7" x2="11.385" transform="translate(645.033 597.353)"/>
    <line id="Line_165" data-name="Line 165" class="cls-7" x2="11.385" transform="translate(808.532 597.353)"/>
    <line id="Line_166" data-name="Line 166" class="cls-7" x2="152.114" transform="translate(656.418 558.853)"/>
    <g id="Group_800" data-name="Group 800">
      <path id="Path_843" data-name="Path 843" class="cls-7" d="M746.815,605.779h39.222v14.21"/>
      <path id="Path_844" data-name="Path 844" class="cls-7" d="M746.815,605.779"/>
      <path id="Path_845" data-name="Path 845" class="cls-7" d="M721.237,605.779"/>
      <path id="Path_846" data-name="Path 846" class="cls-7" d="M683.015,619.989v-14.21h38.222"/>
      <path id="Path_847" data-name="Path 847" class="cls-7" d="M746.815,606.506a12.789,12.789,0,0,0-25.578,0"/>
    </g>
    <circle id="Ellipse_121" data-name="Ellipse 121" class="cls-6" cx="8.099" cy="8.099" r="8.099" transform="translate(725.927 599.091)"/>
    <line id="Line_167" data-name="Line 167" class="cls-6" y2="61.12" transform="translate(665.142 558.853)"/>
    <line id="Line_168" data-name="Line 168" class="cls-6" y2="61.12" transform="translate(677.825 558.853)"/>
    <line id="Line_169" data-name="Line 169" class="cls-6" y2="61.12" transform="translate(690.508 558.853)"/>
    <line id="Line_170" data-name="Line 170" class="cls-6" y2="61.12" transform="translate(703.192 558.853)"/>
    <line id="Line_171" data-name="Line 171" class="cls-6" x2="0.393" y2="61.136" transform="translate(715.875 558.853)"/>
    <line id="Line_172" data-name="Line 172" class="cls-6" y2="61.136" transform="translate(728.952 558.853)"/>
    <line id="Line_173" data-name="Line 173" class="cls-6" y2="61.136" transform="translate(741.635 558.853)"/>
    <line id="Line_174" data-name="Line 174" class="cls-6" y2="61.12" transform="translate(754.318 558.853)"/>
    <line id="Line_175" data-name="Line 175" class="cls-6" y2="61.136" transform="translate(767.002 558.853)"/>
    <line id="Line_176" data-name="Line 176" class="cls-6" y2="61.136" transform="translate(779.685 558.853)"/>
    <line id="Line_177" data-name="Line 177" class="cls-6" y2="61.12" transform="translate(792.368 558.853)"/>
  </g>
  <g id="Group_803" data-name="Group 803">
    <rect id="Rectangle_1593" data-name="Rectangle 1593" class="cls-7" width="61.437" height="24.805" transform="translate(319.664 861.212)"/>
    <line id="Line_178" data-name="Line 178" class="cls-7" x2="61.436" transform="translate(319.664 873.615)"/>
    <g id="Group_802" data-name="Group 802">
      <line id="Line_179" data-name="Line 179" class="cls-7" y2="12.403" transform="translate(330.537 861.212)"/>
      <line id="Line_180" data-name="Line 180" class="cls-7" y2="12.403" transform="translate(340.459 861.212)"/>
      <line id="Line_181" data-name="Line 181" class="cls-7" y2="12.403" transform="translate(350.382 861.212)"/>
      <line id="Line_182" data-name="Line 182" class="cls-7" y2="12.403" transform="translate(360.305 861.212)"/>
      <line id="Line_183" data-name="Line 183" class="cls-7" y2="12.403" transform="translate(370.227 861.212)"/>
    </g>
  </g>
  <g id="Group_805" data-name="Group 805">
    <circle id="Ellipse_122" data-name="Ellipse 122" class="cls-7" cx="44.931" cy="44.931" r="44.931" transform="translate(36.464 754.162)"/>
    <line id="Line_184" data-name="Line 184" class="cls-7" y2="86.925" transform="translate(81.395 799.093)"/>
    <line id="Line_185" data-name="Line 185" class="cls-7" x2="15.902" y2="20" transform="translate(65.493 804.351)"/>
    <line id="Line_186" data-name="Line 186" class="cls-7" y1="21.667" x2="14.098" transform="translate(81.395 789.684)"/>
    <g id="Group_804" data-name="Group 804" class="cls-3">
      <path id="Path_848" data-name="Path 848" class="cls-9" d="M103.329,758.447a44.925,44.925,0,0,1-59.771,63.429,44.927,44.927,0,1,0,59.771-63.429Z"/>
    </g>
  </g>
  <g id="Group_807" data-name="Group 807">
    <circle id="Ellipse_123" data-name="Ellipse 123" class="cls-7" cx="29.515" cy="29.515" r="29.515" transform="translate(96.811 799.403)"/>
    <line id="Line_187" data-name="Line 187" class="cls-7" y2="57.1" transform="translate(126.326 828.918)"/>
    <line id="Line_188" data-name="Line 188" class="cls-7" x2="10.446" y2="13.138" transform="translate(115.88 832.372)"/>
    <line id="Line_189" data-name="Line 189" class="cls-7" y1="14.232" x2="9.261" transform="translate(126.326 822.738)"/>
    <g id="Group_806" data-name="Group 806" class="cls-3">
      <path id="Path_849" data-name="Path 849" class="cls-9" d="M140.734,802.218a29.51,29.51,0,0,1-39.263,41.665,29.512,29.512,0,1,0,39.263-41.665Z"/>
    </g>
  </g>
  <g id="Group_808" data-name="Group 808">
    <line id="Line_190" data-name="Line 190" class="cls-7" x2="37.402" transform="translate(859.613 850.776)"/>
    <line id="Line_191" data-name="Line 191" class="cls-7" x2="37.402" transform="translate(859.613 857.968)"/>
    <line id="Line_192" data-name="Line 192" class="cls-7" x2="66.633" transform="translate(844.997 868.397)"/>
    <line id="Line_193" data-name="Line 193" class="cls-7" y2="35.242" transform="translate(866.805 850.776)"/>
    <line id="Line_194" data-name="Line 194" class="cls-7" y2="35.242" transform="translate(888.826 850.776)"/>
  </g>
  <g id="Group_810" data-name="Group 810">
    <rect id="Rectangle_1594" data-name="Rectangle 1594" class="cls-5" width="11" height="205" transform="translate(1006.571 681.733)"/>
    <g id="Group_809" data-name="Group 809">
      <line id="Line_195" data-name="Line 195" class="cls-6" x2="122.945" transform="translate(1013.126 691.733)"/>
      <line id="Line_196" data-name="Line 196" class="cls-6" x2="122.945" transform="translate(1013.126 704.279)"/>
      <line id="Line_197" data-name="Line 197" class="cls-6" x2="122.945" transform="translate(1013.126 716.824)"/>
      <line id="Line_198" data-name="Line 198" class="cls-6" x2="122.945" transform="translate(1013.126 729.37)"/>
      <line id="Line_199" data-name="Line 199" class="cls-6" x2="122.945" transform="translate(1013.126 741.915)"/>
      <line id="Line_200" data-name="Line 200" class="cls-6" x2="122.945" transform="translate(1013.126 754.461)"/>
      <line id="Line_201" data-name="Line 201" class="cls-6" x2="122.945" transform="translate(1013.126 767.006)"/>
      <line id="Line_202" data-name="Line 202" class="cls-6" x2="122.945" transform="translate(1013.126 779.552)"/>
      <line id="Line_203" data-name="Line 203" class="cls-6" x2="122.945" transform="translate(1013.126 792.097)"/>
      <line id="Line_204" data-name="Line 204" class="cls-6" x2="122.945" transform="translate(1013.126 804.642)"/>
      <line id="Line_205" data-name="Line 205" class="cls-6" x2="122.945" transform="translate(1013.126 817.188)"/>
      <line id="Line_206" data-name="Line 206" class="cls-6" x2="122.945" transform="translate(1013.126 829.733)"/>
    </g>
    <rect id="Rectangle_1595" data-name="Rectangle 1595" class="cls-5" width="22" height="56" transform="translate(1146.571 773.733)"/>
    <rect id="Rectangle_1596" data-name="Rectangle 1596" class="cls-5" width="10" height="17" transform="translate(1099.571 640.733)"/>
    <rect id="Rectangle_1597" data-name="Rectangle 1597" class="cls-7" width="129" height="205" transform="translate(1007.071 682.233)"/>
    <path id="Path_850" data-name="Path 850" class="cls-7" d="M1030.571,887.233v-246.5h79v17h-61v137h121v-21h-121"/>
    <line id="Line_207" data-name="Line 207" class="cls-7" y2="137" transform="translate(1056.571 657.733)"/>
    <line id="Line_208" data-name="Line 208" class="cls-7" y2="137" transform="translate(1100.071 657.733)"/>
    <line id="Line_209" data-name="Line 209" class="cls-7" y2="137" transform="translate(1093.571 657.733)"/>
    <line id="Line_210" data-name="Line 210" class="cls-8" x2="51.5" transform="translate(1048.571 713.733)"/>
    <line id="Line_211" data-name="Line 211" class="cls-8" x2="51.5" transform="translate(1048.571 720.733)"/>
    <line id="Line_212" data-name="Line 212" class="cls-8" x2="121" transform="translate(1048.571 778.733)"/>
    <line id="Line_213" data-name="Line 213" class="cls-8" y2="21" transform="translate(1121.571 773.733)"/>
    <line id="Line_214" data-name="Line 214" class="cls-8" y2="21" transform="translate(1156.571 773.733)"/>
    <path id="Path_851" data-name="Path 851" class="cls-7" d="M1030.571,840.733h-13v46"/>
    <path id="Path_852" data-name="Path 852" class="cls-7" d="M1056.571,886.733l-.5-56.5h113v-36"/>
    <path id="Path_853" data-name="Path 853" class="cls-7" d="M1063.071,886.233v-46h65v46"/>
    <line id="Line_215" data-name="Line 215" class="cls-6" x2="65" transform="translate(1063.071 848.067)"/>
    <line id="Line_216" data-name="Line 216" class="cls-6" x2="65" transform="translate(1063.071 854.6)"/>
    <line id="Line_217" data-name="Line 217" class="cls-6" x2="65" transform="translate(1063.071 861.133)"/>
    <line id="Line_218" data-name="Line 218" class="cls-6" x2="65" transform="translate(1063.071 867.667)"/>
    <line id="Line_219" data-name="Line 219" class="cls-6" x2="65" transform="translate(1063.071 874.2)"/>
    <line id="Line_220" data-name="Line 220" class="cls-6" x2="65" transform="translate(1063.071 880.733)"/>
  </g>
  <g id="Group_812" data-name="Group 812">
    <rect id="Rectangle_1598" data-name="Rectangle 1598" class="cls-5" width="9.833" height="205" transform="translate(1250.935 681.733)"/>
    <g id="Group_811" data-name="Group 811">
      <line id="Line_221" data-name="Line 221" class="cls-6" x1="13.571" transform="translate(1257.268 640.733)"/>
      <line id="Line_222" data-name="Line 222" class="cls-6" x1="13.571" transform="translate(1257.268 649.149)"/>
      <line id="Line_223" data-name="Line 223" class="cls-6" x1="13.571" transform="translate(1257.268 657.564)"/>
      <line id="Line_224" data-name="Line 224" class="cls-6" x1="13.571" transform="translate(1257.268 665.979)"/>
      <line id="Line_225" data-name="Line 225" class="cls-6" x1="13.029" transform="translate(1257.539 674.394)"/>
      <line id="Line_226" data-name="Line 226" class="cls-6" x1="13.029" transform="translate(1257.539 682.809)"/>
      <line id="Line_227" data-name="Line 227" class="cls-6" x1="13.029" transform="translate(1257.539 691.225)"/>
      <line id="Line_228" data-name="Line 228" class="cls-6" x1="13.571" transform="translate(1257.268 699.64)"/>
      <line id="Line_229" data-name="Line 229" class="cls-6" x1="13.571" transform="translate(1257.268 708.055)"/>
      <line id="Line_230" data-name="Line 230" class="cls-6" x1="13.571" transform="translate(1257.268 716.47)"/>
      <line id="Line_231" data-name="Line 231" class="cls-6" x1="13.571" transform="translate(1257.268 724.886)"/>
      <line id="Line_232" data-name="Line 232" class="cls-6" x1="13.571" transform="translate(1257.268 733.301)"/>
      <line id="Line_233" data-name="Line 233" class="cls-6" x1="13.571" transform="translate(1257.268 741.716)"/>
      <line id="Line_234" data-name="Line 234" class="cls-6" x1="13.029" transform="translate(1257.539 750.131)"/>
      <line id="Line_235" data-name="Line 235" class="cls-6" x1="13.029" transform="translate(1257.539 758.546)"/>
      <line id="Line_236" data-name="Line 236" class="cls-6" x1="13.029" transform="translate(1257.539 766.962)"/>
      <line id="Line_237" data-name="Line 237" class="cls-6" x1="13.571" transform="translate(1257.268 775.377)"/>
      <line id="Line_238" data-name="Line 238" class="cls-6" x1="13.571" transform="translate(1257.268 783.792)"/>
      <line id="Line_239" data-name="Line 239" class="cls-6" x1="13.571" transform="translate(1257.268 792.207)"/>
      <line id="Line_240" data-name="Line 240" class="cls-6" x1="13.571" transform="translate(1257.268 800.623)"/>
      <line id="Line_241" data-name="Line 241" class="cls-6" x1="13.571" transform="translate(1257.268 809.038)"/>
      <line id="Line_242" data-name="Line 242" class="cls-6" x1="13.571" transform="translate(1257.268 817.453)"/>
      <line id="Line_243" data-name="Line 243" class="cls-6" x1="13.029" transform="translate(1257.539 825.868)"/>
      <line id="Line_244" data-name="Line 244" class="cls-6" x1="13.029" transform="translate(1257.539 834.283)"/>
      <line id="Line_245" data-name="Line 245" class="cls-6" x1="13.029" transform="translate(1257.539 842.699)"/>
      <line id="Line_246" data-name="Line 246" class="cls-6" x1="13.571" transform="translate(1257.268 851.114)"/>
      <line id="Line_247" data-name="Line 247" class="cls-6" x1="13.571" transform="translate(1257.268 859.529)"/>
      <line id="Line_248" data-name="Line 248" class="cls-6" x1="13.571" transform="translate(1257.268 867.944)"/>
      <line id="Line_249" data-name="Line 249" class="cls-6" x1="13.571" transform="translate(1257.268 876.36)"/>
    </g>
    <path id="Path_854" data-name="Path 854" class="cls-6" d="M1366.351,723.778V720.55h19.093v3.228"/>
    <rect id="Rectangle_1599" data-name="Rectangle 1599" class="cls-7" width="150" height="262.183" transform="translate(1250.768 625.05)"/>
    <path id="Path_855" data-name="Path 855" class="cls-7" d="M1352.768,625.05v-38h-82v62.183h82Z"/>
    <path id="Path_856" data-name="Path 856" class="cls-7" d="M1296.768,587.05v62.183"/>
    <path id="Path_857" data-name="Path 857" class="cls-7" d="M1325.768,587.05v62.183"/>
    <rect id="Rectangle_1600" data-name="Rectangle 1600" class="cls-7" width="95" height="11" transform="translate(1264.268 576.05)"/>
    <rect id="Rectangle_1601" data-name="Rectangle 1601" class="cls-6" width="16.148" height="29.016" transform="translate(1303.194 591.542)"/>
    <rect id="Rectangle_1602" data-name="Rectangle 1602" class="cls-6" width="17.384" height="11.242" transform="translate(1275.717 631.717)"/>
    <rect id="Rectangle_1603" data-name="Rectangle 1603" class="cls-6" width="17.384" height="11.242" transform="translate(1302.576 631.717)"/>
    <path id="Path_858" data-name="Path 858" class="cls-7" d="M1352.768,606.05h48v19"/>
    <path id="Path_859" data-name="Path 859" class="cls-7" d="M1270.768,606.05h-20v19"/>
    <rect id="Rectangle_1604" data-name="Rectangle 1604" class="cls-7" width="68.582" height="11" transform="translate(1342.768 610.05)"/>
    <rect id="Rectangle_1605" data-name="Rectangle 1605" class="cls-7" width="36.482" height="11" transform="translate(1242.527 610.05)"/>
    <path id="Path_860" data-name="Path 860" class="cls-7" d="M1256.435,625.05v6.667h7.833V625.05"/>
    <path id="Path_861" data-name="Path 861" class="cls-7" d="M1362.435,625.05v6.667h7.833V625.05"/>
    <path id="Path_862" data-name="Path 862" class="cls-7" d="M1381.527,625.05v6.667h7.833V625.05"/>
    <path id="Path_863" data-name="Path 863" class="cls-7" d="M1270.768,649.233V811.05h82V649.233"/>
    <rect id="Rectangle_1606" data-name="Rectangle 1606" class="cls-7" width="90.612" height="18.683" transform="translate(1266.799 811.05)"/>
    <line id="Line_250" data-name="Line 250" class="cls-7" y2="57.5" transform="translate(1270.768 829.733)"/>
    <line id="Line_251" data-name="Line 251" class="cls-7" y2="57.5" transform="translate(1352.768 829.733)"/>
    <line id="Line_252" data-name="Line 252" class="cls-6" x2="82.692" transform="translate(1270.422 835)"/>
    <line id="Line_253" data-name="Line 253" class="cls-6" x2="82.692" transform="translate(1270.422 841.533)"/>
    <line id="Line_254" data-name="Line 254" class="cls-6" x2="82.692" transform="translate(1270.422 848.067)"/>
    <line id="Line_255" data-name="Line 255" class="cls-6" x2="82.692" transform="translate(1270.422 854.6)"/>
    <line id="Line_256" data-name="Line 256" class="cls-6" x2="82.692" transform="translate(1270.422 861.133)"/>
    <line id="Line_257" data-name="Line 257" class="cls-6" x2="82.692" transform="translate(1270.422 867.667)"/>
    <line id="Line_258" data-name="Line 258" class="cls-6" x2="82.692" transform="translate(1269.922 874.2)"/>
    <line id="Line_259" data-name="Line 259" class="cls-6" x2="82.692" transform="translate(1270.422 880.733)"/>
    <line id="Line_260" data-name="Line 260" class="cls-7" y2="18.683" transform="translate(1282.695 811.05)"/>
    <line id="Line_261" data-name="Line 261" class="cls-7" y2="18.684" transform="translate(1342.768 809.783)"/>
    <path id="Path_864" data-name="Path 864" class="cls-7" d="M1352.268,737.91V724.1h-81.5V746.7h81.5Z"/>
    <path id="Path_865" data-name="Path 865" class="cls-7" d="M1296.768,723.028v24.183"/>
    <path id="Path_866" data-name="Path 866" class="cls-7" d="M1325.768,723.028v24.183"/>
    <rect id="Rectangle_1607" data-name="Rectangle 1607" class="cls-6" width="17.384" height="11.242" transform="translate(1275.717 729.779)"/>
    <rect id="Rectangle_1608" data-name="Rectangle 1608" class="cls-6" width="17.384" height="11.242" transform="translate(1302.576 729.779)"/>
    <path id="Path_867" data-name="Path 867" class="cls-7" d="M1318.234,717.048h-13.582v-54.86a6.811,6.811,0,0,1,6.791-6.791h0a6.811,6.811,0,0,1,6.791,6.791Z"/>
    <path id="Path_868" data-name="Path 868" class="cls-7" d="M1345.268,717.048h-13.582v-54.86a6.811,6.811,0,0,1,6.791-6.791h0a6.811,6.811,0,0,1,6.791,6.791Z"/>
    <path id="Path_869" data-name="Path 869" class="cls-7" d="M1291.2,717.048h-13.582v-54.86a6.811,6.811,0,0,1,6.791-6.791h0a6.811,6.811,0,0,1,6.791,6.791Z"/>
    <path id="Path_870" data-name="Path 870" class="cls-7" d="M1318.559,803.728h-13.582V759.411a6.162,6.162,0,0,1,6.144-6.144h1.294a6.162,6.162,0,0,1,6.144,6.144Z"/>
    <path id="Path_871" data-name="Path 871" class="cls-7" d="M1345.593,803.728h-13.582V759.411a6.162,6.162,0,0,1,6.144-6.144h1.294a6.162,6.162,0,0,1,6.144,6.144Z"/>
    <path id="Path_872" data-name="Path 872" class="cls-7" d="M1291.525,803.728h-13.582V759.411a6.162,6.162,0,0,1,6.144-6.144h1.294a6.162,6.162,0,0,1,6.144,6.144Z"/>
    <line id="Line_262" data-name="Line 262" class="cls-7" x2="13.582" transform="translate(1277.618 691.733)"/>
    <line id="Line_263" data-name="Line 263" class="cls-7" x2="13.582" transform="translate(1304.652 691.733)"/>
    <line id="Line_264" data-name="Line 264" class="cls-7" x2="13.907" transform="translate(1331.686 691.733)"/>
    <line id="Line_265" data-name="Line 265" class="cls-7" x2="13.907" transform="translate(1277.618 784.233)"/>
    <line id="Line_266" data-name="Line 266" class="cls-7" x2="13.582" transform="translate(1304.977 784.233)"/>
    <line id="Line_267" data-name="Line 267" class="cls-7" x2="13.907" transform="translate(1331.686 784.233)"/>
    <rect id="Rectangle_1609" data-name="Rectangle 1609" class="cls-5" width="8.505" height="17" transform="translate(1282.695 692.75)"/>
    <rect id="Rectangle_1610" data-name="Rectangle 1610" class="cls-5" width="8.505" height="17" transform="translate(1309.729 692.75)"/>
    <rect id="Rectangle_1611" data-name="Rectangle 1611" class="cls-5" width="8.505" height="17" transform="translate(1336.763 692.75)"/>
    <rect id="Rectangle_1612" data-name="Rectangle 1612" class="cls-5" width="6.791" height="12.008" transform="translate(1284.409 784.844)"/>
    <rect id="Rectangle_1613" data-name="Rectangle 1613" class="cls-5" width="6.791" height="12.008" transform="translate(1311.268 784.848)"/>
    <rect id="Rectangle_1614" data-name="Rectangle 1614" class="cls-5" width="6.791" height="12.008" transform="translate(1338.639 784.844)"/>
    <path id="Path_873" data-name="Path 873" class="cls-7" d="M1383.85,717.048h-13.582v-54.86a6.811,6.811,0,0,1,6.791-6.791h0a6.811,6.811,0,0,1,6.791,6.791Z"/>
    <line id="Line_268" data-name="Line 268" class="cls-7" x2="13.582" transform="translate(1370.268 691.733)"/>
    <rect id="Rectangle_1615" data-name="Rectangle 1615" class="cls-5" width="8.505" height="17" transform="translate(1375.345 692.75)"/>
    <path id="Path_874" data-name="Path 874" class="cls-7" d="M1383.85,815.059h-13.582V760.2a6.811,6.811,0,0,1,6.791-6.791h0a6.811,6.811,0,0,1,6.791,6.791Z"/>
    <line id="Line_269" data-name="Line 269" class="cls-7" x2="13.582" transform="translate(1370.268 772.558)"/>
    <rect id="Rectangle_1616" data-name="Rectangle 1616" class="cls-5" width="8.505" height="35.204" transform="translate(1375.345 772.558)"/>
    <path id="Path_875" data-name="Path 875" class="cls-7" d="M1367.518,730.142v10.879H1362.6V717.048h26.759v23.973h-5.51V730.142"/>
    <rect id="Rectangle_1617" data-name="Rectangle 1617" class="cls-7" width="33" height="6" transform="translate(1359.518 724.104)"/>
    <rect id="Rectangle_1618" data-name="Rectangle 1618" class="cls-7" width="5.917" height="64.875" transform="translate(1365.034 822.163)"/>
    <rect id="Rectangle_1619" data-name="Rectangle 1619" class="cls-7" width="5.917" height="64.875" transform="translate(1383.168 822.163)"/>
    <line id="Line_270" data-name="Line 270" class="cls-7" x2="12.9" transform="translate(1370.268 828.467)"/>
    <line id="Line_271" data-name="Line 271" class="cls-7" x2="12.218" transform="translate(1370.95 835.741)"/>
    <line id="Line_272" data-name="Line 272" class="cls-7" x2="12.218" transform="translate(1370.95 843.014)"/>
    <line id="Line_273" data-name="Line 273" class="cls-7" x2="12.218" transform="translate(1370.95 857.562)"/>
    <line id="Line_274" data-name="Line 274" class="cls-7" x2="12.218" transform="translate(1370.95 864.836)"/>
    <line id="Line_275" data-name="Line 275" class="cls-7" x2="12.218" transform="translate(1370.95 872.11)"/>
    <line id="Line_276" data-name="Line 276" class="cls-7" x2="12.218" transform="translate(1370.95 879.383)"/>
    <line id="Line_277" data-name="Line 277" class="cls-7" x2="12.218" transform="translate(1370.95 850.288)"/>
  </g>
  <g id="Group_818" data-name="Group 818">
    <g id="Group_813" data-name="Group 813">
      <path id="Path_876" data-name="Path 876" class="cls-6" d="M1660.491,743.575h-8.832v44.54h8.832"/>
      <line id="Line_278" data-name="Line 278" class="cls-6" x2="8.832" transform="translate(1651.659 778.399)"/>
      <line id="Line_279" data-name="Line 279" class="cls-6" x2="8.832" transform="translate(1651.659 766.196)"/>
      <line id="Line_280" data-name="Line 280" class="cls-6" x2="8.832" transform="translate(1651.659 753.992)"/>
    </g>
    <g id="Group_814" data-name="Group 814">
      <path id="Path_877" data-name="Path 877" class="cls-6" d="M1660.491,648.722h-8.832v44.54h8.832"/>
      <line id="Line_281" data-name="Line 281" class="cls-6" x2="8.832" transform="translate(1651.659 683.546)"/>
      <line id="Line_282" data-name="Line 282" class="cls-6" x2="8.832" transform="translate(1651.659 671.342)"/>
      <line id="Line_283" data-name="Line 283" class="cls-6" x2="8.832" transform="translate(1651.659 659.138)"/>
    </g>
    <g id="Group_815" data-name="Group 815">
      <path id="Path_878" data-name="Path 878" class="cls-6" d="M1488.159,648.722h8.833v44.54h-8.833"/>
      <line id="Line_284" data-name="Line 284" class="cls-6" x1="8.833" transform="translate(1488.159 683.546)"/>
      <line id="Line_285" data-name="Line 285" class="cls-6" x1="8.833" transform="translate(1488.159 671.342)"/>
      <line id="Line_286" data-name="Line 286" class="cls-6" x1="8.833" transform="translate(1488.159 659.138)"/>
    </g>
    <g id="Group_816" data-name="Group 816">
      <path id="Path_879" data-name="Path 879" class="cls-6" d="M1488.159,743.575h8.833v44.54h-8.833"/>
      <line id="Line_287" data-name="Line 287" class="cls-6" x1="8.833" transform="translate(1488.159 778.399)"/>
      <line id="Line_288" data-name="Line 288" class="cls-6" x1="8.833" transform="translate(1488.159 766.196)"/>
      <line id="Line_289" data-name="Line 289" class="cls-6" x1="8.833" transform="translate(1488.159 753.992)"/>
    </g>
    <rect id="Rectangle_1620" data-name="Rectangle 1620" class="cls-5" width="19" height="61.408" transform="translate(1522.325 825.825)"/>
    <rect id="Rectangle_1621" data-name="Rectangle 1621" class="cls-7" width="172.332" height="258.145" transform="translate(1488.159 629.088)"/>
    <rect id="Rectangle_1622" data-name="Rectangle 1622" class="cls-7" width="186.271" height="7" transform="translate(1481.19 808.825)"/>
    <rect id="Rectangle_1623" data-name="Rectangle 1623" class="cls-7" width="38" height="61.408" transform="translate(1503.325 825.825)"/>
    <rect id="Rectangle_1624" data-name="Rectangle 1624" class="cls-7" width="38" height="61.408" transform="translate(1553.825 825.825)"/>
    <rect id="Rectangle_1625" data-name="Rectangle 1625" class="cls-7" width="38" height="61.408" transform="translate(1604.325 825.825)"/>
    <line id="Line_290" data-name="Line 290" class="cls-7" y2="61.408" transform="translate(1522.325 825.825)"/>
    <line id="Line_291" data-name="Line 291" class="cls-7" y2="61.408" transform="translate(1572.825 825.825)"/>
    <line id="Line_292" data-name="Line 292" class="cls-7" y2="61.408" transform="translate(1623.325 825.825)"/>
    <line id="Line_293" data-name="Line 293" class="cls-7" x2="38" transform="translate(1503.325 835.817)"/>
    <line id="Line_294" data-name="Line 294" class="cls-7" x2="38" transform="translate(1503.325 855.904)"/>
    <line id="Line_295" data-name="Line 295" class="cls-7" x2="38" transform="translate(1503.325 875.992)"/>
    <line id="Line_296" data-name="Line 296" class="cls-7" x2="38" transform="translate(1553.825 836.442)"/>
    <line id="Line_297" data-name="Line 297" class="cls-7" x2="38" transform="translate(1553.825 856.529)"/>
    <line id="Line_298" data-name="Line 298" class="cls-7" x2="38" transform="translate(1553.825 876.616)"/>
    <line id="Line_299" data-name="Line 299" class="cls-7" x2="38" transform="translate(1604.325 835.817)"/>
    <line id="Line_300" data-name="Line 300" class="cls-7" x2="38" transform="translate(1604.325 855.904)"/>
    <line id="Line_301" data-name="Line 301" class="cls-7" x2="38" transform="translate(1604.325 875.992)"/>
    <rect id="Rectangle_1626" data-name="Rectangle 1626" class="cls-5" width="19" height="61.408" transform="translate(1572.825 825.2)"/>
    <rect id="Rectangle_1627" data-name="Rectangle 1627" class="cls-5" width="19" height="61.408" transform="translate(1623.325 825.825)"/>
    <rect id="Rectangle_1628" data-name="Rectangle 1628" class="cls-7" width="21" height="45" transform="translate(1510.825 750.325)"/>
    <rect id="Rectangle_1629" data-name="Rectangle 1629" class="cls-7" width="21" height="45" transform="translate(1562.325 750.325)"/>
    <rect id="Rectangle_1630" data-name="Rectangle 1630" class="cls-7" width="21" height="45" transform="translate(1612.825 750.325)"/>
    <line id="Line_302" data-name="Line 302" class="cls-7" x2="21" transform="translate(1510.825 768.325)"/>
    <line id="Line_303" data-name="Line 303" class="cls-7" x2="20" transform="translate(1562.325 768.325)"/>
    <line id="Line_304" data-name="Line 304" class="cls-7" x2="21" transform="translate(1612.825 768.325)"/>
    <rect id="Rectangle_1631" data-name="Rectangle 1631" class="cls-5" width="10.661" height="19.431" transform="translate(1520.169 768.684)"/>
    <rect id="Rectangle_1632" data-name="Rectangle 1632" class="cls-5" width="10.661" height="19.431" transform="translate(1572.325 768.684)"/>
    <rect id="Rectangle_1633" data-name="Rectangle 1633" class="cls-5" width="10.661" height="19.431" transform="translate(1622.664 768.684)"/>
    <path id="Path_880" data-name="Path 880" class="cls-7" d="M1510.825,758.161h-7.5V743.575h35.75v14.586h-7.25"/>
    <path id="Path_881" data-name="Path 881" class="cls-7" d="M1561.95,758.161h-7.5V743.575h35.75v14.586h-7.25"/>
    <path id="Path_882" data-name="Path 882" class="cls-7" d="M1612.289,758.161h-7.5V743.575h35.75v14.586h-7.25"/>
    <rect id="Rectangle_1634" data-name="Rectangle 1634" class="cls-7" width="186.271" height="7" transform="translate(1481.19 721.547)"/>
    <rect id="Rectangle_1635" data-name="Rectangle 1635" class="cls-7" width="21" height="45" transform="translate(1511.219 656.743)"/>
    <rect id="Rectangle_1636" data-name="Rectangle 1636" class="cls-7" width="21" height="45" transform="translate(1562.719 656.743)"/>
    <rect id="Rectangle_1637" data-name="Rectangle 1637" class="cls-7" width="21" height="45" transform="translate(1613.219 656.743)"/>
    <line id="Line_305" data-name="Line 305" class="cls-7" x2="21" transform="translate(1511.219 674.743)"/>
    <line id="Line_306" data-name="Line 306" class="cls-7" x2="20" transform="translate(1562.719 674.743)"/>
    <line id="Line_307" data-name="Line 307" class="cls-7" x2="21" transform="translate(1613.219 674.743)"/>
    <rect id="Rectangle_1638" data-name="Rectangle 1638" class="cls-5" width="10.661" height="19.431" transform="translate(1520.562 675.102)"/>
    <rect id="Rectangle_1639" data-name="Rectangle 1639" class="cls-5" width="10.661" height="19.431" transform="translate(1572.719 675.102)"/>
    <rect id="Rectangle_1640" data-name="Rectangle 1640" class="cls-5" width="10.661" height="19.431" transform="translate(1623.057 675.102)"/>
    <path id="Path_883" data-name="Path 883" class="cls-7" d="M1511.219,664.579h-7.5V649.993h35.75v14.586h-7.25"/>
    <path id="Path_884" data-name="Path 884" class="cls-7" d="M1562.344,664.579h-7.5V649.993h35.75v14.586h-7.25"/>
    <path id="Path_885" data-name="Path 885" class="cls-7" d="M1612.682,664.579h-7.5V649.993h35.75v14.586h-7.25"/>
    <line id="Line_308" data-name="Line 308" class="cls-7" x2="172.332" transform="translate(1488.159 635.069)"/>
    <rect id="Rectangle_1641" data-name="Rectangle 1641" class="cls-7" width="186.271" height="7" transform="translate(1481.19 621.189)"/>
    <rect id="Rectangle_1642" data-name="Rectangle 1642" class="cls-7" width="11.386" height="75.859" transform="translate(1486.883 544.43)"/>
    <rect id="Rectangle_1643" data-name="Rectangle 1643" class="cls-7" width="11.386" height="75.859" transform="translate(1650.382 544.43)"/>
    <line id="Line_309" data-name="Line 309" class="cls-7" x2="11.386" transform="translate(1486.883 598.569)"/>
    <line id="Line_310" data-name="Line 310" class="cls-7" x2="11.386" transform="translate(1650.382 598.569)"/>
    <line id="Line_311" data-name="Line 311" class="cls-7" x2="152.113" transform="translate(1498.269 560.069)"/>
    <g id="Group_817" data-name="Group 817">
      <path id="Path_886" data-name="Path 886" class="cls-7" d="M1588.665,606.995h39.223v14.21"/>
      <path id="Path_887" data-name="Path 887" class="cls-7" d="M1588.665,606.995"/>
      <path id="Path_888" data-name="Path 888" class="cls-7" d="M1563.088,606.995"/>
      <path id="Path_889" data-name="Path 889" class="cls-7" d="M1524.866,621.205v-14.21h38.222"/>
      <path id="Path_890" data-name="Path 890" class="cls-7" d="M1588.665,607.722a12.789,12.789,0,1,0-25.578,0"/>
    </g>
    <circle id="Ellipse_124" data-name="Ellipse 124" class="cls-6" cx="8.099" cy="8.099" r="8.099" transform="translate(1567.777 600.307)"/>
    <line id="Line_312" data-name="Line 312" class="cls-6" y2="61.12" transform="translate(1506.992 560.069)"/>
    <line id="Line_313" data-name="Line 313" class="cls-6" y2="61.12" transform="translate(1519.675 560.069)"/>
    <line id="Line_314" data-name="Line 314" class="cls-6" y2="61.12" transform="translate(1532.359 560.069)"/>
    <line id="Line_315" data-name="Line 315" class="cls-6" y2="61.12" transform="translate(1545.042 560.069)"/>
    <line id="Line_316" data-name="Line 316" class="cls-6" x2="0.394" y2="61.136" transform="translate(1557.725 560.069)"/>
    <line id="Line_317" data-name="Line 317" class="cls-6" y2="61.136" transform="translate(1570.802 560.069)"/>
    <line id="Line_318" data-name="Line 318" class="cls-6" y2="61.136" transform="translate(1583.485 560.069)"/>
    <line id="Line_319" data-name="Line 319" class="cls-6" y2="61.12" transform="translate(1596.169 560.069)"/>
    <line id="Line_320" data-name="Line 320" class="cls-6" y2="61.136" transform="translate(1608.852 560.069)"/>
    <line id="Line_321" data-name="Line 321" class="cls-6" y2="61.136" transform="translate(1621.535 560.069)"/>
    <line id="Line_322" data-name="Line 322" class="cls-6" y2="61.12" transform="translate(1634.219 560.069)"/>
  </g>
  <g id="Group_820" data-name="Group 820">
    <rect id="Rectangle_1644" data-name="Rectangle 1644" class="cls-7" width="61.437" height="24.805" transform="translate(1161.514 862.428)"/>
    <line id="Line_323" data-name="Line 323" class="cls-7" x2="61.437" transform="translate(1161.514 874.831)"/>
    <g id="Group_819" data-name="Group 819">
      <line id="Line_324" data-name="Line 324" class="cls-7" y2="12.403" transform="translate(1172.387 862.428)"/>
      <line id="Line_325" data-name="Line 325" class="cls-7" y2="12.403" transform="translate(1182.31 862.428)"/>
      <line id="Line_326" data-name="Line 326" class="cls-7" y2="12.403" transform="translate(1192.233 862.428)"/>
      <line id="Line_327" data-name="Line 327" class="cls-7" y2="12.403" transform="translate(1202.155 862.428)"/>
      <line id="Line_328" data-name="Line 328" class="cls-7" y2="12.403" transform="translate(1212.078 862.428)"/>
    </g>
  </g>
  <g id="Group_822" data-name="Group 822">
    <circle id="Ellipse_125" data-name="Ellipse 125" class="cls-7" cx="44.931" cy="44.931" r="44.931" transform="translate(878.314 755.378)"/>
    <line id="Line_329" data-name="Line 329" class="cls-7" y2="86.924" transform="translate(923.245 800.309)"/>
    <line id="Line_330" data-name="Line 330" class="cls-7" x2="15.902" y2="20" transform="translate(907.343 805.567)"/>
    <line id="Line_331" data-name="Line 331" class="cls-7" y1="21.667" x2="14.098" transform="translate(923.245 790.9)"/>
    <g id="Group_821" data-name="Group 821" class="cls-3">
      <path id="Path_891" data-name="Path 891" class="cls-9" d="M945.179,759.662a44.925,44.925,0,0,1-59.771,63.429,44.927,44.927,0,1,0,59.771-63.429Z"/>
    </g>
  </g>
  <g id="Group_824" data-name="Group 824">
    <circle id="Ellipse_126" data-name="Ellipse 126" class="cls-7" cx="29.515" cy="29.515" r="29.515" transform="translate(938.661 800.619)"/>
    <line id="Line_332" data-name="Line 332" class="cls-7" y2="57.099" transform="translate(968.176 830.134)"/>
    <line id="Line_333" data-name="Line 333" class="cls-7" x2="10.445" y2="13.138" transform="translate(957.731 833.588)"/>
    <line id="Line_334" data-name="Line 334" class="cls-7" y1="14.232" x2="9.261" transform="translate(968.176 823.954)"/>
    <g id="Group_823" data-name="Group 823" class="cls-3">
      <path id="Path_892" data-name="Path 892" class="cls-9" d="M982.585,803.434A29.51,29.51,0,0,1,943.322,845.1a29.512,29.512,0,1,0,39.263-41.665Z"/>
    </g>
  </g>
  <g id="Group_825" data-name="Group 825">
    <line id="Line_335" data-name="Line 335" class="cls-7" x2="37.402" transform="translate(1701.463 851.992)"/>
    <line id="Line_336" data-name="Line 336" class="cls-7" x2="37.402" transform="translate(1701.463 859.184)"/>
    <line id="Line_337" data-name="Line 337" class="cls-7" x2="66.633" transform="translate(1686.848 869.613)"/>
    <line id="Line_338" data-name="Line 338" class="cls-7" y2="35.241" transform="translate(1708.655 851.992)"/>
    <line id="Line_339" data-name="Line 339" class="cls-7" y2="35.241" transform="translate(1730.677 851.992)"/>
  </g>
  <g id="Group_827" data-name="Group 827">
    <circle id="Ellipse_127" data-name="Ellipse 127" class="cls-7" cx="29.515" cy="29.515" r="29.515" transform="translate(1762.741 800.619)"/>
    <line id="Line_340" data-name="Line 340" class="cls-7" y2="57.099" transform="translate(1792.256 830.134)"/>
    <line id="Line_341" data-name="Line 341" class="cls-7" x2="10.446" y2="13.138" transform="translate(1781.81 833.588)"/>
    <line id="Line_342" data-name="Line 342" class="cls-7" y1="14.232" x2="9.261" transform="translate(1792.256 823.954)"/>
    <g id="Group_826" data-name="Group 826" class="cls-3">
      <path id="Path_893" data-name="Path 893" class="cls-9" d="M1806.664,803.434A29.51,29.51,0,0,1,1767.4,845.1a29.512,29.512,0,1,0,39.263-41.665Z"/>
    </g>
  </g>
  <circle id="Ellipse_128" data-name="Ellipse 128" class="cls-1" cx="5.708" cy="5.708" r="5.708" transform="translate(821.072 150.286)"/>
  <g id="Group_829" data-name="Group 829">
    <path id="Path_894" data-name="Path 894" class="cls-1" d="M903.992,140.071c-.373,0-.737.031-1.1.056a24.625,24.625,0,0,0-22.931-15.678,25.338,25.338,0,0,0-23.434,15.623c-.522,0,.179-.007,0,0-.265.689-4.553,12.271,3.6,20.43h59.516a16.175,16.175,0,0,0-15.652-20.431Z"/>
  </g>
  <circle id="Ellipse_129" data-name="Ellipse 129" class="cls-1" cx="5.107" cy="5.107" r="5.107" transform="translate(931.632 151.093)"/>
  <g id="Group_831" data-name="Group 831">
    <g id="Group_830" data-name="Group 830">
      <path id="Path_895" data-name="Path 895" class="cls-1" d="M1144.832,154.6a20.872,20.872,0,0,0-20.872-20.872c-.479,0-.949.04-1.42.072a31.661,31.661,0,0,0-58.978-.066,20.8,20.8,0,0,0-20.036,26.278H1144.1A20.875,20.875,0,0,0,1144.832,154.6Z"/>
    </g>
    <line id="Line_343" data-name="Line 343" class="cls-1" x2="42" transform="translate(1144.891 160.075)"/>
  </g>
</svg>
