<svg xmlns="http://www.w3.org/2000/svg" viewBox="0 0 348 348">
  <defs>
    <style>
      .cls-1 {
        fill: #fdfeff;
        stroke: #4fbafb;
        stroke-dasharray: 25;
      }

      .cls-2 {
        fill: #2394fb;
      }

      .cls-3 {
        fill: #4fbafb;
        fill-rule: evenodd;
      }

      .cls-4 {
        fill: #0c60b4;
      }

      .cls-5 {
        stroke: none;
      }

      .cls-6 {
        fill: none;
      }
    </style>
  </defs>
  <g id="Group_883" data-name="Group 883" transform="translate(-1403 -2162)">
    <g id="Ellipse_135" data-name="Ellipse 135" class="cls-1" transform="translate(1403 2162)">
      <circle class="cls-5" cx="174" cy="174" r="174"/>
      <circle class="cls-6" cx="174" cy="174" r="173.5"/>
    </g>
    <g id="Group_871" data-name="Group 871" transform="translate(-20715 -11970)">
      <g id="Group_847" data-name="Group 847" transform="translate(22202 14222)">
        <path id="Path_906" data-name="Path 906" class="cls-2" d="M3.954,130.295h41.6V97.306a3.92,3.92,0,0,1,3.954-3.885h80.872a3.92,3.92,0,0,1,3.954,3.885v32.989h41.6a3.92,3.92,0,0,1,3.954,3.886v30.887a3.92,3.92,0,0,1-3.954,3.885H3.954A3.92,3.92,0,0,1,0,165.068V134.181A3.92,3.92,0,0,1,3.954,130.295Z"/>
      </g>
      <g id="Group_848" data-name="Group 848" transform="translate(22202 14222)">
        <path id="Path_907" data-name="Path 907" class="cls-3" d="M82.675,36.494a55.092,55.092,0,0,1-13.286,6.451V21.884a44.942,44.942,0,0,0,8.337-5.195A22.735,22.735,0,0,0,85.635,6.438l.9-2.493h18.314V86.363H82.675Z"/>
      </g>
      <g id="Group_849" data-name="Group 849" transform="translate(22202 14222)">
        <path id="Path_908" data-name="Path 908" class="cls-4" d="M62.325,87.538a1.9,1.9,0,0,0,2.159-1.58,1.876,1.876,0,0,0-1.608-2.122,71.988,71.988,0,0,1-9.538-2.085,77.632,77.632,0,0,1-9.509-3.39A33.427,33.427,0,0,1,28.973,65.12a38.708,38.708,0,0,1-5.608-20.263,39.248,39.248,0,0,1,3.782-16.9,34.991,34.991,0,0,1,10.421-12.9,1.848,1.848,0,0,0,.357-2.619,1.925,1.925,0,0,0-2.666-.352A38.786,38.786,0,0,0,23.706,26.377a42.924,42.924,0,0,0-4.154,18.48,42.39,42.39,0,0,0,6.16,22.194A37.214,37.214,0,0,0,42.28,81.77a81.727,81.727,0,0,0,10,3.566A76.036,76.036,0,0,0,62.325,87.538Z"/>
      </g>
      <g id="Group_850" data-name="Group 850" transform="translate(22202 14222)">
        <path id="Path_909" data-name="Path 909" class="cls-4" d="M57.04,80.4a11.953,11.953,0,0,1-5.525-2.521,11.537,11.537,0,0,1-3.564-5.039,11.331,11.331,0,0,1-.446-6.119l1.868.366-1.861-.366h-.007a1.547,1.547,0,0,1,.046-.181,11.564,11.564,0,0,1,2.77-5.317l1.415,1.251-1.415-1.255a1.93,1.93,0,0,1,1.887-.56,11.935,11.935,0,0,1,5.525,2.522A11.544,11.544,0,0,1,61.3,68.214a11.336,11.336,0,0,1,.438,6.119,11.55,11.55,0,0,1-2.809,5.5l-1.415-1.251,1.416,1.255A1.932,1.932,0,0,1,57.04,80.4Z"/>
      </g>
      <g id="Group_851" data-name="Group 851" transform="translate(22202 14222)">
        <path id="Path_910" data-name="Path 910" class="cls-4" d="M38.922,72.421A11.822,11.822,0,0,1,33.9,68.943a11.45,11.45,0,0,1-2.58-5.584,11.333,11.333,0,0,1,.684-6.094,11.647,11.647,0,0,1,3.769-4.913l1.162,1.477-1.163-1.483a1.933,1.933,0,0,1,1.917-.237,11.846,11.846,0,0,1,5.021,3.478,11.426,11.426,0,0,1,1.9,11.679,11.641,11.641,0,0,1-3.77,4.913L39.675,70.7l1.164,1.483A1.928,1.928,0,0,1,38.922,72.421Z"/>
      </g>
      <g id="Group_852" data-name="Group 852" transform="translate(22202 14222)">
        <path id="Path_911" data-name="Path 911" class="cls-4" d="M26.469,51.226a11.381,11.381,0,0,1,1.5-11.574,11.725,11.725,0,0,1,4.983-3.707,12.009,12.009,0,0,1,6.215-.685l-.29,1.844.3-1.85a1.9,1.9,0,0,1,1.518,1.279,11.385,11.385,0,0,1-1.494,11.575,11.734,11.734,0,0,1-4.983,3.707A12.008,12.008,0,0,1,28,52.5l.29-1.843-.3,1.85A1.9,1.9,0,0,1,26.469,51.226Z"/>
      </g>
      <g id="Group_853" data-name="Group 853" transform="translate(22202 14222)">
        <path id="Path_912" data-name="Path 912" class="cls-4" d="M31.311,28.948A11.529,11.529,0,0,1,33.6,23.373a11.712,11.712,0,0,1,4.944-3.746,11.929,11.929,0,0,1,11.925,1.745l-1.2,1.448,1.205-1.451a1.854,1.854,0,0,1,.668,1.8,11.529,11.529,0,0,1-2.291,5.574,11.714,11.714,0,0,1-4.944,3.746,11.931,11.931,0,0,1-11.926-1.745l1.2-1.448-1.2,1.451A1.857,1.857,0,0,1,31.311,28.948Z"/>
      </g>
      <g id="Group_854" data-name="Group 854" transform="translate(22202 14222)">
        <path id="Path_913" data-name="Path 913" class="cls-4" d="M41.5,85.986a11.733,11.733,0,0,1-4.251,4.339,12,12,0,0,1-12.041.058,11.728,11.728,0,0,1-4.37-4.412l0,0a1.843,1.843,0,0,1,.061-1.906,11.723,11.723,0,0,1,4.252-4.34,12,12,0,0,1,12.04-.058,11.73,11.73,0,0,1,4.371,4.412l0,0A1.847,1.847,0,0,1,41.5,85.986Z"/>
      </g>
      <g id="Group_855" data-name="Group 855" transform="translate(22202 14222)">
        <path id="Path_914" data-name="Path 914" class="cls-4" d="M1.146,43.86a11.987,11.987,0,0,1,11.9.151,11.638,11.638,0,0,1,4.3,4.45,11.459,11.459,0,0,1,1.39,5.995l-1.9-.081,1.9.084a1.871,1.871,0,0,1-1.1,1.615,11.987,11.987,0,0,1-11.9-.151,11.624,11.624,0,0,1-4.3-4.45A11.457,11.457,0,0,1,.05,45.478l1.9.081-1.9-.083A1.873,1.873,0,0,1,1.146,43.86Z"/>
      </g>
      <g id="Group_856" data-name="Group 856" transform="translate(22202 14222)">
        <path id="Path_915" data-name="Path 915" class="cls-4" d="M6.584,20.847a12.014,12.014,0,0,1,5.97,1.111,11.689,11.689,0,0,1,4.716,4.029,11.416,11.416,0,0,1,.6,11.829l-1.684-.87,1.685.875a1.911,1.911,0,0,1-1.707,1,12.016,12.016,0,0,1-5.97-1.111,11.686,11.686,0,0,1-4.715-4.029,11.42,11.42,0,0,1-.6-11.83l1.683.871-1.686-.875A1.921,1.921,0,0,1,6.584,20.847Z"/>
      </g>
      <g id="Group_857" data-name="Group 857" transform="translate(22202 14222)">
        <path id="Path_916" data-name="Path 916" class="cls-4" d="M26.524,2a11.593,11.593,0,0,1,3.188,5.137,11.342,11.342,0,0,1,.1,6.131A11.5,11.5,0,0,1,26.723,18.6a11.9,11.9,0,0,1-5.448,3.034v0a1.924,1.924,0,0,1-1.867-.547,11.59,11.59,0,0,1-3.188-5.136,11.342,11.342,0,0,1-.1-6.131,11.489,11.489,0,0,1,3.092-5.332,11.907,11.907,0,0,1,5.449-3.034v0A1.925,1.925,0,0,1,26.524,2Z"/>
      </g>
      <g id="Group_858" data-name="Group 858" transform="translate(22202 14222)">
        <path id="Path_917" data-name="Path 917" class="cls-4" d="M34.358,14.4a11.466,11.466,0,0,1,3.423-11.3A11.82,11.82,0,0,1,43.325.256,12.029,12.029,0,0,1,49.57.609l-.6,1.77L49.576.6A1.885,1.885,0,0,1,50.83,1.982a11.468,11.468,0,0,1-3.423,11.3,11.829,11.829,0,0,1-5.543,2.837,12.021,12.021,0,0,1-6.246-.353L36.22,14l-.608,1.774A1.881,1.881,0,0,1,34.358,14.4Z"/>
      </g>
      <g id="Group_859" data-name="Group 859" transform="translate(22202 14222)">
        <path id="Path_918" data-name="Path 918" class="cls-4" d="M5.565,65.08a11.969,11.969,0,0,1,11.807-1.814,11.711,11.711,0,0,1,4.989,3.68,11.514,11.514,0,0,1,2.385,5.689l-1.886.23,1.892-.229a1.858,1.858,0,0,1-.769,1.742,11.975,11.975,0,0,1-11.808,1.815,11.721,11.721,0,0,1-4.989-3.681A11.532,11.532,0,0,1,4.8,66.823l1.887-.23L4.8,66.822A1.866,1.866,0,0,1,5.565,65.08Z"/>
      </g>
      <g id="Group_860" data-name="Group 860" transform="translate(22202 14222)">
        <path id="Path_919" data-name="Path 919" class="cls-4" d="M117.572,87.538a1.9,1.9,0,0,1-2.159-1.58,1.876,1.876,0,0,1,1.608-2.122,71.988,71.988,0,0,0,9.538-2.085,77.779,77.779,0,0,0,9.51-3.39A33.429,33.429,0,0,0,150.924,65.12a38.708,38.708,0,0,0,5.608-20.263,39.248,39.248,0,0,0-3.782-16.9,35,35,0,0,0-10.421-12.9,1.847,1.847,0,0,1-.356-2.619,1.924,1.924,0,0,1,2.665-.352,38.786,38.786,0,0,1,11.553,14.294,42.925,42.925,0,0,1,4.155,18.48,42.4,42.4,0,0,1-6.161,22.194A37.216,37.216,0,0,1,137.618,81.77a81.876,81.876,0,0,1-10,3.566A75.965,75.965,0,0,1,117.572,87.538Z"/>
      </g>
      <g id="Group_861" data-name="Group 861" transform="translate(22202 14222)">
        <path id="Path_920" data-name="Path 920" class="cls-4" d="M122.857,80.4a11.953,11.953,0,0,0,5.525-2.521,11.537,11.537,0,0,0,3.564-5.039,11.331,11.331,0,0,0,.446-6.119l-1.868.366,1.861-.366h.007a1.543,1.543,0,0,0-.046-.181,11.564,11.564,0,0,0-2.77-5.317l-1.415,1.251,1.416-1.255a1.932,1.932,0,0,0-1.888-.56,11.943,11.943,0,0,0-5.526,2.522,11.55,11.55,0,0,0-3.564,5.038,11.336,11.336,0,0,0-.438,6.119,11.55,11.55,0,0,0,2.809,5.5l1.415-1.251-1.416,1.255A1.933,1.933,0,0,0,122.857,80.4Z"/>
      </g>
      <g id="Group_862" data-name="Group 862" transform="translate(22202 14222)">
        <path id="Path_921" data-name="Path 921" class="cls-4" d="M140.976,72.421A11.822,11.822,0,0,0,146,68.943a11.418,11.418,0,0,0,1.9-11.678,11.647,11.647,0,0,0-3.769-4.913l-1.162,1.477,1.163-1.483a1.933,1.933,0,0,0-1.917-.237,11.846,11.846,0,0,0-5.021,3.478,11.424,11.424,0,0,0-1.9,11.679,11.641,11.641,0,0,0,3.77,4.913l1.161-1.478-1.162,1.483A1.928,1.928,0,0,0,140.976,72.421Z"/>
      </g>
      <g id="Group_863" data-name="Group 863" transform="translate(22202 14222)">
        <path id="Path_922" data-name="Path 922" class="cls-4" d="M153.429,51.226a11.381,11.381,0,0,0-1.5-11.574,11.725,11.725,0,0,0-4.983-3.707,12.008,12.008,0,0,0-6.215-.685l.29,1.844-.3-1.85a1.892,1.892,0,0,0-1.518,1.279A11.379,11.379,0,0,0,140.7,48.108a11.734,11.734,0,0,0,4.983,3.707,12.007,12.007,0,0,0,6.215.684l-.291-1.843.3,1.85A1.9,1.9,0,0,0,153.429,51.226Z"/>
      </g>
      <g id="Group_864" data-name="Group 864" transform="translate(22202 14222)">
        <path id="Path_923" data-name="Path 923" class="cls-4" d="M148.586,28.948a11.538,11.538,0,0,0-2.291-5.575,11.712,11.712,0,0,0-4.944-3.746,11.928,11.928,0,0,0-11.925,1.745l1.2,1.448-1.205-1.451a1.856,1.856,0,0,0-.669,1.8,11.54,11.54,0,0,0,2.292,5.574,11.72,11.72,0,0,0,4.944,3.746,11.931,11.931,0,0,0,11.926-1.745l-1.2-1.448,1.205,1.451A1.855,1.855,0,0,0,148.586,28.948Z"/>
      </g>
      <g id="Group_865" data-name="Group 865" transform="translate(22202 14222)">
        <path id="Path_924" data-name="Path 924" class="cls-4" d="M138.4,85.986a11.715,11.715,0,0,0,4.25,4.339,12,12,0,0,0,12.041.058,11.738,11.738,0,0,0,4.371-4.412l0,0a1.843,1.843,0,0,0-.061-1.906,11.723,11.723,0,0,0-4.252-4.34,12,12,0,0,0-12.04-.058,11.73,11.73,0,0,0-4.371,4.412l0,0A1.847,1.847,0,0,0,138.4,85.986Z"/>
      </g>
      <g id="Group_866" data-name="Group 866" transform="translate(22202 14222)">
        <path id="Path_925" data-name="Path 925" class="cls-4" d="M178.751,43.86a11.987,11.987,0,0,0-11.9.151,11.638,11.638,0,0,0-4.3,4.45,11.47,11.47,0,0,0-1.391,5.995l1.9-.081-1.9.084a1.871,1.871,0,0,0,1.1,1.615,11.987,11.987,0,0,0,11.9-.151,11.624,11.624,0,0,0,4.3-4.45,11.457,11.457,0,0,0,1.39-5.995l-1.9.081,1.9-.083A1.874,1.874,0,0,0,178.751,43.86Z"/>
      </g>
      <g id="Group_867" data-name="Group 867" transform="translate(22202 14222)">
        <path id="Path_926" data-name="Path 926" class="cls-4" d="M173.314,20.847a12.014,12.014,0,0,0-5.97,1.111,11.689,11.689,0,0,0-4.716,4.029,11.419,11.419,0,0,0-.6,11.829l1.684-.87-1.686.875a1.911,1.911,0,0,0,1.707,1,12.016,12.016,0,0,0,5.97-1.111,11.693,11.693,0,0,0,4.715-4.029,11.42,11.42,0,0,0,.6-11.83l-1.683.871,1.686-.875A1.914,1.914,0,0,0,173.314,20.847Z"/>
      </g>
      <g id="Group_868" data-name="Group 868" transform="translate(22202 14222)">
        <path id="Path_927" data-name="Path 927" class="cls-4" d="M153.373,2a11.6,11.6,0,0,0-3.189,5.137,11.342,11.342,0,0,0-.1,6.131,11.487,11.487,0,0,0,3.093,5.332,11.9,11.9,0,0,0,5.448,3.034v0a1.925,1.925,0,0,0,1.867-.547,11.59,11.59,0,0,0,3.188-5.136,11.352,11.352,0,0,0,.1-6.131,11.5,11.5,0,0,0-3.093-5.332,11.907,11.907,0,0,0-5.449-3.034v0A1.926,1.926,0,0,0,153.373,2Z"/>
      </g>
      <g id="Group_869" data-name="Group 869" transform="translate(22202 14222)">
        <path id="Path_928" data-name="Path 928" class="cls-4" d="M145.539,14.4a11.466,11.466,0,0,0-3.423-11.3A11.82,11.82,0,0,0,136.572.256a12.027,12.027,0,0,0-6.245.353l.6,1.77L130.321.6a1.887,1.887,0,0,0-1.254,1.378,11.468,11.468,0,0,0,3.423,11.3,11.829,11.829,0,0,0,5.543,2.837,12.021,12.021,0,0,0,6.246-.353l-.6-1.771.608,1.774A1.878,1.878,0,0,0,145.539,14.4Z"/>
      </g>
      <g id="Group_870" data-name="Group 870" transform="translate(22202 14222)">
        <path id="Path_929" data-name="Path 929" class="cls-4" d="M174.332,65.08a11.972,11.972,0,0,0-11.808-1.814,11.711,11.711,0,0,0-4.989,3.68,11.513,11.513,0,0,0-2.385,5.689l1.886.23-1.892-.229a1.86,1.86,0,0,0,.768,1.742,11.974,11.974,0,0,0,11.807,1.815,11.718,11.718,0,0,0,4.99-3.681,11.532,11.532,0,0,0,2.385-5.689l-1.887-.23,1.893.229A1.858,1.858,0,0,0,174.332,65.08Z"/>
      </g>
    </g>
  </g>
</svg>
