<svg xmlns="http://www.w3.org/2000/svg" viewBox="0 0 113.701 55.184">
  <defs>
    <style>
      .cls-1 {
        fill: #2394fb;
      }

      .cls-2 {
        fill: #4fbafb;
      }

      .cls-3 {
        fill: #0c73da;
      }
    </style>
  </defs>
  <g id="Group_923" data-name="Group 923" transform="translate(0 -32.699)">
    <g id="Group_922" data-name="Group 922" transform="translate(0 32.699)">
      <g id="Group_918" data-name="Group 918" transform="translate(29.046)">
        <path id="Path_959" data-name="Path 959" class="cls-1" d="M57.947,58.883a22.713,22.713,0,0,0-7.958,7.7,26.731,26.731,0,0,0-4.05,14.271v.4a6.967,6.967,0,0,0,1.66,4.538,5.827,5.827,0,0,0,4.429,2.094H95.212a5.827,5.827,0,0,0,4.429-2.094,6.968,6.968,0,0,0,1.66-4.538v-.4a26.742,26.742,0,0,0-3.987-14.177,22.764,22.764,0,0,0-7.921-7.739,16.684,16.684,0,0,1-3.4,4.691,17.769,17.769,0,0,1-28.044-4.745ZM73.62,65.859H73.6a15.323,15.323,0,0,1-10.331-4.29,15.77,15.77,0,0,1-4.69-10.08c-.031-.328-.056-.893-.075-1.506-.025-.818-.04-1.81-.043-2.288-.044-5.694,1.794-9.408,4.7-11.767,2.826-2.3,6.528-3.141,10.4-3.216V32.7a2.969,2.969,0,0,1,.353.016c3.786.107,7.392.964,10.157,3.211,2.9,2.359,4.742,6.073,4.7,11.767,0,.477-.018,1.469-.044,2.288-.018.613-.043,1.179-.075,1.506a14.875,14.875,0,0,1-14.908,14.36v.008q-.065,0-.129,0Z" transform="translate(-45.938 -32.699)"/>
      </g>
      <g id="Group_920" data-name="Group 920" transform="translate(0 11.956)">
        <path id="Path_961" data-name="Path 961" class="cls-2" d="M7.3,67.522A13.8,13.8,0,0,0,2.462,72.2,16.254,16.254,0,0,0,0,80.876v.243a4.233,4.233,0,0,0,1.009,2.757A3.543,3.543,0,0,0,3.7,85.149h23.39a28.593,28.593,0,0,1,4.246-12.712c-.036-.06-.073-.119-.109-.178a13.826,13.826,0,0,0-4.815-4.7,10.153,10.153,0,0,1-2.068,2.851A10.8,10.8,0,0,1,7.3,67.522Zm9.527,4.24h-.009a9.316,9.316,0,0,1-6.279-2.608,9.585,9.585,0,0,1-2.85-6.127c-.019-.2-.034-.543-.046-.915-.015-.5-.024-1.1-.027-1.39C7.588,57.261,8.7,55,10.47,53.569a10.155,10.155,0,0,1,6.324-1.955v-.006a1.6,1.6,0,0,1,.214.01,10.055,10.055,0,0,1,6.174,1.951c1.765,1.434,2.883,3.692,2.855,7.153,0,.29-.011.893-.027,1.39-.011.372-.027.716-.045.915a9.6,9.6,0,0,1-2.761,6.2,9.587,9.587,0,0,1-6.3,2.532v0Z" transform="translate(0 -51.608)"/>
      </g>
      <g id="Group_921" data-name="Group 921" transform="translate(82.248 11.956)">
        <path id="Path_962" data-name="Path 962" class="cls-3" d="M135.178,67.522a13.8,13.8,0,0,0-4.837,4.679q-.135.213-.263.433A28.59,28.59,0,0,1,134.2,85.148h23.632a3.541,3.541,0,0,0,2.692-1.273,4.232,4.232,0,0,0,1.009-2.757v-.243a16.252,16.252,0,0,0-2.424-8.616,13.821,13.821,0,0,0-4.815-4.7,10.153,10.153,0,0,1-2.068,2.851,10.8,10.8,0,0,1-17.045-2.885Zm9.526,4.24h-.009a9.317,9.317,0,0,1-6.279-2.608,9.585,9.585,0,0,1-2.85-6.127c-.019-.2-.034-.543-.046-.915-.015-.5-.025-1.1-.027-1.39-.027-3.461,1.091-5.718,2.855-7.153a10.155,10.155,0,0,1,6.324-1.955v-.006a1.6,1.6,0,0,1,.214.01,10.055,10.055,0,0,1,6.174,1.951c1.765,1.434,2.882,3.692,2.855,7.153,0,.29-.011.893-.027,1.39-.011.372-.027.716-.045.915a9.041,9.041,0,0,1-9.061,8.729v0Z" transform="translate(-130.078 -51.608)"/>
      </g>
    </g>
  </g>
</svg>
