<svg xmlns="http://www.w3.org/2000/svg" viewBox="0 0 370 370">
  <defs>
    <style>
      .cls-1, .cls-5, .cls-6 {
        fill: #98ceef;
      }

      .cls-10, .cls-2, .cls-3, .cls-8 {
        fill: none;
      }

      .cls-10, .cls-2, .cls-3, .cls-4, .cls-5, .cls-6, .cls-8 {
        stroke: #4fbafb;
      }

      .cls-2, .cls-3, .cls-4, .cls-5, .cls-6, .cls-7, .cls-8, .cls-9 {
        stroke-linecap: round;
        stroke-miterlimit: 10;
      }

      .cls-10, .cls-2, .cls-4, .cls-5, .cls-7, .cls-8, .cls-9 {
        stroke-width: 2px;
      }

      .cls-2 {
        stroke-dasharray: 25 4 10;
      }

      .cls-3, .cls-4, .cls-5, .cls-6, .cls-7, .cls-8, .cls-9 {
        stroke-linejoin: round;
      }

      .cls-3, .cls-6 {
        stroke-width: 3px;
      }

      .cls-4, .cls-9 {
        fill: #8caedc;
      }

      .cls-7 {
        fill: #5981c1;
      }

      .cls-7, .cls-9 {
        stroke: #c5ecff;
      }
    </style>
  </defs>
  <g id="Group_929" data-name="Group 929" transform="translate(-19765 -13592)">
    <rect id="Rectangle_1664" data-name="Rectangle 1664" class="cls-1" width="15.201" height="155.74" transform="translate(19970.379 13687.729)"/>
    <circle id="Ellipse_138" data-name="Ellipse 138" class="cls-2" cx="184" cy="184" r="184" transform="translate(19766 13593)"/>
    <path id="Path_964" data-name="Path 964" class="cls-3" d="M19.725,1.5,1.5,33.068v124H37.952v-124Z" transform="translate(19884.5 13686.398)"/>
    <line id="Line_344" data-name="Line 344" class="cls-4" x1="0.161" y2="104.152" transform="translate(19901.152 13719.463)"/>
    <path id="Path_966" data-name="Path 966" class="cls-5" d="M25.005,19.511H4.208L14.605,1.5Z" transform="translate(19889.619 13686.398)"/>
    <rect id="Rectangle_1660" data-name="Rectangle 1660" class="cls-6" width="36.452" height="20.734" transform="translate(19886 13822.736)"/>
    <rect id="Rectangle_1661" data-name="Rectangle 1661" class="cls-3" width="41.612" height="155.571" transform="translate(19944.244 13687.898)"/>
    <line id="Line_345" data-name="Line 345" class="cls-7" x2="20.809" transform="translate(19944.244 13707.36)"/>
    <line id="Line_346" data-name="Line 346" class="cls-7" x2="11.967" transform="translate(19944.244 13726.819)"/>
    <line id="Line_347" data-name="Line 347" class="cls-7" x2="20.809" transform="translate(19944.244 13746.281)"/>
    <line id="Line_348" data-name="Line 348" class="cls-7" x2="11.967" transform="translate(19944.244 13765.743)"/>
    <line id="Line_349" data-name="Line 349" class="cls-7" x2="20.809" transform="translate(19944.244 13785.202)"/>
    <line id="Line_350" data-name="Line 350" class="cls-7" x2="11.967" transform="translate(19944.244 13804.665)"/>
    <line id="Line_351" data-name="Line 351" class="cls-7" x2="20.809" transform="translate(19944.244 13824.124)"/>
    <g id="Group_928" data-name="Group 928" transform="translate(20007.65 13787.755)">
      <rect id="Rectangle_1662" data-name="Rectangle 1662" class="cls-8" width="36.452" height="55.715"/>
      <g id="Group_927" data-name="Group 927" transform="translate(13.233 11.741)">
        <line id="Line_352" data-name="Line 352" class="cls-9" y1="32.229" transform="translate(9.987)"/>
        <line id="Line_353" data-name="Line 353" class="cls-9" y1="22.069" transform="translate(0 10.16)"/>
      </g>
    </g>
    <rect id="Rectangle_1663" data-name="Rectangle 1663" class="cls-5" width="36.452" height="21.815" transform="translate(20007.65 13765.938)"/>
    <path id="Path_967" data-name="Path 967" class="cls-10" d="M19877,13668.385h36.938" transform="translate(9 51.006)"/>
  </g>
</svg>
