<svg xmlns="http://www.w3.org/2000/svg" viewBox="0 0 348 348">
  <defs>
    <style>
      .cls-1 {
        fill: #fdfeff;
        stroke: #4fbafb;
        stroke-dasharray: 25;
      }

      .cls-2 {
        fill: #4fbafb;
      }

      .cls-3 {
        fill: #2394fb;
        fill-rule: evenodd;
      }

      .cls-4 {
        stroke: none;
      }

      .cls-5 {
        fill: none;
      }
    </style>
  </defs>
  <g id="Group_882" data-name="Group 882" transform="translate(-257 -3034)">
    <g id="Ellipse_136" data-name="Ellipse 136" class="cls-1" transform="translate(257 3034)">
      <circle class="cls-4" cx="174" cy="174" r="174"/>
      <circle class="cls-5" cx="174" cy="174" r="173.5"/>
    </g>
    <g id="Group_873" data-name="Group 873" transform="translate(337 3133)">
      <path id="Path_931" data-name="Path 931" class="cls-2" d="M92.857,120.057a6.811,6.811,0,0,0,2.647,4.767,9.7,9.7,0,0,0,6.21,2.475h54.114l1.888.527,13.039,7.663-.881-3.551-1.15-4.64H174.3a4.755,4.755,0,0,0,3.8-1.632,8.8,8.8,0,0,0,1.718-5.609V76.071a6.144,6.144,0,0,0-1.354-4.364,5.662,5.662,0,0,0-4.168-1.326V62.889a12.769,12.769,0,0,1,9.495,3.58,13.312,13.312,0,0,1,3.52,9.6v43.985a16.28,16.28,0,0,1-3.5,10.439,11.732,11.732,0,0,1-5.66,3.754l2,8.064,2.135,8.609-7.652-4.5-19.794-11.634H101.715a17.3,17.3,0,0,1-11.127-4.349,14.2,14.2,0,0,1-5.223-10.386h7.492Z"/>
      <path id="Path_932" data-name="Path 932" class="cls-3" d="M26.153,0h118.4a24.645,24.645,0,0,1,16.277,6.58c4.537,4.118,7.5,9.73,7.5,15.345V93.663c0,5.585-2.848,10.326-7.27,13.693a27.627,27.627,0,0,1-16.5,5.3H58.925L19.2,136.02l-5.5-4.17,5.291-20.091a31.34,31.34,0,0,1-11.843-5.3C2.844,103.2,0,98.827,0,93.663V21.925c0-5.6,3.484-11.117,8.508-15.193C13.455,2.719,20.013,0,26.153,0Zm97.473,38.31a11.239,11.239,0,1,0,11.239,11.238A11.238,11.238,0,0,0,123.626,38.31Zm-37.462,0A11.239,11.239,0,1,0,97.4,49.548,11.238,11.238,0,0,0,86.164,38.31Zm-37.462,0A11.239,11.239,0,1,0,59.94,49.549,11.238,11.238,0,0,0,48.7,38.31Z"/>
    </g>
  </g>
</svg>
