<svg xmlns="http://www.w3.org/2000/svg" viewBox="0 0 1320.027 1192.266">
  <defs>
    <style>
      .cls-1 {
        opacity: 0.7;
      }

      .cls-2, .cls-7 {
        fill: #4fbafb;
      }

      .cls-3, .cls-6 {
        fill: #0c73da;
      }

      .cls-4, .cls-5, .cls-9 {
        fill: #2394fb;
      }

      .cls-5, .cls-6, .cls-7 {
        fill-rule: evenodd;
      }

      .cls-10, .cls-8 {
        fill: #fff;
      }

      .cls-9 {
        opacity: 0.358;
      }

      .cls-10 {
        opacity: 0.057;
      }

      .cls-11 {
        fill: #0c60b4;
      }
    </style>
  </defs>
  <g id="Group_943" data-name="Group 943" transform="translate(-21709 -17924)">
    <g id="Group_649_1_" class="cls-1" transform="translate(22535.252 17423.01)">
      <g id="Group_640_2_" transform="translate(-347.737 606.586)">
        <path id="Path_759_1_" class="cls-2" d="M-349.762,514.688a25.4,25.4,0,0,1,25.389,25.4,25.4,25.4,0,0,1-25.389,25.389V549.6a9.522,9.522,0,0,0,9.514-9.528,9.521,9.521,0,0,0-9.514-9.514V514.689Zm0,50.8a25.4,25.4,0,0,1-25.4-25.389,25.4,25.4,0,0,1,25.389-25.4h.016V530.57a9.522,9.522,0,0,0-9.528,9.514,9.522,9.522,0,0,0,9.514,9.528h.014v15.873Z" transform="translate(375.166 -514.688)"/>
      </g>
      <g id="Group_641_2_" transform="translate(-374.074 546.245)">
        <path id="Path_760_1_" class="cls-3" d="M-313.849,506.937l29.8-.077a5.288,5.288,0,0,1,5.285,5.285v80.269h0a5.284,5.284,0,0,0-5.281-5.1h-1.4a5.289,5.289,0,0,1,6.49,3.719,5.324,5.324,0,0,1,.185,1.381v.187h0a5.284,5.284,0,0,1-5.285,5.284h-11.68a30.9,30.9,0,0,0,0-10.568c-.017-.108-.038-.215-.06-.325l-.024-.123-.04-.217-.029-.141-.04-.192-.03-.134v-.02l-.063-.286-.033-.148-.046-.194-.031-.128-.056-.232-.024-.093-.077-.295v-.047c-.03-.107-.057-.214-.087-.319l-.033-.121-.054-.185-.047-.161-.06-.2-.031-.1c-.033-.107-.063-.209-.1-.316v-.019l-.026-.08-.071-.222-.046-.137-.063-.187-.051-.148-.063-.175-.047-.131-.113-.3-.039-.1-.08-.215-.054-.137-.071-.175-.047-.121-.124-.306v-.026c-.04-.1-.083-.194-.121-.288l-.046-.1-.1-.224-.041-.1-.107-.236-.033-.077-.141-.306-.038-.078-.111-.232-.051-.1-.1-.205-.054-.107c-.041-.087-.087-.175-.131-.259l-.023-.041h0l-.023-.04-.134-.254-.056-.105-.11-.2-.057-.107-.123-.218-.047-.083c-.054-.094-.108-.192-.164-.285l-.061-.105-.108-.175-.068-.114-.131-.215-.046-.074-.155-.249-.026-.04v-.01l-.175-.271-.077-.117-.107-.164-.08-.121-.163-.239-.016-.024-.2-.285-.013-.017-.047-.067-.141-.2-.078-.11-.13-.175-.064-.087-.175-.221-.037-.051-.016-.018-.2-.264-.053-.068-.157-.2-.074-.093-.175-.214-.04-.048-.222-.268h0v-.01l-.217-.255-.063-.075-.164-.19-.07-.078-.2-.222-.033-.037-.238-.259-.054-.057-.234-.234-.067-.07-.175-.185-.083-.084c-.078-.083-.157-.161-.238-.241a30.6,30.6,0,0,0-19.142-8.881V542.053h34.078V517.431h-26.7a42.677,42.677,0,0,0-7.377.647V507.155a45.147,45.147,0,0,1,6.643-.16C-315.817,507.041-314.792,506.946-313.849,506.937Zm-9.561,55.085q-1.267-.107-2.552-.107a30.6,30.6,0,0,0-21.694,8.987c-.08.08-.16.16-.238.241l-.083.084-.175.185-.067.07-.189.2-.054.057-.238.259-.033.037-.2.222-.07.078-.164.189-.063.076-.217.255v.01h0l-.222.268-.04.048-.175.214-.074.093-.157.2-.053.068c-.068.087-.137.175-.2.264l-.014.019-.038.048-.175.222-.064.087-.13.175-.078.11-.141.2-.047.067-.013.019-.2.285-.016.024-.162.239-.08.121-.121.175-.054.084c-.063.094-.123.191-.175.285v.01l-.026.04c-.053.084-.105.164-.155.249l-.044.074-.134.218-.063.1-.121.2-.054.091-.164.286-.047.083-.121.217-.06.107-.11.2-.054.105-.155.295h0c-.053.1-.1.2-.154.3l-.047.093-.111.224-.044.091-.123.255-.024.051-.147.315-.026.056-.123.271-.03.068-.105.238-.044.1c-.04.1-.083.194-.121.288v.026l-.125.309-.037.091-.09.225-.047.121-.077.2-.041.114c-.04.107-.077.211-.117.319v.024c-.036.1-.07.2-.105.295l-.037.108-.07.209-.037.113-.083.248-.023.07v.02c-.033.105-.064.208-.1.311l-.026.087-.074.246-.03.1-.067.236-.029.1c-.03.105-.057.211-.085.318v.013l-.014.054-.07.275-.024.1-.054.222-.033.14-.053.225-.017.078v.033l-.063.286v.017l-.026.121-.047.225-.026.123-.046.234-.017.093c-.021.114-.04.227-.061.339a30.894,30.894,0,0,0,0,10.568H-362.6V554.368q.227-.874.487-1.748h0q-.261.874-.486,1.748V530.887a62.761,62.761,0,0,1,8.425-9.047c8.72-7.713,18.957-13.526,30.812-14.692V518.07a49.259,49.259,0,0,0-23.878,11.7,51.68,51.68,0,0,0-10.239,12.288h34.069v19.964Zm-39.236,35.863h-10.8c-6.767,0-5.1-6.892-4.545-10.925l3.93-29A57.616,57.616,0,0,1-362.636,530.9v23.481q-.269,1.05-.487,2.113.218-1.062.487-2.112v43.508h-.01Z" transform="translate(378.579 -506.86)"/>
      </g>
      <g id="Group_643_1_" transform="translate(-379.251 626.701)">
        <path id="Path_762_1_" class="cls-4" d="M-373.966,517.3a5.285,5.285,0,0,0-5.285,5.285,5.284,5.284,0,0,0,5.285,5.283h22.287a30.9,30.9,0,0,1,0-10.568Z" transform="translate(379.251 -517.298)"/>
      </g>
      <path id="Union_1_1_" class="cls-4" d="M-156.845,637.249h-28.994a31.094,31.094,0,0,0-8.535-26.956,30.689,30.689,0,0,0-43.4.044,30.689,30.689,0,0,0-8.517,26.912h-60.943c-.155.014-.309.021-.467.021a5.283,5.283,0,0,1-5.282-5.282h0V506.272a5.284,5.284,0,0,1,5.282-5.282h151.179V501a5.286,5.286,0,0,1,4.961,5.274V631.987a5.282,5.282,0,0,1-5.282,5.282h0Z" transform="translate(28.158 0)"/>
      <g id="Group_645_1_" transform="translate(-213.309 606.586)">
        <path id="Path_764_1_" class="cls-2" d="M-332.326,514.688a25.4,25.4,0,0,1,25.389,25.4,25.4,25.4,0,0,1-25.389,25.389V549.6a9.522,9.522,0,0,0,9.514-9.528,9.521,9.521,0,0,0-9.514-9.514Zm0,0h0v15.88h0a9.522,9.522,0,0,0-9.528,9.514,9.522,9.522,0,0,0,9.514,9.528h.014v15.876h0a25.4,25.4,0,0,1-25.4-25.4,25.4,25.4,0,0,1,25.4-25.4Z" transform="translate(357.723 -514.688)"/>
      </g>
    </g>
    <g id="Group_935" data-name="Group 935" class="cls-1" transform="translate(21764 18765)">
      <g id="Group_41" data-name="Group 41" transform="translate(0 0)">
        <path id="Path_326" data-name="Path 326" class="cls-5" d="M98.934,26.736,156.7,49.244l35.034-12.311a1.992,1.992,0,0,0,.994-2.467,2.463,2.463,0,0,0-1.6-1.32L98.934.749V26.736Zm0,42.805V40.974l37.449,15.407ZM96.9.033a2.986,2.986,0,0,0-1.509.2L61.485,12.143,98.934,26.736V.749L96.9.033Zm2.034,40.941V69.541l-1.476.519a2.987,2.987,0,0,1-1.509.2L1.717,37.144a2.46,2.46,0,0,1-1.6-1.32,1.992,1.992,0,0,1,.994-2.467L43.888,18.326Z" transform="translate(0 0)"/>
      </g>
      <g id="Group_42" data-name="Group 42" transform="translate(94.373 40.194)">
        <path id="Path_327" data-name="Path 327" class="cls-6" d="M88,70.69v0Zm4.1,106.337L185.194,144.4a2.067,2.067,0,0,0,1.279-1.945V37.478a4.264,4.264,0,0,1-.666.3l-.008-.015L151.436,49.84l.534,27.1a2.958,2.958,0,0,1-2.029,2.941l-14.2,4.518c-1.789.568-4.1-.52-4.1-2.51l-.478-24.926L92.1,70.69Z" transform="translate(-87.997 -37.478)"/>
      </g>
      <g id="Group_43" data-name="Group 43" transform="translate(0 40.193)">
        <path id="Path_328" data-name="Path 328" class="cls-7" d="M1.281,144.4l93.144,32.713a3.946,3.946,0,0,1-.065-.716V70.754L1.024,37.889A4.207,4.207,0,0,1,0,37.477v104.98A2.066,2.066,0,0,0,1.281,144.4Z" transform="translate(0 -37.477)"/>
      </g>
    </g>
    <g id="Group_934" data-name="Group 934" class="cls-1" transform="translate(21605.002 18549)">
      <g id="Group_149" data-name="Group 149" transform="translate(609.999 345)">
        <g id="Group_148" data-name="Group 148" transform="translate(0 0)">
          <g id="Group_147" data-name="Group 147">
            <path id="Path_530" data-name="Path 530" class="cls-4" d="M0,81.624,81.1,6.793A25.808,25.808,0,0,1,98.886,0a25.305,25.305,0,0,1,16.968,6.79l81.1,74.833L98.475,148.554Z" transform="translate(0.001 -0.002)"/>
            <rect id="Rectangle_1494" data-name="Rectangle 1494" class="cls-8" width="120.561" height="125.929" transform="translate(38.195 67.952)"/>
            <rect id="Rectangle_1495" data-name="Rectangle 1495" class="cls-9" width="32.286" height="46.03" transform="translate(54.39 86.971)"/>
            <rect id="Rectangle_1497" data-name="Rectangle 1497" class="cls-9" width="34.767" height="5.642" transform="translate(110.523 86.783)"/>
            <rect id="Rectangle_1498" data-name="Rectangle 1498" class="cls-9" width="34.767" height="5.642" transform="translate(110.523 98.753)"/>
            <rect id="Rectangle_1499" data-name="Rectangle 1499" class="cls-9" width="34.767" height="5.642" transform="translate(110.523 110.723)"/>
            <rect id="Rectangle_1500" data-name="Rectangle 1500" class="cls-10" width="34.767" height="5.642" transform="translate(110.523 122.693)"/>
            <path id="Subtraction_2" data-name="Subtraction 2" class="cls-2" d="M196.953,133.865v-.005h0L117.933,53.7,196.953,0V133.858h0v.006ZM0,133.861V0L79.02,53.7,0,133.858H0Z" transform="translate(0 88.4)"/>
          </g>
        </g>
        <path id="Path_533" data-name="Path 533" class="cls-11" d="M0,83.785H179.965L102.56,5.264a17.661,17.661,0,0,0-25.156,0Z" transform="translate(9.49 138.26)"/>
      </g>
    </g>
    <g id="Group_933" data-name="Group 933" class="cls-1" transform="translate(21709 18166)">
      <path id="Path_903" data-name="Path 903" class="cls-7" d="M59.332,61.733a74.936,74.936,0,0,1,92.12-10.9c-9.8,9.682-21.072,21.007-21.072,21.007-7.934,9.487.951,14.96,5.472,14.8h73.2a5.072,5.072,0,0,0,5.045-5.084V8.958C214.44,2.35,207.15-4.105,199.6,3.3c0,0-12.453,12.153-21.035,20.657A112.233,112.233,0,0,0,.1,119.53H37.655A74.649,74.649,0,0,1,59.332,61.733Z" transform="translate(0 0)"/>
      <path id="Path_904" data-name="Path 904" class="cls-5" d="M182.659,84.9a74.8,74.8,0,0,1-113.8,68.725c9.8-9.682,21.075-21,21.075-21,7.892-9.5-.991-14.96-5.476-14.805H11.26a5.072,5.072,0,0,0-5.084,5.045v72.6c-.3,6.638,6.988,13.063,14.5,5.656,0,0,12.453-12.113,21.073-20.656A112.256,112.256,0,0,0,220.209,84.9h-37.55Z" transform="translate(1.599 22.02)"/>
    </g>
    <g id="Group_932" data-name="Group 932" transform="translate(22056 18279.369)">
      <path id="Path_275" data-name="Path 275" class="cls-11" d="M10.063,262.663,118.867,398.1a45.676,45.676,0,0,0,42.55,16.518l171.688-26.5a45.555,45.555,0,0,0,35.571-28.593l62.909-161.965a45.684,45.684,0,0,0-6.952-45.111L315.8,17.037A45.634,45.634,0,0,0,273.253.493L101.565,27.021A45.555,45.555,0,0,0,65.994,55.614L3.085,217.553A45.691,45.691,0,0,0,10.063,262.663Z" transform="translate(-0.001 0.041)"/>
      <path id="Path_276" data-name="Path 276" class="cls-4" d="M261.691,254.77,206.1,398.1l163.481-25.326L416.73,251.4a20.363,20.363,0,0,0-22.085-27.5L277.582,241.99A20.392,20.392,0,0,0,261.691,254.77Z" transform="translate(-152.234 -165.191)"/>
      <path id="Path_277" data-name="Path 277" class="cls-2" d="M277.778,847.069l74.2,92.365a20.374,20.374,0,0,0,18.975,7.37L522.8,923.281,419.2,794.3,290.533,814.215A20.356,20.356,0,0,0,277.778,847.069Z" transform="translate(-201.853 -586.69)"/>
      <path id="Path_278" data-name="Path 278" class="cls-3" d="M831.6,358.429,891.5,204.2l96.311,119.886a20.375,20.375,0,0,1,3.11,20.125L948.01,454.61a20.356,20.356,0,0,1-34.839,5.384Z" transform="translate(-614.253 -150.82)"/>
    </g>
    <g id="Group_938" data-name="Group 938" class="cls-1" transform="translate(22637.217 18148.664)">
      <g id="Group_25" data-name="Group 25" transform="translate(0 87.529)">
        <g id="Group_24" data-name="Group 24">
          <g id="Group_21" data-name="Group 21" transform="translate(133.561 81.814)">
            <path id="Path_293" data-name="Path 293" class="cls-6" d="M174.8,123.9l-83.41,29.917a3.728,3.728,0,0,0,.058-.656V55.981l45.938,16.4,38.559-13.871v63.611A1.9,1.9,0,0,1,174.8,123.9Z" transform="translate(-91.389 -55.981)"/>
          </g>
          <g id="Group_22" data-name="Group 22" transform="translate(44.683 81.814)">
            <path id="Path_294" data-name="Path 294" class="cls-7" d="M31.721,123.943l83.408,29.917a3.722,3.722,0,0,1-.058-.655V55.981l-45.938,16.4L30.574,58.514v63.651A1.892,1.892,0,0,0,31.721,123.943Z" transform="translate(-30.574 -55.981)"/>
          </g>
          <g id="Group_23" data-name="Group 23">
            <path id="Path_295" data-name="Path 295" class="cls-5" d="M131.4,17.193h0L179.55,0,262.8,29.945,214.476,46.4,262.8,62.845,179.55,92.791,131.4,75.6h0v-.1h0l82.39-29.1L131.4,17.3h0ZM83.249,0,131.4,17.193v.1L49.01,46.4,131.4,75.5v.1L83.249,92.792,0,62.845,48.324,46.4,0,29.945Z"/>
          </g>
        </g>
      </g>
    </g>
    <g id="Group_783_2_" class="cls-1" transform="translate(20051 17388)">
      <g id="Group_629_4_" transform="translate(2574.002 1308.023)">
        <path id="Path_708_2_" class="cls-4" d="M1585.036,87.107c65.64,17.315,128.124,43.983,190.422,70.579,17.924,7.65,35.824,15.3,53.115,22.435l37.578-17.195-.012-.029a8.206,8.206,0,0,1,6.049-.316l15.7,4.128v-.018a8.243,8.243,0,0,1,4.854,12.4l-33.191,59.275a8.237,8.237,0,0,1-8.581,4.093L1846.025,214l-59.79-18,11.006,32.161c-5.364-1.353-9.339-2.371-14.431-3.85l-9.571-2.515L1672.651,195.36l-.009.2-8.11-38.69-88.061-26.511,14.97,43.98-62.621-16.556v.012l-.3-.073h-.029l-.149-.041-.044-.012-.181-.056h0l-.2-.07a119.306,119.306,0,0,1-21.118-8.783c-9.96-5.381-18.038-12.613-16.626-20.945a8.243,8.243,0,0,1,.41-1.7c4.605-16.225,20.719-28.153,39.49-34.869,17.9-6.409,38.669-8.215,53.77-4.444a7.834,7.834,0,0,1,1.212.316v-.012Zm-27.114,9.331c-11.568-.141-22.16.375-32.43,6.019l20.84,7.275Z" transform="translate(-1490.002 -84.851)"/>
      </g>
      <g id="Group_630_4_" transform="translate(2673.416 1366.029)">
        <path id="Path_709_2_" class="cls-2" d="M1543.441,96.811l21.683,103.437s-30.952,4.122-49.142-4.67l-40.59-119.252Z" transform="translate(-1475.392 -76.326)"/>
      </g>
      <g id="Group_631_4_" transform="translate(2729.535 1307)">
        <path id="Path_710_2_" class="cls-11" d="M1533.461,123.892l51.086-16.922c7.589-3.106,3.578-9.369-2.614-10.549L1543.51,85.289v-.018a8.186,8.186,0,0,0-4.07-.029l-72.294,14.106Q1500.54,110.951,1533.461,123.892Z" transform="translate(-1467.146 -85)"/>
      </g>
      <g id="Group_632_4_" transform="translate(2883.214 1431.674)">
        <path id="Path_711_2_" class="cls-2" d="M1484.125,78.59l8.086,46.574s-17.994,2.395-28.566-2.711l-19.079-55.77Z" transform="translate(-1444.566 -66.683)"/>
      </g>
    </g>
  </g>
</svg>
