<svg xmlns="http://www.w3.org/2000/svg" viewBox="0 0 941.412 757.078">
  <defs>
    <style>
      .cls-1 {
        opacity: 0.5;
      }

      .cls-2, .cls-8 {
        fill: #4fbafb;
      }

      .cls-3, .cls-7 {
        fill: #0c73da;
      }

      .cls-10, .cls-4, .cls-6 {
        fill: #2394fb;
      }

      .cls-5 {
        opacity: 0.3;
      }

      .cls-6, .cls-7, .cls-8 {
        fill-rule: evenodd;
      }

      .cls-11, .cls-9 {
        fill: #fff;
      }

      .cls-10 {
        opacity: 0.358;
      }

      .cls-11 {
        opacity: 0.057;
      }

      .cls-12 {
        fill: #0c60b4;
      }
    </style>
  </defs>
  <g id="Group_936" data-name="Group 936" transform="translate(-22861 -17084)">
    <g id="Group_649_1_" class="cls-1" transform="translate(23729.252 16583.01)">
      <g id="Group_640_2_" transform="translate(-323.525 687.713)">
        <path id="Path_759_1_" class="cls-2" d="M-330.244,514.688A44.909,44.909,0,0,1-285.35,559.61,44.909,44.909,0,0,1-330.244,604.5V576.431a16.837,16.837,0,0,0,16.823-16.849,16.835,16.835,0,0,0-16.823-16.823V514.688Zm0,89.824a44.907,44.907,0,0,1-44.922-44.894A44.907,44.907,0,0,1-330.272,514.7h.028v28.076A16.837,16.837,0,0,0-347.093,559.6a16.837,16.837,0,0,0,16.823,16.849h.025v28.068Z" transform="translate(375.166 -514.688)"/>
      </g>
      <g id="Group_641_2_" transform="translate(-370.096 581.013)">
        <path id="Path_760_1_" class="cls-3" d="M-264.119,507l52.695-.136a9.35,9.35,0,0,1,9.345,9.345V658.142h0a9.344,9.344,0,0,0-9.338-9.015h-2.472a9.352,9.352,0,0,1,11.477,6.576,9.41,9.41,0,0,1,.328,2.442v.33h0a9.343,9.343,0,0,1-9.345,9.343h-20.653a54.63,54.63,0,0,0,0-18.688c-.03-.192-.068-.38-.106-.575l-.043-.217-.071-.383-.05-.249-.071-.34-.053-.237v-.035l-.111-.506-.058-.262-.081-.343-.055-.227-.1-.411-.043-.164-.136-.521v-.083c-.053-.189-.1-.378-.154-.564l-.058-.214-.1-.328-.083-.285-.106-.355-.055-.179c-.058-.189-.111-.37-.174-.559v-.033l-.045-.141-.126-.393-.081-.242-.111-.33-.091-.262-.111-.31-.083-.232-.2-.537-.068-.176-.141-.38-.1-.242-.126-.31-.083-.214-.219-.542V637.7c-.071-.169-.146-.343-.214-.509l-.081-.182-.174-.4-.073-.174-.189-.418-.058-.136-.249-.542-.068-.139-.2-.411-.091-.182-.179-.363-.1-.189c-.073-.154-.154-.31-.232-.459l-.04-.073h0l-.04-.071-.237-.448-.1-.186-.194-.355-.1-.189-.217-.386-.083-.146c-.1-.166-.191-.34-.29-.5l-.108-.186-.191-.31-.121-.2-.232-.38-.081-.131-.275-.441-.045-.071v-.018l-.31-.479-.136-.207-.189-.29-.141-.214-.287-.423-.028-.043-.35-.5-.023-.03-.083-.118-.249-.355-.139-.194-.229-.31-.113-.154-.31-.391-.065-.091-.028-.033-.358-.466-.093-.121-.277-.353-.131-.164-.31-.378-.071-.086-.393-.474h0v-.018l-.383-.451-.111-.133-.29-.335-.123-.139-.353-.393-.058-.066-.421-.459-.1-.1-.413-.413L-246.3,621l-.31-.328-.146-.149c-.139-.146-.277-.285-.421-.426a54.106,54.106,0,0,0-33.848-15.7v-35.3h60.259V525.552h-47.215a75.45,75.45,0,0,0-13.044,1.144V507.381a79.833,79.833,0,0,1,11.746-.282C-267.6,507.18-265.787,507.011-264.119,507ZM-281.026,604.4q-2.241-.189-4.513-.189A54.111,54.111,0,0,0-323.9,620.1c-.141.141-.282.282-.421.426l-.146.149-.31.328-.118.123-.335.355-.1.1-.421.459-.058.066-.355.393-.123.139-.29.335-.111.134-.383.451v.018h0l-.393.474-.071.086-.31.378-.131.164-.277.353-.093.121c-.121.154-.242.31-.358.466l-.025.033-.068.086-.31.393-.113.154-.229.31-.139.194-.249.353-.083.118-.023.033-.353.5-.028.043-.287.423-.141.214-.214.31-.1.149c-.111.166-.217.338-.31.5v.018l-.045.071c-.093.149-.186.29-.275.441l-.078.131-.237.385-.111.182-.214.355-.1.161c-.1.166-.194.338-.29.506l-.083.146-.214.383-.106.189-.194.358-.1.186-.275.521h0c-.093.176-.181.355-.272.534l-.083.164-.2.4-.078.161-.217.451-.043.091-.259.557-.045.1-.217.479-.053.121-.186.421-.078.182c-.071.169-.146.343-.214.509v.045c-.073.179-.149.365-.222.547l-.066.161-.159.4-.083.214-.136.358-.073.2c-.071.189-.136.373-.207.564v.043c-.063.174-.123.35-.186.521l-.066.192-.123.37-.065.2-.146.438-.04.124v.035c-.058.186-.113.368-.169.549l-.045.154-.131.436-.053.182-.118.418-.05.182c-.053.186-.1.373-.151.562v.023l-.025.1-.124.486-.043.174-.1.393-.058.247-.093.4-.03.139v.058l-.111.506v.03l-.045.214-.083.4-.045.217-.081.413-.03.164c-.038.2-.071.4-.108.6a54.63,54.63,0,0,0,0,18.688h-11.437V590.867q.4-1.546.862-3.091h0q-.461,1.546-.859,3.091V549.346a110.979,110.979,0,0,1,14.9-16c15.42-13.639,33.521-23.919,54.484-25.98v19.313a87.1,87.1,0,0,0-42.224,20.681,91.387,91.387,0,0,0-18.106,21.729h60.244v35.3Zm-69.38,63.416H-369.5c-11.966,0-9.02-12.187-8.038-19.318l6.949-51.281a101.88,101.88,0,0,1,20.2-47.857v41.521q-.476,1.856-.862,3.736.385-1.878.862-3.734v76.933h-.018Z" transform="translate(378.579 -506.86)"/>
      </g>
      <g id="Group_643_1_" transform="translate(-379.251 723.282)">
        <path id="Path_762_1_" class="cls-4" d="M-369.906,517.3a9.345,9.345,0,0,0-9.345,9.345,9.343,9.343,0,0,0,9.345,9.343H-330.5a54.633,54.633,0,0,1,0-18.688Z" transform="translate(379.251 -517.298)"/>
      </g>
      <path id="Union_1_1_" class="cls-4" d="M-36.889,741.932H-88.158a54.982,54.982,0,0,0-15.092-47.666,54.266,54.266,0,0,0-76.742.078,54.267,54.267,0,0,0-15.06,47.588H-302.815c-.275.025-.547.038-.826.038a9.341,9.341,0,0,1-9.34-9.34V510.33a9.343,9.343,0,0,1,9.34-9.34H-36.317v.018a9.346,9.346,0,0,1,8.773,9.325V732.627a9.34,9.34,0,0,1-9.34,9.34h0Z" transform="translate(100.703 0)"/>
      <g id="Group_645_1_" transform="translate(-85.821 687.713)">
        <path id="Path_764_1_" class="cls-2" d="M-312.814,514.688a44.909,44.909,0,0,1,44.894,44.922A44.909,44.909,0,0,1-312.814,604.5V576.431a16.837,16.837,0,0,0,16.823-16.849,16.835,16.835,0,0,0-16.823-16.823Zm0,0h0v28.081h0a16.837,16.837,0,0,0-16.849,16.823,16.837,16.837,0,0,0,16.823,16.849h.025v28.073h0a44.909,44.909,0,0,1-44.909-44.909A44.909,44.909,0,0,1-312.814,514.7Z" transform="translate(357.723 -514.688)"/>
      </g>
    </g>
    <g id="Group_935" data-name="Group 935" class="cls-5" transform="translate(22865 17084)">
      <g id="Group_41" data-name="Group 41" transform="translate(0 0)">
        <path id="Path_326" data-name="Path 326" class="cls-6" d="M151.929,41.058l88.707,34.564,53.8-18.905a3.058,3.058,0,0,0,1.527-3.788,3.783,3.783,0,0,0-2.451-2.027L151.929,1.15V41.058Zm0,65.734V62.923l57.509,23.66ZM148.8.051a4.585,4.585,0,0,0-2.317.3L94.42,18.648l57.509,22.41V1.15L148.8.051Zm3.124,62.871v43.869l-2.266.8a4.587,4.587,0,0,1-2.317.3L2.637,57.04A3.778,3.778,0,0,1,.186,55.012a3.059,3.059,0,0,1,1.527-3.788L67.4,28.143Z" transform="translate(0 0)"/>
      </g>
      <g id="Group_42" data-name="Group 42" transform="translate(144.925 61.724)">
        <path id="Path_327" data-name="Path 327" class="cls-7" d="M88,88.48v0Zm6.3,163.3,142.96-50.1a3.174,3.174,0,0,0,1.965-2.988V37.478a6.547,6.547,0,0,1-1.023.464l-.012-.023L185.417,56.462l.82,41.613a4.542,4.542,0,0,1-3.116,4.516l-21.8,6.938c-2.747.873-6.29-.8-6.29-3.854L154.3,67.4,94.3,88.48Z" transform="translate(-87.997 -37.478)"/>
      </g>
      <g id="Group_43" data-name="Group 43" transform="translate(0 61.722)">
        <path id="Path_328" data-name="Path 328" class="cls-8" d="M1.966,201.677,145,251.913a6.061,6.061,0,0,1-.1-1.1V88.579L1.573,38.109A6.46,6.46,0,0,1,0,37.477V198.689A3.173,3.173,0,0,0,1.966,201.677Z" transform="translate(0 -37.477)"/>
      </g>
    </g>
    <g id="Group_934" data-name="Group 934" class="cls-5" transform="translate(22815.002 17155)">
      <g id="Group_149" data-name="Group 149" transform="translate(609.999 345)">
        <g id="Group_148" data-name="Group 148">
          <g id="Group_147" data-name="Group 147" transform="translate(0 0)">
            <path id="Path_530" data-name="Path 530" class="cls-4" d="M0,125.256,124.447,10.423A39.6,39.6,0,0,1,151.746,0a38.832,38.832,0,0,1,26.038,10.42L302.231,125.259,151.114,227.964Z" transform="translate(0.002 -0.002)"/>
            <rect id="Rectangle_1494" data-name="Rectangle 1494" class="cls-9" width="185.008" height="193.247" transform="translate(58.613 104.277)"/>
            <rect id="Rectangle_1495" data-name="Rectangle 1495" class="cls-10" width="49.544" height="70.635" transform="translate(83.464 133.463)"/>
            <rect id="Rectangle_1497" data-name="Rectangle 1497" class="cls-10" width="53.352" height="8.657" transform="translate(169.603 133.174)"/>
            <rect id="Rectangle_1498" data-name="Rectangle 1498" class="cls-10" width="53.352" height="8.657" transform="translate(169.603 151.543)"/>
            <rect id="Rectangle_1499" data-name="Rectangle 1499" class="cls-10" width="53.352" height="8.657" transform="translate(169.603 169.912)"/>
            <rect id="Rectangle_1500" data-name="Rectangle 1500" class="cls-11" width="53.352" height="8.657" transform="translate(169.603 188.281)"/>
            <path id="Subtraction_2" data-name="Subtraction 2" class="cls-2" d="M302.234,205.426l0-.008h0l0,0-121.256-123L302.234,0V205.42l0,0h0v.01ZM0,205.42V0L121.26,82.414,0,205.416l0,0Z" transform="translate(0 135.653)"/>
          </g>
        </g>
        <path id="Path_533" data-name="Path 533" class="cls-12" d="M0,128.573H276.165L157.384,8.077a27.1,27.1,0,0,0-38.6,0Z" transform="translate(14.563 212.169)"/>
      </g>
    </g>
    <g id="Group_933" data-name="Group 933" class="cls-1" transform="translate(22861 17515)">
      <path id="Path_903" data-name="Path 903" class="cls-8" d="M81.47,84.766A102.9,102.9,0,0,1,207.96,69.8C194.508,83.1,179.026,98.648,179.026,98.648c-10.894,13.026,1.306,20.542,7.514,20.325H287.053a6.964,6.964,0,0,0,6.927-6.981V12.3c.469-9.073-9.542-17.937-19.912-7.768,0,0-17.1,16.687-28.883,28.365C184.764-11.217,99.621-6.213,45.029,48.325A153.747,153.747,0,0,0,.142,164.127H51.7A102.5,102.5,0,0,1,81.47,84.766Z" transform="translate(0 0)"/>
      <path id="Path_904" data-name="Path 904" class="cls-6" d="M248.509,84.9A102.7,102.7,0,0,1,92.254,179.269c13.453-13.294,28.939-28.83,28.939-28.83,10.837-13.042-1.361-20.542-7.519-20.329H13.16a6.964,6.964,0,0,0-6.981,6.927v99.69c-.417,9.115,9.6,17.937,19.912,7.766,0,0,17.1-16.632,28.935-28.363,60.426,44.168,145.565,39.162,200.1-15.43A153.7,153.7,0,0,0,300.07,84.9H248.509Z" transform="translate(4.497 61.913)"/>
    </g>
    <g id="Group_932" data-name="Group 932" transform="translate(23054 17232)">
      <path id="Path_275" data-name="Path 275" class="cls-12" d="M11.635,303.694l125.8,156.591a52.81,52.81,0,0,0,49.2,19.1l198.5-30.641a52.671,52.671,0,0,0,41.127-33.059l72.735-187.262a52.819,52.819,0,0,0-8.038-52.157L365.126,19.7A52.762,52.762,0,0,0,315.931.576l-198.5,30.671A52.67,52.67,0,0,0,76.3,64.306L3.566,251.538A52.828,52.828,0,0,0,11.635,303.694Z" transform="translate(-0.001 0.041)"/>
      <path id="Path_276" data-name="Path 276" class="cls-4" d="M270.374,259.63,206.1,425.346l189.014-29.281,54.514-140.333a23.544,23.544,0,0,0-25.534-31.79L288.747,244.853A23.577,23.577,0,0,0,270.374,259.63Z" transform="translate(-143.821 -156.06)"/>
      <path id="Path_277" data-name="Path 277" class="cls-2" d="M278.481,855.311,364.27,962.1a23.556,23.556,0,0,0,21.939,8.521l175.567-27.2L441.992,794.3,293.228,817.326A23.535,23.535,0,0,0,278.481,855.311Z" transform="translate(-190.698 -554.264)"/>
      <path id="Path_278" data-name="Path 278" class="cls-3" d="M831.6,382.517,900.86,204.2l111.354,138.611a23.558,23.558,0,0,1,3.6,23.268L966.191,493.72a23.535,23.535,0,0,1-40.281,6.225Z" transform="translate(-580.306 -142.482)"/>
    </g>
  </g>
</svg>
