<svg xmlns="http://www.w3.org/2000/svg" viewBox="0 0 555.469 243">
  <defs>
    <style>
      .cls-1 {
        fill: #fff;
        font-size: 200px;
        font-family: Cabin-Regular, Cabin;
      }

      .cls-2, .cls-3, .cls-4, .cls-5, .cls-6, .cls-7 {
        fill: none;
      }

      .cls-2 {
        stroke: #fff;
        stroke-miterlimit: 10;
        stroke-width: 4px;
      }

      .cls-3, .cls-4, .cls-5, .cls-6, .cls-7 {
        stroke: #ec1211;
        stroke-linecap: round;
      }

      .cls-3 {
        stroke-width: 25px;
        opacity: 0.04;
      }

      .cls-4 {
        stroke-width: 20px;
        opacity: 0.05;
      }

      .cls-5 {
        stroke-width: 15px;
        opacity: 0.2;
      }

      .cls-6 {
        stroke-width: 10px;
        opacity: 0.3;
      }

      .cls-7 {
        stroke-width: 5px;
      }
    </style>
  </defs>
  <g id="Group_606" data-name="Group 606" transform="translate(-405.5 -217)">
    <g id="Group_603" data-name="Group 603" transform="translate(-1 21)">
      <text id="_4_1" data-name="4     1" class="cls-1" transform="translate(480 389)"><tspan x="0" y="0" xml:space="preserve">4     1</tspan></text>
      <g id="Group_602" data-name="Group 602" transform="translate(-17260.094 -14742.025)">
        <path id="Path_690" data-name="Path 690" class="cls-2" d="M379.228,399.595a15.074,15.074,0,0,1,30.147,0" transform="translate(17570.158 14660.795)"/>
        <path id="Path_691" data-name="Path 691" class="cls-2" d="M360.541,395.98a30.146,30.146,0,1,1,60.293,0" transform="translate(17573.773 14664.41)"/>
        <path id="Path_692" data-name="Path 692" class="cls-2" d="M435.291,403.209" transform="translate(17559.313 14657.182)"/>
        <path id="Path_693" data-name="Path 693" class="cls-2" d="M375.8,350.8a45.244,45.244,0,0,1,63.058,41.564" transform="translate(17570.82 14668.025)"/>
        <path id="Path_694" data-name="Path 694" class="cls-2" d="M341.853,394.43a45.159,45.159,0,0,1,18.676-36.614" transform="translate(17577.385 14665.962)"/>
        <path id="Path_695" data-name="Path 695" class="cls-2" d="M453.978,403.209" transform="translate(17555.697 14657.182)"/>
        <path id="Path_696" data-name="Path 696" class="cls-2" d="M462.184,365.014a60.014,60.014,0,0,1,8.454,30.808" transform="translate(17554.113 14664.568)"/>
        <path id="Path_697" data-name="Path 697" class="cls-2" d="M324.372,377.907a60.3,60.3,0,0,1,99.2-34.378" transform="translate(17580.77 14671.639)"/>
        <path id="Path_698" data-name="Path 698" class="cls-2" d="M324.372,389.764" transform="translate(17580.77 14659.781)"/>
        <path id="Path_699" data-name="Path 699" class="cls-2" d="M323.166,403.209" transform="translate(17581 14657.182)"/>
        <path id="Path_700" data-name="Path 700" class="cls-2" d="M472.666,403.209" transform="translate(17552.086 14657.182)"/>
        <path id="Path_701" data-name="Path 701" class="cls-2" d="M349.748,320.545a75.383,75.383,0,0,1,114.218,64.593" transform="translate(17575.859 14675.253)"/>
        <path id="Path_702" data-name="Path 702" class="cls-2" d="M304.478,389.583a75.188,75.188,0,0,1,25.856-56.823" transform="translate(17584.615 14670.808)"/>
        <path id="Path_703" data-name="Path 703" class="cls-2" d="M491.353,403.209" transform="translate(17548.475 14657.182)"/>
        <path id="Path_708" data-name="Path 708" class="cls-2" d="M320.015,402.959a15.076,15.076,0,0,1-13.066,14.94" transform="translate(17584.139 14657.23)"/>
        <path id="Path_710" data-name="Path 710" class="cls-2" d="M336.279,402.959a30.159,30.159,0,0,1-23.169,29.335" transform="translate(17582.945 14657.23)"/>
        <path id="Path_711" data-name="Path 711" class="cls-2" d="M353.264,402.959a45.238,45.238,0,0,1-30.272,42.69" transform="translate(17581.037 14657.23)"/>
        <path id="Path_713" data-name="Path 713" class="cls-2" d="M370.956,402.959a60.3,60.3,0,0,1-34.42,54.475" transform="translate(17578.414 14657.23)"/>
        <path id="Path_715" data-name="Path 715" class="cls-2" d="M378.676,450.923A75.752,75.752,0,0,1,353.7,476.3" transform="translate(17575.096 14647.954)"/>
        <path id="Path_716" data-name="Path 716" class="cls-2" d="M396.5,402.959a75.133,75.133,0,0,1-5.834,29.126" transform="translate(17567.945 14657.23)"/>
        <path id="Path_718" data-name="Path 718" class="cls-2" d="M408.445,402.959A90.268,90.268,0,0,1,374.5,473.588" transform="translate(17571.074 14657.23)"/>
        <path id="Path_720" data-name="Path 720" class="cls-2" d="M428.237,402.959a105.158,105.158,0,0,1-29.344,73.016" transform="translate(17566.354 14657.23)"/>
        <path id="Path_722" data-name="Path 722" class="cls-2" d="M448.7,402.959a120.033,120.033,0,0,1-21.926,69.351" transform="translate(17560.963 14657.23)"/>
        <path id="Path_724" data-name="Path 724" class="cls-2" d="M469.449,400.045a135.5,135.5,0,0,1-13.415,58.98" transform="translate(17555.305 14657.794)"/>
      </g>
    </g>
    <path id="Path_729" data-name="Path 729" class="cls-3" d="M16410.7,14777h530.469" transform="translate(-15992.695 -14438)"/>
    <path id="Path_728" data-name="Path 728" class="cls-4" d="M16410.7,14777h530.469" transform="translate(-15992.695 -14438)"/>
    <path id="Path_727" data-name="Path 727" class="cls-5" d="M16410.7,14777h530.469" transform="translate(-15992.695 -14438)"/>
    <path id="Path_726" data-name="Path 726" class="cls-6" d="M16410.7,14777h530.469" transform="translate(-15992.695 -14438)"/>
    <path id="Path_725" data-name="Path 725" class="cls-7" d="M16410.7,14777h530.469" transform="translate(-15992.695 -14438)"/>
  </g>
</svg>
