<?xml version="1.0" encoding="UTF-8"?>
<!DOCTYPE svg PUBLIC "-//W3C//DTD SVG 1.1//EN" "http://www.w3.org/Graphics/SVG/1.1/DTD/svg11.dtd">
<!-- Creator: CorelDRAW -->
<svg xmlns="http://www.w3.org/2000/svg" xml:space="preserve" width="2048px" height="2048px" style="shape-rendering:geometricPrecision; text-rendering:geometricPrecision; image-rendering:optimizeQuality; fill-rule:evenodd; clip-rule:evenodd"
viewBox="0 0 2048 2048"
 xmlns:xlink="http://www.w3.org/1999/xlink">
 <defs>
  <style type="text/css">
   <![CDATA[
    .fil2 {fill:none}
    .fil0 {fill:#424242}
    .fil1 {fill:#424242;fill-rule:nonzero}
   ]]>
  </style>
 </defs>
 <g id="Layer_x0020_1">
  <metadata id="CorelCorpID_0Corel-Layer"/>
  <path class="fil0" d="M731.995 1388.43c57.4335,0 109.434,23.2831 147.076,60.9248 37.6418,37.6418 60.9248,89.6422 60.9248,147.076 0,57.4335 -23.2831,109.434 -60.9248,147.076 -37.6418,37.6418 -89.6422,60.9248 -147.076,60.9248 -57.4335,0 -109.434,-23.2831 -147.076,-60.9248 -37.6418,-37.6418 -60.9248,-89.6422 -60.9248,-147.076 0,-57.4335 23.2831,-109.434 60.9248,-147.076 37.6418,-37.6418 89.6422,-60.9248 147.076,-60.9248zm0 108.415c27.4937,0 52.3914,11.1484 70.4138,29.1721 18.0236,18.0225 29.1721,42.9201 29.1721,70.4138 0,27.4937 -11.1484,52.3914 -29.1721,70.4138 -18.0225,18.0236 -42.9201,29.1721 -70.4138,29.1721 -27.4937,0 -52.3914,-11.1484 -70.4138,-29.1721 -18.0236,-18.0225 -29.1721,-42.9201 -29.1721,-70.4138 0,-27.4937 11.1484,-52.3914 29.1721,-70.4138 18.0225,-18.0236 42.9201,-29.1721 70.4138,-29.1721zm29.987 69.5989c-7.663,-7.66536 -18.2693,-12.411 -29.987,-12.411 -11.7177,0 -22.324,4.74567 -29.987,12.411 -7.66536,7.663 -12.411,18.2693 -12.411,29.987 0,11.7177 4.74567,22.324 12.411,29.987 7.663,7.66536 18.2693,12.411 29.987,12.411 11.7177,0 22.324,-4.74567 29.987,-12.411 7.66536,-7.663 12.411,-18.2693 12.411,-29.987 0,-11.7177 -4.74567,-22.324 -12.411,-29.987z"/>
  <path class="fil0" d="M949.738 558.943l228.001 0 0 182.925 0 1.26614 13.9536 20.9291 14.0091 -21.0142 14.0102 21.0142 14.0067 -21.0142 14.0091 21.0142 14.0102 -21.0142 14.0091 21.0142 14.0091 -21.0142 14.0079 21.0142 14.0102 -21.0142 14.0091 21.0142 13.9547 -20.9315 0 -0.0826772 0 -184.106 228 0c17.6728,0 32.0008,14.328 32.0008,32.0008l0 832c0,17.6728 -14.328,32.0008 -32.0008,32.0008l-624 0c-17.6728,0 -32.0008,-14.328 -32.0008,-32.0008l0 -832c0,-17.6728 14.328,-32.0008 32.0008,-32.0008zm30.2941 805.883l273.958 0 0 23.9587 -273.958 0 0 -23.9587zm459.816 13.2744l103.596 0 0 10.6843 -103.596 0 0 -10.6843zm35.5418 -11.1992l0 -32.8087 11.7945 0 -23.589 -32.8087 -23.5902 32.8087 11.7945 0 0 32.8087 23.5902 0zm55.9323 0l0 -32.8087 11.7945 0 -23.5902 -32.8087 -23.589 32.8087 11.7945 0 0 32.8087 23.5902 0zm-551.291 -65.6174l273.958 0 0 23.9587 -273.958 0 0 -23.9587z"/>
  <path class="fil1" d="M1505.86 1639.94c13.8071,10.976 33.9,8.68229 44.876,-5.12481 10.976,-13.8071 8.68229,-33.9 -5.12481,-44.876l-80.2146 -63.9697 0.0389764 -0.0484252c-5.89961,-4.70433 -12.9508,-6.98504 -19.9524,-6.98032l0 -0.00236221 -543.44 0c-17.6728,0 -32.0008,14.328 -32.0008,32.0008 0,17.6728 14.328,32.0008 32.0008,32.0008l532.342 0 71.4745 57zm-748.126 -209.806c0,17.6728 14.328,32.0008 32.0008,32.0008 17.6728,0 32.0008,-14.328 32.0008,-32.0008l0 -935.196c0,-108.931 -27.6402,-165.199 -86.5064,-195.567 -53.9185,-27.8162 -129.229,-28.4339 -233.495,-28.4339 -17.6728,0 -32.0008,14.328 -32.0008,32.0008 0,17.6728 14.328,32.0008 32.0008,32.0008 95.3835,0 164.077,0.46063 204.243,21.1819 35.2181,18.1689 51.7559,57.9048 51.7559,138.817l0 935.196z"/>
  <path class="fil1" d="M1093.77 558.943c-8.83583,0 -16.0004,7.16457 -16.0004,16.0004 0,8.83583 7.16457,16.0004 16.0004,16.0004l335.94 0c8.83583,0 16.0004,-7.16457 16.0004,-16.0004 0,-8.83583 -7.16457,-16.0004 -16.0004,-16.0004l-335.94 0z"/>
  <rect class="fil0" x="442.26" y="268.051" width="209.625" height="79.4639"/>
  <rect class="fil0" x="644.04" y="243.564" width="28.0221" height="128.435" rx="14.0114" ry="14.0114"/>
  <rect class="fil0" x="721.952" y="585.598" width="43.7504" height="156.251"/>
  <rect class="fil0" x="721.952" y="1115.6" width="43.7504" height="156.251"/>
  <rect class="fil0" transform="matrix(2.64845E-014 -1 1 2.64845E-014 1183.2 1623.1)" width="43.7504" height="156.251"/>
 </g>
 <rect class="fil2" width="2048" height="2048"/>
</svg>
