<?xml version="1.0" encoding="UTF-8"?>
<!DOCTYPE svg PUBLIC "-//W3C//DTD SVG 1.1//EN" "http://www.w3.org/Graphics/SVG/1.1/DTD/svg11.dtd">
<!-- Creator: CorelDRAW -->
<svg xmlns="http://www.w3.org/2000/svg" xml:space="preserve" width="2048px" height="2048px" style="shape-rendering:geometricPrecision; text-rendering:geometricPrecision; image-rendering:optimizeQuality; fill-rule:evenodd; clip-rule:evenodd"
viewBox="0 0 2048 2048"
 xmlns:xlink="http://www.w3.org/1999/xlink">
 <defs>
  <style type="text/css">
   <![CDATA[
    .fil2 {fill:none}
    .fil1 {fill:#424242}
    .fil0 {fill:#424242;fill-rule:nonzero}
   ]]>
  </style>
 </defs>
 <g id="Layer_x0020_1">
  <metadata id="CorelCorpID_0Corel-Layer"/>
  <polygon class="fil0" points="255.949,1485.8 1791.95,1485.8 1791.95,1549.8 255.949,1549.8 "/>
  <g id="_301873656">
   <path id="_301874424" class="fil1" d="M608.311 606.949c255.069,67.2745 497.862,170.913 739.929,274.247 69.6378,29.726 139.22,59.4284 206.391,87.1725l146.017 -66.8162 -0.0484252 -0.10748c7.69961,-3.52323 16.0689,-3.73465 23.5087,-1.23307l60.9922 16.0311 0.0188977 -0.0720473c17.0929,4.49174 27.3071,21.991 22.8154,39.0839 -0.86693,3.30118 -2.22166,6.34371 -3.9626,9.0756l-129.006 230.296c-6.80906,12.1488 -20.361,18.1323 -33.3461,15.8965l-19.1965 -110.57 -232.324 -69.9402 42.7595 124.991c-20.8453,-5.25591 -36.2941,-9.22324 -56.08,-14.9551l-37.1965 -9.77717 -390.861 -102.731 -0.0318898 0.760631 -31.5071 -150.304 -342.183 -103.012 58.1705 170.899 -243.332 -64.3276 -0.0106299 0.0496063 -1.18228 -0.287008 -0.120473 -0.0330709 -0.585827 -0.161811 -0.165354 -0.0484252 -0.701575 -0.212599 -0.0165354 -0.00472441 -0.807875 -0.269292c-18.0154,-5.07874 -52.6855,-18.2421 -82.03,-34.0973 -38.6941,-20.9079 -70.0654,-49.0111 -64.5863,-81.3816 0.290551,-2.29252 0.825591,-4.50827 1.57441,-6.62245 17.9079,-63.0603 80.504,-109.389 153.456,-135.497 69.5516,-24.8929 150.266,-31.9217 208.947,-17.2642 1.61339,0.28937 3.18307,0.700394 4.70315,1.22244zm-105.358 36.2244c-44.9457,-0.549213 -86.1072,1.45866 -126.019,23.387l80.9764 28.2662 45.0426 -51.6532z"/>
   <path id="_301873944" class="fil0" d="M889.762 903.161l84.2528 401.921c0.0271654,-0.00590552 -120.272,16.0146 -190.953,-18.1394l-157.728 -463.386 264.428 79.604z"/>
   <path id="_301873848" class="fil0" d="M1101.08 745.303l198.521 -65.7591c29.4862,-12.0614 13.8957,-36.4122 -10.1599,-40.9914l-149.3 -43.2508 0.00944883 -0.0744095c-5.37048,-1.41142 -10.7811,-1.37008 -15.8162,-0.120473l-280.927 54.8032c86.5099,30.0768 172.371,62.0044 257.672,95.393z"/>
   <path id="_301873704" class="fil0" d="M1594.28 1124.9l31.4221 180.984c0.0165354,-0.00354331 -69.9213,9.31064 -111.012,-10.5449l-74.1379 -216.717 153.728 46.278z"/>
  </g>
 </g>
 <rect class="fil2" width="2048" height="2048"/>
</svg>
