<?xml version="1.0" encoding="UTF-8"?>
<!DOCTYPE svg PUBLIC "-//W3C//DTD SVG 1.1//EN" "http://www.w3.org/Graphics/SVG/1.1/DTD/svg11.dtd">
<!-- Creator: CorelDRAW -->
<svg xmlns="http://www.w3.org/2000/svg" xml:space="preserve" width="2048px" height="2048px" style="shape-rendering:geometricPrecision; text-rendering:geometricPrecision; image-rendering:optimizeQuality; fill-rule:evenodd; clip-rule:evenodd"
viewBox="0 0 2048 2048"
 xmlns:xlink="http://www.w3.org/1999/xlink">
 <defs>
  <style type="text/css">
   <![CDATA[
    .fil2 {fill:none}
    .fil1 {fill:#424242}
    .fil0 {fill:#424242;fill-rule:nonzero}
   ]]>
  </style>
 </defs>
 <g id="Layer_x0020_1">
  <metadata id="CorelCorpID_0Corel-Layer"/>
  <g id="_485287200">
   <path id="_485287800" class="fil0" d="M1024 347.437c188.092,0 358.448,76.1623 481.936,199.344 123.469,123.164 200.014,293.392 200.497,481.53l0.125197 0c0.0437008,17.6728 -14.2476,32.0351 -31.9205,32.0788 -13.9536,0.034252 -25.8414,-8.86772 -30.2492,-21.3142 -14.0268,-30.978 -37.7705,-57.4335 -67.7906,-76.1788 -30.1134,-18.8043 -66.5327,-29.7839 -105.86,-29.7839 -24.5646,0 -47.837,4.20473 -69.0237,11.8642 -22.0772,7.98071 -42.0933,19.6666 -59.1414,34.2166l-20.7496 -24.2504 20.7744 24.3402c-12.6969,10.8378 -31.4221,10.011 -43.128,-1.44331 -16.6949,-13.9228 -36.1488,-25.1315 -57.5374,-32.863 -21.1866,-7.65945 -44.4567,-11.8642 -69.0201,-11.8642 -24.5646,0 -47.837,4.20473 -69.0237,11.8642 -22.0772,7.98071 -42.0933,19.6666 -59.1414,34.2166l-20.7496 -24.2504 20.7744 24.3402c-12.6969,10.8378 -31.4221,10.011 -43.128,-1.44331 -16.6949,-13.9228 -36.1488,-25.1327 -57.5363,-32.863 -21.1866,-7.65945 -44.4567,-11.8642 -69.0201,-11.8642 -24.5658,0 -47.8382,4.20473 -69.026,11.8642 -22.0772,7.98071 -42.0933,19.6666 -59.1414,34.2166l-20.7496 -24.2504 20.7744 24.3402c-12.6969,10.8378 -31.4221,10.011 -43.128,-1.44331 -16.6949,-13.9228 -36.1488,-25.1327 -57.5363,-32.863 -21.1866,-7.65945 -44.4567,-11.8642 -69.0201,-11.8642 -39.3272,0 -75.7465,10.9795 -105.858,29.7827 -30.6851,19.161 -54.815,46.3748 -68.7107,78.241l-29.25 -12.75 29.3327 12.7913c-7.06418,16.1988 -25.9252,23.6055 -42.124,16.5414 -13.0606,-5.69528 -20.4036,-19.0606 -19.0571,-32.5146 1.31221,-186.905 77.6823,-355.938 200.471,-478.424 123.488,-123.182 293.844,-199.344 481.935,-199.344z"/>
   <polygon id="_485287272" class="fil0" points="1024,247.999 992.002,355.636 1024,387.637 1056,355.636 "/>
   <path id="_485287464" class="fil0" d="M1056 958.612c0,-17.6728 -14.328,-32.0008 -32.0008,-32.0008 -17.6728,0 -32.0008,14.328 -32.0008,32.0008l0 657.023c0,17.6728 14.328,32.0008 32.0008,32.0008 17.6728,0 32.0008,-14.328 32.0008,-32.0008l0 -657.023z"/>
   <path id="_485287152" class="fil1" d="M786.384 1609.19c0,25.2449 9.91654,49.1953 27.7654,67.0453 17.8488,17.8477 41.7992,27.7654 67.0441,27.7654 25.2449,0 49.1953,-9.91654 67.0453,-27.7654 17.8488,-17.85 27.7654,-41.8004 27.7654,-67.0453 0,-45.0378 -0.571654,-90.1701 -0.865749,-135.217l96.2516 0c0,45.0567 0.614174,90.2516 0.614174,135.217 0,50.7638 -20.0008,99.032 -55.8886,134.921 -35.889,35.8902 -84.1583,55.8898 -134.922,55.8898 -50.7626,0 -99.0308,-20.0008 -134.92,-55.8886 -35.8902,-35.889 -55.8898,-84.1583 -55.8898,-134.922 0,-26.504 21.4961,-48 48,-48 26.504,0 48,21.4961 48,48z"/>
  </g>
 </g>
 <rect class="fil2" width="2048" height="2048"/>
</svg>
