<?xml version="1.0" encoding="UTF-8"?>
<!DOCTYPE svg PUBLIC "-//W3C//DTD SVG 1.1//EN" "http://www.w3.org/Graphics/SVG/1.1/DTD/svg11.dtd">
<!-- Creator: CorelDRAW -->
<svg xmlns="http://www.w3.org/2000/svg" xml:space="preserve" width="2048px" height="2048px" style="shape-rendering:geometricPrecision; text-rendering:geometricPrecision; image-rendering:optimizeQuality; fill-rule:evenodd; clip-rule:evenodd"
viewBox="0 0 2048 2048"
 xmlns:xlink="http://www.w3.org/1999/xlink">
 <defs>
  <style type="text/css">
   <![CDATA[
    .fil1 {fill:none}
    .fil0 {fill:#424242}
   ]]>
  </style>
 </defs>
 <g id="Layer_x0020_1">
  <metadata id="CorelCorpID_0Corel-Layer"/>
  <g id="_485290896">
   <path id="_485292288" class="fil0" d="M266.194 1489.29l741.867 266.101c-0.341339,-1.89213 -0.518504,-3.83977 -0.518504,-5.82874l0 -859.339 -743.385 -267.334c-2.85945,-0.742914 -5.60315,-1.86969 -8.15434,-3.34134l0 853.916c0,6.85394 3.79134,13.2201 10.1906,15.8256zm404.55 -509.665c56.1567,22.6843 106.651,64.3772 143.736,114.58 39.5575,53.5489 64.0843,117.109 64.2438,178.008l0.0614174 0c0.0212599,8.83583 -7.12441,16.0169 -15.9602,16.0382 -7.22363,0.0177165 -13.3406,-4.7563 -15.3437,-11.3268 -4.51654,-11.4945 -12.1536,-22.6784 -21.8126,-32.1508 -9.59292,-9.40867 -21.0839,-16.9996 -33.3744,-21.3768 -7.31693,-2.60551 -14.1154,-3.82323 -20.1768,-3.79134 -5.65867,0.0295276 -10.7398,1.17284 -15.0083,3.29528l-7.12441 -14.3126 7.1256 14.3256c-7.03819,3.50079 -15.4193,1.33583 -19.9524,-4.7563 -5.46378,-6.5067 -11.7402,-12.3839 -18.5551,-17.2736 -6.66615,-4.78465 -13.9358,-8.69764 -21.5504,-11.4095 -7.31693,-2.60551 -14.1154,-3.82323 -20.1756,-3.79134 -2.13189,0.0106299 -4.17992,0.177165 -6.13229,0.49252l0 197.609 0.0011811 0.102756 -0.0011811 0.309449 0 1.75158c0,0.740552 -0.0519685,1.47047 -0.148819,2.18386 -0.359055,5.01851 -1.35118,9.73465 -2.90315,14.0929 -3.31536,9.313 -9.14646,16.7929 -16.8272,22.0087 -7.52953,5.11418 -16.5673,7.8815 -26.4638,7.8815 -6.5256,0 -13.4776,-1.21181 -20.6386,-3.76181 -15.6969,-5.59134 -29.7792,-16.8402 -39.8563,-30.5044 -10.1929,-13.826 -16.5012,-30.4181 -16.5012,-46.4941 0,-8.83583 7.16457,-16.0004 16.0004,-16.0004 8.83583,0 16.0004,7.16457 16.0004,16.0004 0,9.1441 3.9189,19.0311 10.2508,27.6201 6.45355,8.75079 15.2079,15.861 24.7311,19.2532 3.58937,1.27795 6.95906,1.88622 10.0134,1.88622 3.50788,0 6.43583,-0.79252 8.58898,-2.25473 2.00551,-1.36181 3.58937,-3.48662 4.57678,-6.25985 0.740552,-2.07992 1.15158,-4.56615 1.17638,-7.43386l0 -203.541c-4.67481,-5.07756 -9.85158,-9.69568 -15.3827,-13.6654 -6.66615,-4.78347 -13.937,-8.69764 -21.5504,-11.4083 -7.31693,-2.60669 -14.1142,-3.82323 -20.1756,-3.79134 -5.68229,0.0295276 -10.7693,1.16575 -15.0284,3.27284l0.0177165 0.0354331c-7.03583,3.49725 -15.4087,1.33465 -19.9429,-4.7504 -5.46496,-6.51024 -11.7449,-12.3874 -18.5622,-17.2795 -6.66615,-4.78465 -13.9358,-8.69764 -21.5504,-11.4095 -11.3894,-4.05591 -21.6272,-4.71851 -29.8122,-2.52284 -7.14567,1.91693 -12.7217,6.163 -15.8669,12.2575l-14.1874 -7.31221 14.2169 7.33938c-4.05237,7.85079 -13.7055,10.9299 -21.5563,6.87756 -5.98819,-3.09095 -9.19843,-9.44056 -8.5878,-15.763 0.211417,-23.0114 3.8752,-43.9807 10.5012,-62.5855 10.9961,-30.8717 30.0567,-55.4575 55.0288,-72.3627 24.7843,-16.7799 55.1811,-25.8166 89.0481,-25.7339 17.0587,0.0413386 34.9524,2.37284 53.3906,7.16812l0 -10.1669c0,-8.83583 7.16457,-16.0004 16.0004,-16.0004 8.83583,0 16.0004,7.16457 16.0004,16.0004l0 20.8004z"/>
   <path id="_485291928" class="fil0" d="M1027.79 292.882c-3.97205,-0.794883 -8.31379,0.265748 -12.0201,1.59567l-270.047 96.9107 758.353 301.774 279.043 -100.137c7.20945,-3.68504 10.7268,-12.2362 7.92048,-20.061 -1.98898,-5.5441 -7.43032,-8.84528 -12.7099,-10.7398l-750.539 -269.342zm-422.224 148.804l-340.675 122.257c-7.20945,3.68504 -10.7268,12.2362 -7.92048,20.061 1.98898,5.54292 7.43032,8.84528 12.7099,10.7398l750.539 269.34c3.97205,0.794883 8.31379,-0.264567 12.0201,-1.59567l310.03 -111.259 -736.704 -309.544z"/>
   <path id="_485291352" class="fil0" d="M1007.66 889.704l0 853.475 0.0011811 0.106299 0 -853.581 -0.0011811 0zm32.6823 864.967l741.466 -265.381c6.39922,-2.60551 10.1906,-8.97166 10.1906,-15.8256l0 -853.907c-1.66299,0.956694 -3.43465,1.78228 -5.30552,2.45315l-0.0590552 -0.121654 -273.692 98.217 4.25552 220.412c0,10.7244 -5.59371,20.4933 -16.1599,23.9221l-113.075 36.7548c-14.2512,4.62284 -32.6197,-4.22835 -32.6197,-20.413l-3.80906 -202.751 -311.191 111.674 0 864.966z"/>
  </g>
 </g>
 <rect class="fil1" width="2048" height="2048"/>
</svg>
