<?xml version="1.0" encoding="UTF-8"?>
<!DOCTYPE svg PUBLIC "-//W3C//DTD SVG 1.1//EN" "http://www.w3.org/Graphics/SVG/1.1/DTD/svg11.dtd">
<!-- Creator: CorelDRAW -->
<svg xmlns="http://www.w3.org/2000/svg" xml:space="preserve" width="2048px" height="2048px" style="shape-rendering:geometricPrecision; text-rendering:geometricPrecision; image-rendering:optimizeQuality; fill-rule:evenodd; clip-rule:evenodd"
viewBox="0 0 2048 2048"
 xmlns:xlink="http://www.w3.org/1999/xlink">
 <defs>
  <style type="text/css">
   <![CDATA[
    .fil1 {fill:none}
    .fil0 {fill:#424242;fill-rule:nonzero}
   ]]>
  </style>
 </defs>
 <g id="Layer_x0020_1">
  <metadata id="CorelCorpID_0Corel-Layer"/>
  <path class="fil0" d="M1300.66 445.458c95.9127,0 182.749,38.8796 245.607,101.738 62.8583,62.8583 101.738,149.694 101.738,245.607 0,95.9115 -38.8796,182.749 -101.738,245.607 -62.8583,62.8583 -149.694,101.738 -245.607,101.738 -95.9115,0 -182.749,-38.8796 -245.607,-101.738 -62.8583,-62.8583 -101.738,-149.695 -101.738,-245.607 0,-95.9127 38.8796,-182.749 101.738,-245.607 62.8583,-62.8583 149.695,-101.738 245.607,-101.738zm191.021 398.037c12.1536,0 22.0016,-9.84804 22.0016,-22.0016 0,-12.1536 -9.84804,-22.0016 -22.0016,-22.0016l-169.022 0 0 -233.397c0,-12.1536 -9.84804,-22.0016 -22.0016,-22.0016 -12.1536,0 -22.0016,9.84804 -22.0016,22.0016l0 255.398c0,12.1536 9.84804,22.0016 22.0016,22.0016l191.023 0z"/>
  <path class="fil0" d="M1332.66 375.871c0,-17.6728 -14.328,-32.0008 -32.0008,-32.0008 -17.6728,0 -32.0008,14.328 -32.0008,32.0008l0 85.6253c0,17.6728 14.328,32.0008 32.0008,32.0008 17.6728,0 32.0008,-14.328 32.0008,-32.0008l0 -85.6253z"/>
  <path class="fil0" d="M1230.03 317.62c-17.6728,0 -32.0008,14.328 -32.0008,32.0008 0,17.6728 14.328,54.9178 32.0008,54.9178l141.252 0c17.6728,0 32.0008,-37.2449 32.0008,-54.9178 0,-17.6728 -14.328,-32.0008 -32.0008,-32.0008l-141.252 0z"/>
  <g id="_485293080">
   <path id="_485293368" class="fil0" d="M584.708 1431.61c42.4725,0 80.9268,17.2193 108.761,45.0544 27.8351,27.8351 45.0544,66.2906 45.0544,108.761 0,42.4725 -17.2193,80.9268 -45.0544,108.761 -27.8339,27.8351 -66.2882,45.0544 -108.761,45.0544 -42.4701,0 -80.9257,-17.2193 -108.761,-45.0544 -27.8351,-27.8351 -45.0544,-66.2906 -45.0544,-108.761 0,-42.4701 17.2193,-80.9257 45.0544,-108.761 27.8351,-27.8351 66.2906,-45.0544 108.761,-45.0544zm40.78 113.035c-10.4339,-10.435 -24.8516,-16.8898 -40.78,-16.8898 -15.9272,0 -30.3461,6.45591 -40.78,16.8898 -10.4339,10.4339 -16.8898,24.8528 -16.8898,40.78 0,15.9272 6.45591,30.3461 16.8898,40.78 10.4339,10.4339 24.8528,16.8898 40.78,16.8898 15.9284,0 30.3461,-6.45473 40.78,-16.8898 10.435,-10.4339 16.8898,-24.8516 16.8898,-40.78 0,-15.9272 -6.45591,-30.3461 -16.8898,-40.78z"/>
   <path id="_485292432" class="fil0" d="M663.376 1066.63l180.477 -0.461811c17.6728,0 32.0008,14.328 32.0008,32.0008l0 486.131 -0.0212599 0c-0.592914,-17.152 -14.6835,-30.8764 -31.9796,-30.8764l-8.42835 0c2.68583,-0.731103 5.51103,-1.12441 8.42835,-1.12441 17.6728,0 32.0008,14.328 32.0008,32.0008l0 1.12441 0 0.0011811 0 0.0011811c0,17.6728 -14.328,32.0008 -32.0008,32.0008l-70.7717 0c1.8248,-10.4847 2.75906,-21.1866 2.75906,-32.0032 0,-10.8154 -0.933072,-21.5162 -2.75788,-32.0008 -0.114567,-0.659056 -0.232677,-1.31811 -0.355512,-1.9748l-0.140551 -0.741733 -0.252756 -1.31339 -0.172441 -0.862205 -0.237402 -1.15866 -0.17126 -0.819686 -0.0236221 -0.113386 -0.380315 -1.73504 -0.204331 -0.894095 -0.271654 -1.17165 -0.185433 -0.775985 -0.34252 -1.40315 -0.142913 -0.571654 -0.461811 -1.79291 -0.0519685 -0.20315 -0.0212599 -0.080315c-0.170079,-0.644882 -0.344882,-1.28976 -0.523229,-1.93465l-0.204331 -0.729922 -0.318898 -1.12205 -0.283465 -0.977954 -0.362599 -1.22008 -0.185433 -0.617717c-0.19252,-0.634252 -0.388583,-1.2685 -0.589371,-1.90158l-0.0389764 -0.124016 -0.155906 -0.48189 -0.433465 -1.33937 -0.276378 -0.831497 -0.382677 -1.13268 -0.305906 -0.894095 -0.382677 -1.08662 -0.282284 -0.799607 -0.669686 -1.83662 -0.230315 -0.612993 -0.491339 -1.29803 -0.320079 -0.825591 -0.435827 -1.10906 -0.288189 -0.72756 -0.753544 -1.85079 -0.0236221 -0.056693 -0.0401575 -0.0956694c-0.243307,-0.585827 -0.488977,-1.17047 -0.73819,-1.75276l-0.269292 -0.623623 -0.594095 -1.36417 -0.262205 -0.590552 -0.641339 -1.42441 -0.209055 -0.461811c-0.283465,-0.616536 -0.569292,-1.23307 -0.859843,-1.84725l-0.226772 -0.473622 -0.677953 -1.41142 -0.307087 -0.628347 -0.611811 -1.23662 -0.320079 -0.640158c-0.262205,-0.520867 -0.527953,-1.03819 -0.796064,-1.55669l-0.131102 -0.256299 -0.00354331 -0.00590552 -0.132284 -0.251575 -0.806694 -1.53307 -0.340158 -0.633071 -0.661418 -1.22244 -0.35315 -0.641339 -0.737008 -1.31929 -0.27874 -0.496063c-0.327166,-0.577559 -0.657875,-1.15394 -0.992127,-1.72914l-0.367323 -0.625985 -0.659056 -1.11614 -0.413386 -0.688583 -0.793701 -1.30394 -0.270473 -0.441733c-0.31063,-0.50315 -0.624804,-1.00866 -0.941339,-1.50945l-0.155906 -0.249213 -0.0413386 -0.0649607c-0.348425,-0.550394 -0.700394,-1.09724 -1.05473,-1.6441l-0.467717 -0.714567 -0.650788 -0.988583 -0.483071 -0.724016 -0.983859 -1.45158 -0.0968505 -0.144095c-0.39567,-0.577559 -0.794883,-1.15276 -1.19764,-1.72559l-0.0791339 -0.113386 -0.285827 -0.400394 -0.861024 -1.20709 -0.479528 -0.662599 -0.788977 -1.07717 -0.394488 -0.533859 -1.00394 -1.33937 -0.229134 -0.304725 -0.0885827 -0.115748c-0.4063,-0.533859 -0.816142,-1.06417 -1.22953,-1.59449l-0.318898 -0.407481 -0.95315 -1.20591 -0.441733 -0.552756 -1.04764 -1.29331 -0.248032 -0.303544c-0.447638,-0.544489 -0.896457,-1.08662 -1.34882,-1.6252l-0.0448819 -0.0531496 -0.0484252 -0.056693c-0.434646,-0.517323 -0.874016,-1.0311 -1.31575,-1.54488l-0.38504 -0.445276 -1.00158 -1.14685 -0.416929 -0.473622 -1.20709 -1.34882 -0.20315 -0.225591c-0.475985,-0.52441 -0.95315,-1.04646 -1.43504,-1.56496l-0.328347 -0.350788 -1.14803 -1.22244 -0.405118 -0.424016 -1.07599 -1.11732 -0.490158 -0.50315c-0.478347,-0.488977 -0.959056,-0.976772 -1.44331,-1.46102 -34.9394,-34.9394 -81.9686,-54.4276 -131.388,-54.4276 -49.4197,0 -96.4501,19.4882 -131.388,54.4264 -0.484252,0.484252 -0.964961,0.970867 -1.44331,1.46102l-0.490158 0.50315 -1.07599 1.11732 -0.405118 0.424016 -1.14803 1.22244 -0.328347 0.350788c-0.48189,0.519685 -0.960237,1.04055 -1.43504,1.56496l-0.20315 0.225591 -1.20709 1.34882 -0.416929 0.473622 -1.00158 1.14685 -0.38504 0.445276c-0.441733,0.51378 -0.881103,1.02756 -1.31575,1.54488l-0.0484252 0.056693 -0.0448819 0.0531496c-0.453544,0.539764 -0.902363,1.08189 -1.34882,1.6252l-0.248032 0.303544 -1.04764 1.29331 -0.441733 0.552756 -0.95315 1.20591 -0.318898 0.407481c-0.413386,0.529134 -0.82441,1.06063 -1.22953,1.59449l-0.0885827 0.115748 -0.229134 0.304725c-0.337796,0.444095 -0.672048,0.891733 -1.00394,1.33937l-0.394488 0.533859 -0.788977 1.07717 -0.479528 0.662599 -0.861024 1.20709 -0.285827 0.400394 -0.0791339 0.113386c-0.402756,0.572835 -0.801969,1.14685 -1.19764,1.72559l-0.0968505 0.144095 -0.983859 1.45158 -0.483071 0.724016 -0.729922 1.10906 -0.335433 0.511418c-0.373229,0.574016 -0.742914,1.14921 -1.10787,1.72677l-0.0413386 0.0649607 -0.155906 0.249213c-0.316536,0.500788 -0.630709,1.00512 -0.941339,1.50945l-0.270473 0.441733 -0.806694 1.32638 -0.375591 0.625985 -0.721654 1.22126 -0.328347 0.558662c-0.334252,0.575197 -0.666142,1.15276 -0.993308,1.7315l-0.27874 0.496063 -0.737008 1.31929 -0.35315 0.641339 -0.661418 1.22244 -0.340158 0.633071 -0.940158 1.78465 -0.00236221 0.00590552c-0.314173,0.605906 -0.623623,1.21299 -0.930709,1.82244l-0.285827 0.570473 -0.672048 1.35473 -0.26811 0.550394 -0.744095 1.54961 -0.147638 0.307087c-0.298819,0.633071 -0.592914,1.26614 -0.884646,1.90276l-0.154725 0.338977c-0.249213,0.546851 -0.497244,1.09606 -0.740552,1.64528l-0.179528 0.403937 -0.629528 1.44567 -0.269292 0.623623c-0.250394,0.583465 -0.494882,1.16693 -0.73819,1.75276l-0.0401575 0.0956694 -0.0236221 0.056693c-0.256299,0.620079 -0.510237,1.24252 -0.759449,1.86614l-0.222047 0.558662 -0.538583 1.36772 -0.279921 0.726379 -0.466536 1.23189 -0.253937 0.677953c-0.238583,0.644882 -0.474804,1.28976 -0.7063,1.93583l-0.0507874 0.142913c-0.212599,0.595276 -0.422835,1.19055 -0.628347,1.78819l-0.22441 0.656693 -0.429922 1.27441 -0.22441 0.67441 -0.487796 1.50709 -0.135827 0.418111 -0.0389764 0.125197c-0.198425,0.625985 -0.393307,1.25315 -0.583465,1.88268l-0.159449 0.530315 -0.444095 1.4941 -0.183071 0.629528 -0.405118 1.42677 -0.172441 0.618898c-0.177165,0.640158 -0.350788,1.27913 -0.519685,1.92166l-0.0212599 0.0791339 -0.0850394 0.328347 -0.427559 1.66536 -0.146457 0.587008 -0.330709 1.35236 -0.20315 0.846851 -0.316536 1.36772 -0.108662 0.47126 -0.0437008 0.194882c-0.12874,0.577559 -0.256299,1.15512 -0.379134,1.73504l-0.0200788 0.0968505 -0.151181 0.724016 -0.282284 1.3689 -0.146457 0.740552 -0.274016 1.41969 -0.10748 0.56693c-0.127559,0.687402 -0.251575,1.37717 -0.372048,2.06693 -1.82362,10.4858 -2.75788,21.1854 -2.75788,32.0008 0,10.8165 0.934253,21.5185 2.75906,32.0032l-104.516 0c-40.9796,0 -30.8823,-41.7414 -27.5729,-66.1701l23.7933 -175.644c11.5689,-85.415 56.7426,-162.813 120.197,-218.697 62.426,-55.2154 137.688,-94.3595 226.804,-89.9469 5.77796,0.285827 11.9764,-0.277559 17.7,-0.340158zm-292.583 276.712l-0.00826772 0c-2.30788,7.68308 -4.28032,15.476 -5.89725,23.3634 1.61811,-7.88386 3.59292,-15.6768 5.90552,-23.3634zm441.059 -64.0016l0 -149.171 -161.699 0c-69.4394,0 -136.664,28.6264 -189.031,74.7473 -24.3732,21.4654 -45.4678,46.6477 -62.0174,74.4237l412.747 0z"/>
   <path id="_485292840" class="fil0" d="M1581.84 1617.43l175.619 0 50.5382 0 0 -64.0016 -50.5382 0 -175.619 0c1.8248,10.4847 2.75788,21.1854 2.75788,32.0008 0,10.8154 -0.933072,21.5162 -2.75788,32.0008z"/>
   <path id="_485292792" class="fil0" d="M272 1553.43c-17.6728,0 -32.0008,14.328 -32.0008,32.0008 0,17.6728 14.328,32.0008 32.0008,32.0008l134.969 0c-1.8248,-10.4847 -2.75788,-21.1854 -2.75788,-32.0008 0,-10.8154 0.933072,-21.5162 2.75788,-32.0008l-134.969 0z"/>
   <path id="_485293056" class="fil0" d="M1581.86 1617.31l175.598 0.0011811 0 0.124016c17.6728,0 31.9996,-14.3268 31.9996,-31.9996l0.0011811 0 0 -761.342c0,-17.6728 -14.328,-32.0008 -32.0008,-32.0008l-77.465 0 0.00472441 0.713386c0,100.923 -39.7595,196.883 -111.11,268.234 -71.3516,71.3516 -167.31,111.11 -268.234,111.11 -100.923,0 -196.883,-39.7595 -268.234,-111.11 -71.3504,-71.3516 -111.11,-167.312 -111.11,-268.234l0.00472441 -0.713386 -77.465 0c-17.6728,0 -32.0008,14.328 -32.0008,32.0008l0 761.342c0,17.6728 14.328,32.0008 32.0008,32.0008 0.950788,0 1.89095,-0.0437008 2.82047,-0.125197l369.035 -0.00236221c-1.81063,-10.4457 -2.73662,-21.1028 -2.73662,-31.8756 0,-49.1989 19.3524,-96.3142 54.4264,-131.388 34.9382,-34.9382 81.9686,-54.4264 131.388,-54.4264 49.4197,0 96.4489,19.4882 131.388,54.4276 42.0485,42.0485 61.8981,104.378 51.6898,163.264z"/>
   <path id="_485292696" class="fil0" d="M1398.79 1431.61c42.4725,0 80.9268,17.2193 108.761,45.0544 27.8351,27.8351 45.0544,66.2906 45.0544,108.761 0,42.4725 -17.2193,80.9268 -45.0544,108.761 -27.8339,27.8351 -66.2882,45.0544 -108.761,45.0544 -42.4701,0 -80.9257,-17.2193 -108.761,-45.0544 -27.8351,-27.8351 -45.0544,-66.2906 -45.0544,-108.761 0,-42.4701 17.2193,-80.9257 45.0544,-108.761 27.8351,-27.8351 66.2906,-45.0544 108.761,-45.0544zm40.78 113.035c-10.4339,-10.435 -24.8516,-16.8898 -40.78,-16.8898 -15.9272,0 -30.3461,6.45591 -40.78,16.8898 -10.4339,10.4339 -16.8898,24.8528 -16.8898,40.78 0,15.9272 6.45591,30.3461 16.8898,40.78 10.4339,10.4339 24.8528,16.8898 40.78,16.8898 15.9284,0 30.3461,-6.45473 40.78,-16.8898 10.435,-10.4339 16.8898,-24.8516 16.8898,-40.78 0,-15.9272 -6.45591,-30.3461 -16.8898,-40.78z"/>
  </g>
 </g>
 <rect class="fil1" width="2048" height="2048"/>
</svg>
