<?xml version="1.0" encoding="UTF-8"?>
<!DOCTYPE svg PUBLIC "-//W3C//DTD SVG 1.1//EN" "http://www.w3.org/Graphics/SVG/1.1/DTD/svg11.dtd">
<!-- Creator: CorelDRAW -->
<svg xmlns="http://www.w3.org/2000/svg" xml:space="preserve" width="2048px" height="2048px" style="shape-rendering:geometricPrecision; text-rendering:geometricPrecision; image-rendering:optimizeQuality; fill-rule:evenodd; clip-rule:evenodd"
viewBox="0 0 2048 2048"
 xmlns:xlink="http://www.w3.org/1999/xlink">
 <defs>
  <style type="text/css">
   <![CDATA[
    .fil1 {fill:none}
    .fil0 {fill:#424242;fill-rule:nonzero}
   ]]>
  </style>
 </defs>
 <g id="Layer_x0020_1">
  <metadata id="CorelCorpID_0Corel-Layer"/>
  <path class="fil0" d="M630.399 1066.74c0,17.6728 14.328,32.0008 32.0008,32.0008 17.6728,0 32.0008,-14.328 32.0008,-32.0008l0 -498.024c0,-6.24095 2.63386,-11.941 6.87638,-16.0937 4.35237,-4.26024 10.4717,-6.90473 17.3043,-6.90473l420.34 0c17.6728,0 32.0008,-59.1201 32.0008,-76.793 0,-17.6728 -14.328,-32.0008 -32.0008,-32.0008l-420.34 0c-24.0662,0 -46.0406,9.72993 -62.054,25.4055 -16.1209,15.7831 -26.1284,37.5851 -26.1284,61.5945l0 542.816z"/>
  <path class="fil0" d="M1104.92 462.804c-3.38268,-17.3268 -20.1732,-28.6323 -37.5,-25.2496 -17.3268,3.38268 -28.6323,20.1732 -25.2496,37.5l130.754 661.814c3.38268,17.3268 20.1732,28.6323 37.5,25.2496 17.3268,-3.38268 28.6323,-20.1732 25.2496,-37.5l-130.754 -661.814z"/>
  <path class="fil0" d="M1365.4 1427.81c0.851575,-2.87481 1.31102,-5.91733 1.31102,-9.06851l0.214961 -253.152c0.0826772,-0.938977 0.127559,-1.8874 0.127559,-2.84764 0,-17.6728 -14.328,-32.0008 -32.0008,-32.0008l-458.325 0 0 -63.9993c0,-17.6728 -14.328,-32.0008 -32.0008,-32.0008l-393.285 0c-39.7985,0 -76.0737,16.0311 -102.454,41.8559 -26.4898,25.9323 -42.9331,61.7339 -42.9331,101.144l0 72.8186c-19.8248,2.74252 -32.687,13.3217 -41.0126,28.9736 -7.11024,13.3689 -9.04253,29.0221 -9.04253,45.4855l0 93.7229c0,17.6728 14.328,32.0008 32.0008,32.0008l50.0552 0 27.6189 0c5.713,-34.1729 22.1917,-65.7036 47.328,-90.3083 31.5673,-30.9012 73.7965,-48.0685 117.967,-48.0685 44.1697,0 86.4012,17.1662 117.969,48.0674 25.1351,24.6059 41.6138,56.1355 47.3268,90.3095l263.08 0c-0.0992127,-2.5689 -0.151181,-5.14607 -0.151181,-7.73032 0,-53.7402 21.7134,-104.504 60.026,-142.009 38.3634,-37.5555 89.6989,-58.3406 143.367,-58.3406 53.6682,0 105.002,20.7851 143.367,58.3394 34.6784,33.9485 55.7575,78.7583 59.4449,126.808z"/>
  <path class="fil0" d="M1366.91 490.744c0,-8.83583 -7.16457,-16.0004 -16.0004,-16.0004 -8.83583,0 -16.0004,7.16457 -16.0004,16.0004l0 768.001c0,8.83583 7.16457,16.0004 16.0004,16.0004 8.83583,0 16.0004,-7.16457 16.0004,-16.0004l0 -768.001z"/>
  <path class="fil0" d="M1465.12 490.744c0,-17.6728 -14.328,-32.0008 -32.0008,-32.0008 -17.6728,0 -32.0008,14.328 -32.0008,32.0008l0 841.96c0,17.6728 14.328,32.0008 32.0008,32.0008l340.426 0 0.569292 -0.00708662 0 -63.9875 -0.569292 -0.00708662 -308.425 0 0 -809.959z"/>
  <path class="fil0" d="M1162.59 1274.37c47.1437,0 89.9268,18.8055 120.982,49.2071 31.1469,30.489 50.413,72.6142 50.413,119.143 0,46.5284 -19.2662,88.6536 -50.4118,119.144 -31.0559,30.4016 -73.839,49.2059 -120.983,49.2059 -47.1437,0 -89.9257,-18.8043 -120.982,-49.2059 -31.1457,-30.4902 -50.4118,-72.6154 -50.4118,-119.144 0,-46.5272 19.2662,-88.6524 50.4118,-119.143 31.0559,-30.4016 73.8379,-49.2071 120.982,-49.2071zm35.6162 133.787c-9.07442,-8.88308 -21.6638,-14.3799 -35.6162,-14.3799 -13.9524,0 -26.5406,5.49685 -35.6162,14.3799 -9.03544,8.8441 -14.6244,21.065 -14.6244,34.5626 0,13.4976 5.58898,25.7185 14.6244,34.5638 9.0756,8.8819 21.6638,14.3788 35.6162,14.3788 13.9524,0 26.5418,-5.49685 35.6162,-14.3788 9.03544,-8.84528 14.6244,-21.0662 14.6244,-34.5638 0,-13.4976 -5.58898,-25.7185 -14.6244,-34.5626z"/>
  <path class="fil0" d="M530.97 1344.37c37.2059,0 71.0103,14.8807 95.5831,38.9351 24.6827,24.163 39.9496,57.5457 39.9496,94.4174 0,36.8717 -15.2669,70.2544 -39.9496,94.4174 -24.5729,24.0543 -58.3772,38.9351 -95.5831,38.9351 -37.2059,0 -71.0103,-14.8807 -95.5831,-38.9363 -24.6827,-24.1606 -39.9496,-57.5445 -39.9496,-94.4162 0,-36.8717 15.2669,-70.2556 39.9496,-94.4162 24.5729,-24.0555 58.3772,-38.9363 95.5831,-38.9363zm28.0488 106.362c-7.11615,-6.96615 -17.0291,-11.2748 -28.0488,-11.2748 -11.0197,0 -20.9327,4.30866 -28.0488,11.2748 -7.05591,6.90709 -11.4201,16.4516 -11.4201,26.9906 0,10.539 4.36418,20.0835 11.4201,26.9906 7.11615,6.96615 17.0291,11.2748 28.0488,11.2748 11.0197,0 20.9327,-4.30866 28.0488,-11.2748 7.05591,-6.90709 11.4201,-16.4516 11.4201,-26.9906 0,-10.539 -4.36418,-20.0835 -11.4201,-26.9906z"/>
  <path class="fil0" d="M803.19 777.71c-3.38268,-17.3268 -20.1732,-28.6323 -37.5,-25.2496 -17.3268,3.38268 -28.6323,20.1732 -25.2496,37.5l39.1512 197.046 31.3748 -6.1252 -31.3866 6.23623c3.06733,15.4382 16.7646,26.0587 31.9701,25.7646l131.241 0c17.6728,0 32.0008,-14.328 32.0008,-32.0008 0,-45.6733 -48.5481,-25.9855 -73.1079,-24.1453 -22.2685,1.66772 -43.6607,-1.0748 -64.4835,-7.85552 -0.105118,-49.3725 -7.50119,-103.733 -34.0099,-171.17z"/>
  <path class="fil0" d="M1023.11 874.149c-3.14055,-8.24883 -12.3756,-12.391 -20.6244,-9.2504 -8.24883,3.14055 -12.391,12.3756 -9.2504,20.6244l124.383 274.999c1.40079,4.43386 5.51575,6.66142 9.19253,4.97244 3.67559,-1.6878 5.52166,-6.65315 4.12205,-11.0882l-107.823 -280.257z"/>
  <path class="fil0" d="M956.082 892.303c-7.28268,4.97008 -9.15709,14.9043 -4.18701,22.187 4.97008,7.28268 14.9043,9.15709 22.187,4.18701l84.3863 -57.5528c7.28268,-4.97008 9.15709,-14.9043 4.18701,-22.187 -4.97008,-7.28268 -14.9043,-9.15709 -22.187,-4.18701l-84.3863 57.5528z"/>
  <path class="fil0" d="M774.348 1038.01c-7.28268,4.97008 -9.15709,14.9043 -4.18701,22.187 4.97008,7.28268 14.9043,9.15709 22.187,4.18701l84.3863 -57.5528c7.28268,-4.97008 9.15709,-14.9043 4.18701,-22.187 -4.97008,-7.28268 -14.9043,-9.15709 -22.187,-4.18701l-84.3863 57.5528z"/>
 </g>
 <rect class="fil1" width="2048" height="2048"/>
</svg>
