<?xml version="1.0" encoding="UTF-8"?>
<!DOCTYPE svg PUBLIC "-//W3C//DTD SVG 1.1//EN" "http://www.w3.org/Graphics/SVG/1.1/DTD/svg11.dtd">
<!-- Creator: CorelDRAW -->
<svg xmlns="http://www.w3.org/2000/svg" xml:space="preserve" width="2048px" height="2048px" style="shape-rendering:geometricPrecision; text-rendering:geometricPrecision; image-rendering:optimizeQuality; fill-rule:evenodd; clip-rule:evenodd"
viewBox="0 0 2048 2048"
 xmlns:xlink="http://www.w3.org/1999/xlink">
 <defs>
  <style type="text/css">
   <![CDATA[
    .fil2 {fill:none}
    .fil0 {fill:#424242}
    .fil1 {fill:#424242;fill-rule:nonzero}
   ]]>
  </style>
 </defs>
 <g id="Layer_x0020_1">
  <metadata id="CorelCorpID_0Corel-Layer"/>
  <g id="_304586816">
   <path id="_304588784" class="fil0" d="M464 952.103l1120 0c57.2315,0 109.241,23.3918 146.926,61.0749 37.6831,37.6843 61.0749,89.6942 61.0749,146.927 0,57.2315 -23.3918,109.241 -61.0749,146.926 -37.6843,37.6831 -89.6942,61.0749 -146.926,61.0749l-1120 0c-57.2315,0 -109.241,-23.3918 -146.926,-61.0749 -37.6831,-37.6843 -61.0749,-89.6942 -61.0749,-146.927 0,-57.2315 23.3918,-109.241 61.0749,-146.926 37.6843,-37.6831 89.6942,-61.0749 146.926,-61.0749zm1120 95.9989c30.926,0 58.9264,12.5374 79.1942,32.8075 20.2701,20.2677 32.8075,48.2705 32.8075,79.1942 0,30.926 -12.5374,58.9264 -32.8075,79.1942 -20.2677,20.2701 -48.2681,32.8075 -79.1942,32.8075 -30.9236,0 -58.9264,-12.5374 -79.1942,-32.8075 -20.2701,-20.2677 -32.8075,-48.2681 -32.8075,-79.1942 0,-30.9236 12.5374,-58.9264 32.8075,-79.1942 20.2677,-20.2701 48.2705,-32.8075 79.1942,-32.8075zm-280.001 0c30.926,0 58.9264,12.5374 79.1942,32.8075 20.2701,20.2677 32.8075,48.2705 32.8075,79.1942 0,30.926 -12.5374,58.9264 -32.8075,79.1942 -20.2677,20.2701 -48.2681,32.8075 -79.1942,32.8075 -30.9236,0 -58.9264,-12.5374 -79.1942,-32.8075 -20.2701,-20.2677 -32.8075,-48.2681 -32.8075,-79.1942 0,-30.9236 12.5374,-58.9264 32.8075,-79.1942 20.2677,-20.2701 48.2705,-32.8075 79.1942,-32.8075zm33.9437 78.0579c-8.68347,-8.68347 -20.6858,-14.0563 -33.9437,-14.0563 -13.2579,0 -25.2603,5.37284 -33.9437,14.0563 -8.68347,8.68347 -14.0563,20.6858 -14.0563,33.9437 0,13.2579 5.37284,25.2603 14.0563,33.9437 8.68347,8.68347 20.6858,14.0563 33.9437,14.0563 13.2579,0 25.2603,-5.37284 33.9437,-14.0563 8.68347,-8.68347 14.0563,-20.6858 14.0563,-33.9437 0,-13.2579 -5.37284,-25.2603 -14.0563,-33.9437zm-313.943 -78.0579c30.926,0 58.9264,12.5374 79.1942,32.8075 20.2701,20.2677 32.8075,48.2705 32.8075,79.1942 0,30.926 -12.5374,58.9264 -32.8075,79.1942 -20.2677,20.2701 -48.2681,32.8075 -79.1942,32.8075 -30.926,0 -58.9264,-12.5374 -79.1942,-32.8075 -20.2701,-20.2677 -32.8075,-48.2681 -32.8075,-79.1942 0,-30.9236 12.5374,-58.9264 32.8075,-79.1942 20.2677,-20.2701 48.2681,-32.8075 79.1942,-32.8075zm33.9437 78.0579c-8.68347,-8.68347 -20.6858,-14.0563 -33.9437,-14.0563 -13.2579,0 -25.2603,5.37284 -33.9437,14.0563 -8.68347,8.68347 -14.0563,20.6858 -14.0563,33.9437 0,13.2579 5.37284,25.2603 14.0563,33.9437 8.68347,8.68347 20.6858,14.0563 33.9437,14.0563 13.2579,0 25.2603,-5.37284 33.9437,-14.0563 8.68347,-8.68347 14.0563,-20.6858 14.0563,-33.9437 0,-13.2579 -5.37284,-25.2603 -14.0563,-33.9437zm-313.943 -78.0579c30.9236,0 58.9264,12.5374 79.1942,32.8075 20.2701,20.2677 32.8075,48.2705 32.8075,79.1942 0,30.926 -12.5374,58.9264 -32.8075,79.1942 -20.2677,20.2701 -48.2705,32.8075 -79.1942,32.8075 -30.926,0 -58.9264,-12.5374 -79.1942,-32.8075 -20.2701,-20.2677 -32.8075,-48.2681 -32.8075,-79.1942 0,-30.9236 12.5374,-58.9264 32.8075,-79.1942 20.2677,-20.2701 48.2681,-32.8075 79.1942,-32.8075zm33.9437 78.0579c-8.68347,-8.68347 -20.6858,-14.0563 -33.9437,-14.0563 -13.2579,0 -25.2603,5.37284 -33.9437,14.0563 -8.68347,8.68347 -14.0563,20.6858 -14.0563,33.9437 0,13.2579 5.37284,25.2603 14.0563,33.9437 8.68347,8.68347 20.6858,14.0563 33.9437,14.0563 13.2579,0 25.2603,-5.37284 33.9437,-14.0563 8.68347,-8.68347 14.0563,-20.6858 14.0563,-33.9437 0,-13.2579 -5.37284,-25.2603 -14.0563,-33.9437zm-313.943 -78.0579c30.9236,0 58.9264,12.5374 79.1942,32.8075 20.2701,20.2677 32.8075,48.2705 32.8075,79.1942 0,30.926 -12.5374,58.9264 -32.8075,79.1942 -20.2677,20.2701 -48.2705,32.8075 -79.1942,32.8075 -30.926,0 -58.9264,-12.5374 -79.1942,-32.8075 -20.2701,-20.2677 -32.8075,-48.2681 -32.8075,-79.1942 0,-30.9236 12.5374,-58.9264 32.8075,-79.1942 20.2677,-20.2701 48.2681,-32.8075 79.1942,-32.8075zm33.9437 78.0579c-8.68347,-8.68347 -20.6858,-14.0563 -33.9437,-14.0563 -13.2579,0 -25.2603,5.37284 -33.9437,14.0563 -8.68347,8.68347 -14.0563,20.6858 -14.0563,33.9437 0,13.2579 5.37284,25.2603 14.0563,33.9437 8.68347,8.68347 20.6858,14.0563 33.9437,14.0563 13.2579,0 25.2603,-5.37284 33.9437,-14.0563 8.68347,-8.68347 14.0563,-20.6858 14.0563,-33.9437 0,-13.2579 -5.37284,-25.2603 -14.0563,-33.9437zm1120 0c-8.68347,-8.68347 -20.6858,-14.0563 -33.9437,-14.0563 -13.2579,0 -25.2603,5.37284 -33.9437,14.0563 -8.68347,8.68347 -14.0563,20.6858 -14.0563,33.9437 0,13.2579 5.37284,25.2603 14.0563,33.9437 8.68347,8.68347 20.6858,14.0563 33.9437,14.0563 13.2579,0 25.2603,-5.37284 33.9437,-14.0563 8.68347,-8.68347 14.0563,-20.6858 14.0563,-33.9437 0,-13.2579 -5.37284,-25.2603 -14.0563,-33.9437z"/>
   <polygon id="_304588664" class="fil1" points="672.002,1362.6 672.002,1490.6 608,1490.6 608,1362.6 "/>
   <path id="_304588520" class="fil1" d="M544.001 1458.6c-17.6728,0 -32.0008,14.328 -32.0008,32.0008 0,17.6728 14.328,32.0008 32.0008,32.0008l192 0c17.6728,0 32.0008,-14.328 32.0008,-32.0008 0,-17.6728 -14.328,-32.0008 -32.0008,-32.0008l-192 0z"/>
   <path id="_304588640" class="fil1" d="M1344 1458.6c-17.6728,0 -32.0008,14.328 -32.0008,32.0008 0,17.6728 14.328,32.0008 32.0008,32.0008l192 0c17.6728,0 32.0008,-14.328 32.0008,-32.0008 0,-17.6728 -14.328,-32.0008 -32.0008,-32.0008l-192 0z"/>
   <polygon id="_304588400" class="fil1" points="1472,1362.6 1472,1490.6 1408,1490.6 1408,1362.6 "/>
   <g>
    <path id="_304587824" class="fil0" d="M517.94 525.397l157.608 0 0 126.448 0 0.875198 9.64489 14.4673 9.68387 -14.5264 9.68505 14.5264 9.6815 -14.5264 9.68387 14.5264 9.68505 -14.5264 9.68387 14.5264 9.68387 -14.5264 9.68268 14.5264 9.68505 -14.5264 9.68387 14.5264 9.64607 -14.4697 0 -0.056693 0 -127.264 157.606 0c12.2162,0 22.1209,9.90473 22.1209,22.1209l0 350.466c0,12.2162 -9.90473,22.1197 -22.1209,22.1197l-431.344 0c-12.2162,0 -22.1209,-9.90355 -22.1209,-22.1197l0 -350.466c0,-12.2162 9.90473,-22.1209 22.1209,-22.1209zm20.941 332.413l189.375 0 0 16.5614 -189.375 0 0 -16.5614zm317.85 9.17599l71.6115 0 0 7.38544 -71.6115 0 0 -7.38544zm24.5693 -7.74213l0 -22.6795 8.15316 0 -16.3063 -22.6784 -16.3075 22.6784 8.15316 0 0 22.6795 16.3075 0zm38.6634 0l0 -22.6795 8.15316 0 -16.3075 -22.6784 -16.3063 22.6784 8.15316 0 0 22.6795 16.3075 0zm-381.083 -45.3579l189.375 0 0 16.5614 -189.375 0 0 -16.5614z"/>
    <rect id="_304587632" class="fil0" x="627.245" y="526.009" width="213.137" height="23.0417"/>
   </g>
   <g>
    <path id="_304587416" class="fil0" d="M1097.11 525.397l157.608 0 0 126.448 0 0.875198 9.64489 14.4673 9.68387 -14.5264 9.68505 14.5264 9.6815 -14.5264 9.68387 14.5264 9.68505 -14.5264 9.68387 14.5264 9.68387 -14.5264 9.68268 14.5264 9.68505 -14.5264 9.68387 14.5264 9.64607 -14.4697 0 -0.056693 0 -127.264 157.606 0c12.2162,0 22.1209,9.90473 22.1209,22.1209l0 350.466c0,12.2162 -9.90473,22.1197 -22.1209,22.1197l-431.344 0c-12.2162,0 -22.1209,-9.90355 -22.1209,-22.1197l0 -350.466c0,-12.2162 9.90473,-22.1209 22.1209,-22.1209zm20.941 332.413l189.375 0 0 16.5614 -189.375 0 0 -16.5614zm317.85 9.17599l71.6115 0 0 7.38544 -71.6115 0 0 -7.38544zm24.5693 -7.74213l0 -22.6795 8.15316 0 -16.3063 -22.6784 -16.3075 22.6784 8.15316 0 0 22.6795 16.3075 0zm38.6634 0l0 -22.6795 8.15316 0 -16.3075 -22.6784 -16.3063 22.6784 8.15316 0 0 22.6795 16.3075 0zm-381.083 -45.3579l189.375 0 0 16.5614 -189.375 0 0 -16.5614z"/>
    <rect id="_304586888" class="fil0" x="1206.41" y="526.009" width="213.137" height="23.0417"/>
   </g>
  </g>
 </g>
 <rect class="fil2" width="2048" height="2048"/>
</svg>
