<?xml version="1.0" encoding="UTF-8"?>
<!DOCTYPE svg PUBLIC "-//W3C//DTD SVG 1.1//EN" "http://www.w3.org/Graphics/SVG/1.1/DTD/svg11.dtd">
<!-- Creator: CorelDRAW -->
<svg xmlns="http://www.w3.org/2000/svg" xml:space="preserve" width="2048px" height="2048px" style="shape-rendering:geometricPrecision; text-rendering:geometricPrecision; image-rendering:optimizeQuality; fill-rule:evenodd; clip-rule:evenodd"
viewBox="0 0 2048 2048"
 xmlns:xlink="http://www.w3.org/1999/xlink">
 <defs>
  <style type="text/css">
   <![CDATA[
    .fil2 {fill:none}
    .fil1 {fill:#424242}
    .fil0 {fill:#424242;fill-rule:nonzero}
   ]]>
  </style>
 </defs>
 <g id="Layer_x0020_1">
  <metadata id="CorelCorpID_0Corel-Layer"/>
  <g id="_304591256">
   <path id="_304652200" class="fil0" d="M1186.14 1777.52c141.122,-4.07835 268.518,-62.9398 361.649,-156.071 3.93189,-3.93071 7.79882,-7.92875 11.6043,-11.9823 -12.7701,-7.08071 -39.1158,-21.6756 -41.5111,-22.9394 -36.0225,-18.9957 -74.9434,-33.6319 -114.39,-44.7674 -9.23387,26.3681 -19.963,51.8575 -32.3044,76.0359 -37.5638,73.5875 -100.116,150.944 -185.048,159.552l0 0.172441zm225.442 -808.485l5.02323 18.8103 -0.0165354 0.00472441c22.2402,78.2032 32.5689,161.832 33.7736,240.556l253.498 0c-3.39567,-117.526 -44.7981,-225.521 -112.336,-312.144 -7.57205,1.81299 -15.137,3.68386 -22.6925,5.60788 -53.1048,13.5248 -105.768,29.7107 -157.25,47.165zm-25.128 27.1642l-4.52008 -16.924c-31.2662,10.9984 -62.3587,22.5768 -93.2552,34.6807 -34.4339,13.487 -68.6233,27.6272 -102.539,42.3426l0 172.108 232.827 0c-1.18701,-75.9686 -11.0469,-156.77 -32.5559,-232.197l0.0425197 -0.0106299zm-13.4162 537.657c-2.68465,-0.637796 -5.37048,-1.26024 -8.05394,-1.86851 -58.4386,-13.2343 -118.86,-19.9028 -178.844,-20.9173l0 233.713c72.1831,-9.13583 125.707,-79.9158 157.4,-142.005 11.2075,-21.9555 21.0036,-45.0496 29.4981,-68.9221zm-218.293 -22.8106c-60.1028,0.928347 -120.678,7.43741 -179.221,20.7614 -2.58662,0.588189 -5.17323,1.1941 -7.76103,1.81417 8.51457,23.9551 18.3366,47.1296 29.5819,69.1571 31.6925,62.0894 85.2166,132.869 157.4,142.005l0 -233.738zm-217.399 30.5847c-37.3548,10.741 -74.204,24.6969 -108.664,41.6811 -3.66378,1.80473 -30.424,17.602 -46.4327,26.9599 3.56457,3.77481 7.17402,7.50709 10.8461,11.178 93.1312,93.1312 220.527,151.993 361.649,156.071l0 -0.172441c-84.932,-8.60788 -147.484,-85.9642 -185.048,-159.552 -12.3626,-24.2173 -23.1059,-49.7516 -32.3504,-76.1658zm643.224 43.9193c74.0044,-88.7906 119.713,-201.991 123.289,-325.748l-253.498 0c-1.26496,82.669 -12.5953,170.75 -37.2059,252.273 41.5099,11.8051 82.4245,27.3295 120.304,47.413 2.77677,1.47047 40.9819,22.6618 47.1107,26.0622zm-161.603 -325.748l-232.827 0 0 219.872c62.2772,1.04646 124.969,8.12127 185.645,21.861 3.68268,0.833859 7.36772,1.69606 11.0528,2.58425 23.9965,-78.8375 34.8792,-164.26 36.1299,-244.317zm-264.222 0l-232.827 0c1.24961,79.9678 12.1087,165.287 36.0496,244.054 3.5752,-0.8563 7.1504,-1.68898 10.7256,-2.49449 60.8162,-13.7091 123.647,-20.7331 186.052,-21.7063l0 -219.853zm-264.222 0l-96.3107 0c-49.6252,30.8221 -98.5607,63.6945 -145.042,99.032 18.6851,85.278 57.7559,162.925 111.859,227.567 14.1189,-8.25355 49.1587,-29.0445 53.6658,-31.324 35.8264,-18.1134 74.1237,-32.3327 112.943,-43.3099 -24.5492,-81.4371 -35.8524,-169.397 -37.115,-251.965zm102.399 -255.164c-8.10827,-1.58032 -16.1858,-3.2752 -24.2292,-5.08819 -4.73859,-1.06772 -9.4819,-2.1815 -14.2205,-3.34016 -2.99055,10.4882 -5.7567,21.0815 -8.30434,31.7492 15.5268,-7.89804 31.1126,-15.6721 46.754,-23.3209zm-69.3532 179.782c-0.881103,14.791 -1.42441,29.478 -1.65118,43.9878l232.827 0 0 -158.289c-14.2559,6.36378 -28.461,12.8291 -42.613,19.3854 -63.763,29.5429 -126.806,61.1186 -188.563,94.9158zm0.637796 -196.253c-37.6441,-10.8413 -74.7414,-24.7524 -109.512,-42.3331 -5.3563,-2.70709 -53.8347,-31.5603 -59.0741,-34.4457 -0.563386,-0.31063 -1.09961,-0.648426 -1.60984,-1.01575 -66.5386,82.9217 -108.817,186.137 -116.086,298.888 41.5193,-28.6276 84.1961,-55.6737 127.107,-81.3662 47.4615,-28.4173 95.8489,-55.4646 144.918,-81.2197 4.06181,-19.7268 8.79804,-39.2811 14.2571,-58.5071zm-78.0934 240.241l44.4095 0c0.132284,-8.62323 0.37441,-17.3043 0.728741,-26.0315 -15.1335,8.5382 -30.1819,17.2158 -45.1382,26.0315zm637.963 -416.097c-84.0981,-61.1894 -186.756,-98.4119 -297.937,-101.624l0 0.172441c77.5394,7.85906 136.421,73.017 174.669,140.297l0.237402 -0.0814961c40.4445,-13.8638 81.5434,-26.9575 123.031,-38.7638zm-297.937 -68.8878l0 173.955c47.6776,-19.7599 95.8394,-38.3764 144.41,-55.6512 -32.4638,-55.2189 -81.306,-110.317 -144.41,-118.304zm-31.3949 -32.7366c-141.122,4.07835 -268.518,62.9398 -361.649,156.071 -6.32363,6.32245 -12.4807,12.8067 -18.4807,19.4386 12.8185,7.39843 49.7185,29.2595 54.0674,31.4032 33.2504,16.3866 68.7237,29.9551 104.732,40.5355 10.089,-30.5303 22.1256,-59.9894 36.2823,-87.7241 37.5638,-73.5886 100.116,-150.944 185.048,-159.552l0 -0.172441zm-191.022 255.623c3.93307,0.967324 7.86733,1.89803 11.8016,2.79449 21.8398,4.97008 43.9618,8.99292 66.2363,12.1299 5.56654,-2.61496 11.139,-5.21457 16.7162,-7.79882 31.8402,-14.752 63.9378,-29.0575 96.2682,-42.8528l0 -187.159c-72.1831,9.13583 -125.707,79.9158 -157.4,142.005 -13.0701,25.6016 -24.2197,52.7528 -33.6225,80.8808z"/>
   <path id="_304651816" class="fil0" d="M1667.99 1050.79l-161.71 0 0 177.613 197.58 0c-1.80591,-62.4922 -14.3575,-122.29 -35.8701,-177.613z"/>
   <path id="_304651360" class="fil0" d="M1691.85 797.466c17.3965,-2.82992 33.7949,8.97875 36.6248,26.3752 2.82992,17.3965 -8.97875,33.7949 -26.3752,36.6248 -5.25709,0.871654 -18.6095,3.62126 -30.3059,6.02835 -8.89253,1.83071 -16.9725,3.49607 -19.2957,3.93544 -76.004,14.4106 -164.359,38.5193 -260.329,71.4166 -92.7934,31.8071 -192.062,71.628 -293.492,118.623 -206.091,95.4887 -382.673,202.562 -501.561,298.48 -108.768,87.7524 -167.453,160.57 -150.275,197.647 8.15316,17.5984 38.7827,27.0036 86.4792,28.9075 32.9422,1.31575 72.4678,-1.53189 117.346,-8.29134 27.567,-4.15158 25.9169,-4.58268 57.2516,-11.6445l43.2378 55.4256c-34.6441,8.45906 -36.4016,10.1787 -67.4434,15.5067 -58.6359,10.0654 -110.306,14.4555 -152.891,12.7547 -72.73,-2.90433 -122.682,-24.261 -141.979,-65.9091 -31.1126,-67.1528 35.4709,-167.002 168.275,-274.147 122.684,-98.9812 303.983,-209.045 514.811,-306.729 103.935,-48.1548 205.211,-88.8072 299.492,-121.125 98.3304,-33.7063 189.758,-58.578 269.329,-73.6654 5.01496,-0.949607 11.335,-2.25236 18.2941,-3.68504 12.7004,-2.61378 27.1973,-5.59961 32.8075,-6.52914z"/>
   <polygon id="_304651048" class="fil1" points="1688.87,966.432 1629.49,704.828 1789.98,805.941 "/>
   <g>
    <path id="_304651024" class="fil1" d="M1033.24 265.945c-163.769,43.1941 -319.659,109.736 -475.08,176.084 -44.7118,19.0866 -89.3883,38.1567 -132.516,55.9701l-93.7524 -42.9 0.0318898 -0.068504c-4.9441,-2.26181 -10.3181,-2.39764 -15.0945,-0.791339l-39.1607 10.2921 -0.011811 -0.046063c-10.9748,2.88425 -17.5335,14.1201 -14.6492,25.0949 0.5563,2.1189 1.42677,4.07244 2.5441,5.82638l82.8296 147.865c4.37244,7.80001 13.0736,11.6421 21.411,10.2071l12.3248 -70.9938 149.166 -44.9055 -27.4536 80.2524c13.3843,-3.37441 23.3032,-5.92205 36.0071,-9.60237l23.8819 -6.27756 250.957 -65.9599 0.0200788 0.488977 20.2299 -96.5044 219.703 -66.1406 -37.3488 109.728 156.234 -41.3032 0.00708662 0.0318898 0.759449 -0.184252 0.0767717 -0.0212599 0.375591 -0.103937 0.106299 -0.0307087 0.451181 -0.137008 0.0106299 -0.00236221 0.518504 -0.173622c11.5665,-3.25985 33.8268,-11.7118 52.6678,-21.8917 24.8445,-13.4244 44.987,-31.4681 41.4685,-52.252 -0.186614,-1.47284 -0.529134,-2.89488 -1.01102,-4.25197 -11.498,-40.4894 -51.6886,-70.2355 -98.5276,-86.9977 -44.6563,-15.9827 -96.4796,-20.4957 -134.157,-11.0847 -1.03583,0.185433 -2.04331,0.448819 -3.02008,0.784253zm67.6465 23.2583c28.8579,-0.351969 55.2863,0.936615 80.9127,15.0165l-51.9922 18.1488 -28.9205 -33.1654z"/>
    <path id="_304650856" class="fil0" d="M852.533 456.133l-54.0957 258.058c-0.0177165,-0.00354331 77.2217,10.2827 122.603,-11.6469l101.271 -297.522 -169.779 51.1111z"/>
    <path id="_304650928" class="fil0" d="M716.855 354.777l-127.462 -42.2209c-18.9319,-7.74449 -8.92205,-23.3788 6.52323,-26.3197l95.8595 -27.7689 -0.00590552 -0.0484252c3.44764,-0.905906 6.92127,-0.878741 10.1551,-0.0767717l180.372 35.1874c-55.5449,19.311 -110.673,39.8103 -165.442,61.2473z"/>
    <path id="_304585016" class="fil0" d="M400.192 598.5l-20.1756 116.203c-0.00944883,-0.0011811 44.8937,5.97874 71.2772,-6.77008l47.6008 -139.146 -98.7024 29.713z"/>
   </g>
  </g>
 </g>
 <rect class="fil2" width="2048" height="2048"/>
</svg>
