<?xml version="1.0" encoding="UTF-8"?>
<!DOCTYPE svg PUBLIC "-//W3C//DTD SVG 1.1//EN" "http://www.w3.org/Graphics/SVG/1.1/DTD/svg11.dtd">
<!-- Creator: CorelDRAW -->
<svg xmlns="http://www.w3.org/2000/svg" xml:space="preserve" width="2048px" height="2048px" style="shape-rendering:geometricPrecision; text-rendering:geometricPrecision; image-rendering:optimizeQuality; fill-rule:evenodd; clip-rule:evenodd"
viewBox="0 0 2048 2048"
 xmlns:xlink="http://www.w3.org/1999/xlink">
 <defs>
  <style type="text/css">
   <![CDATA[
    .fil2 {fill:none}
    .fil1 {fill:#424242}
    .fil0 {fill:#424242;fill-rule:nonzero}
   ]]>
  </style>
 </defs>
 <g id="Layer_x0020_1">
  <metadata id="CorelCorpID_0Corel-Layer"/>
  <g id="_52201584">
   <path id="_303667632" class="fil0" d="M1389.33 1164.22c-27.5729,0 -51.489,15.2256 -51.489,31.3654 0,16.141 22.3536,29.2264 49.9264,29.2264l201.551 -1.78465 217.706 1.73386 -23.9575 -24.7051 -393.736 -35.8359z"/>
   <polygon id="_303667296" class="fil0" points="1401.8,1154.19 1704.06,1156.09 1681.67,1124.09 1401.28,1094.23 "/>
   <polygon id="_303666696" class="fil0" points="1401.28,1084.67 1587.69,1087.94 1568.42,1059.14 1401.28,1031.17 "/>
   <g>
    <g>
     <path id="_303666816" class="fil0" d="M661.565 1224.76l413.87 0 -0.0141732 -0.16063 -0.0271654 -0.320079 -0.0141732 -0.161811 -0.0129921 -0.16063 -0.0637796 -0.804331 -0.0129921 -0.155906 0 -0.00590552 -0.0106299 -0.16063 -0.011811 -0.16063 -0.0106299 -0.16063 -0.0437008 -0.646063 -0.0106299 -0.161811 -0.0011811 -0.0153543 -0.00944883 -0.145276 -0.00944883 -0.161811 -0.00944883 -0.16063 -0.0448819 -0.807875 -0.00826772 -0.161811 -0.00472441 -0.105118 -0.00354331 -0.056693 -0.0496063 -1.13268 -0.00590552 -0.161811 -0.00354331 -0.0791339 -0.00236221 -0.0826772 -0.0366142 -1.13622 -0.00354331 -0.16063 -0.00236221 -0.0543308 -0.0011811 -0.108662 -0.0011811 -0.0295276 -0.0212599 -1.10669 -0.0011811 -0.162992 -0.0011811 -0.0259843 0 -0.0448819c-0.00472441,-0.464174 -0.00826772,-0.928347 -0.00826772,-1.3937 0,-30.6969 12.1051,-59.9079 33.8055,-81.6107 21.7028,-21.7004 50.9138,-33.8055 81.6107,-33.8055 30.6969,0 59.9079,12.1051 81.6107,33.8067 21.7004,21.7016 33.8055,50.9138 33.8055,81.6095 0,0.465355 -0.00236221,0.930709 -0.00826772,1.3937l0 0.0448819 -0.0011811 0.0259843 -0.0011811 0.162992 -0.0212599 1.10669 -0.0011811 0.0295276 -0.0011811 0.108662 -0.00236221 0.0543308 -0.00472441 0.16063 -0.0354331 1.13622 -0.00236221 0.0826772 -0.00354331 0.0791339 -0.00590552 0.161811 -0.0496063 1.13268 -0.00354331 0.056693 -0.00472441 0.105118 -0.00944883 0.161811 -0.0437008 0.807875 -0.00944883 0.16063 -0.0106299 0.161811 -0.00826772 0.145276 -0.0011811 0.0153543 -0.0106299 0.161811 -0.0437008 0.646063 -0.0106299 0.16063 -0.011811 0.16063 -0.0106299 0.16063 0 0.00590552 -0.0129921 0.155906 -0.0637796 0.804331 -0.0129921 0.16063 -0.0141732 0.161811 -0.0271654 0.320079 -0.0141732 0.16063 96.2859 0c13.0807,0 23.687,-10.6051 23.687,-23.687l0 -439.323c0,-13.0819 -10.6063,-23.6882 -23.687,-23.6882l-467.818 0c-81.3012,0 -162.165,21.3284 -234.49,58.6583 -71.2524,36.776 -134.263,89.1379 -181.265,151.975 -1.93228,1.35709 -3.65197,2.99528 -5.1,4.8567 -16.6843,9.45591 -47.0008,16.6205 -78.8528,24.1453 -74.8052,17.6728 -156.587,36.9945 -156.587,107.252l0 96.0048c0,11.0339 4.18465,21.1866 11.0575,28.9524 0.551575,0.693308 1.14803,1.36299 1.78937,2.00433l0.0472441 -0.0484252 0.00236221 0.0011811 0.046063 0.0472441 0.0011811 -0.0011811c7.97481,7.92993 18.8988,12.8504 30.8622,12.8504l110.334 0c-0.305906,-3.42638 -0.461811,-6.87993 -0.461811,-10.3536 0,-30.6969 12.1051,-59.9079 33.8055,-81.6107 21.7028,-21.7004 50.915,-33.8055 81.6107,-33.8055 30.6969,0 59.9091,12.1051 81.6107,33.8067 21.7004,21.7016 33.8055,50.9138 33.8055,81.6095 0,3.47362 -0.154725,6.92717 -0.461811,10.3536zm-120.724 -232.986l0.00354331 0 -0.546851 0.341339 0.543308 -0.341339zm314.029 -47.3752l-272.019 0c38.7284,-42.737 85.9902,-78.7642 138.123,-105.673 42.117,-21.7382 87.3946,-37.5 133.896,-46.0181l0 151.691zm-317.207 49.3099l1.01693 -0.602363c-0.335433,0.201969 -0.676772,0.403937 -1.01693,0.602363zm-216.342 187.324l0 -0.0767717 -14.2087 14.2063 14.2087 -14.1295zm0 0l0.0791339 -0.0791339 -0.0767717 0 -0.00236221 0.00236221 0 0.0767717zm0.0791339 -0.0791339l2.26417 -2.25236 -0.0188977 -0.068504 -2.32205 2.32087 0.0767717 0z"/>
     <path id="_303667032" class="fil0" d="M264.662 1177.41c-13.0819,0 -23.6882,10.6063 -23.6882,23.687 0,13.0819 10.6063,23.6882 23.6882,23.6882l131.063 0c13.0819,0 23.6882,-10.6063 23.6882,-23.6882 0,-13.0807 -10.6063,-23.687 -23.6882,-23.687l-131.063 0z"/>
     <path id="_303666936" class="fil0" d="M546.611 1118.86c26.3811,0 50.2666,10.6961 67.5556,27.9851 17.289,17.2902 27.9851,41.1756 27.9851,67.5556 0,26.3811 -10.6961,50.2666 -27.9851,67.5556 -17.289,17.289 -41.1744,27.9851 -67.5556,27.9851 -26.3799,0 -50.2654,-10.6961 -67.5556,-27.9851 -17.289,-17.289 -27.9851,-41.1756 -27.9851,-67.5556 0,-26.3799 10.6961,-50.2654 27.9851,-67.5556 17.2902,-17.289 41.1756,-27.9851 67.5556,-27.9851zm25.3299 70.2107c-6.48071,-6.48189 -15.4358,-10.4906 -25.3299,-10.4906 -9.89292,0 -18.8492,4.00985 -25.3299,10.4906 -6.48071,6.48071 -10.4906,15.437 -10.4906,25.3299 0,9.89292 4.00985,18.8492 10.4906,25.3299 6.48071,6.48071 15.437,10.4906 25.3299,10.4906 9.8941,0 18.8492,-4.00866 25.3299,-10.4906 6.48189,-6.48071 10.4906,-15.4358 10.4906,-25.3299 0,-9.89292 -4.00985,-18.8492 -10.4906,-25.3299z"/>
     <path id="_303667200" class="fil0" d="M1190.39 1118.86c26.3811,0 50.2666,10.6961 67.5556,27.9851 17.289,17.2902 27.9851,41.1756 27.9851,67.5556 0,26.3811 -10.6961,50.2666 -27.9851,67.5556 -17.289,17.289 -41.1744,27.9851 -67.5556,27.9851 -26.3799,0 -50.2666,-10.6961 -67.5556,-27.9851 -17.289,-17.289 -27.9851,-41.1756 -27.9851,-67.5556 0,-26.3799 10.6961,-50.2654 27.9851,-67.5556 17.289,-17.289 41.1756,-27.9851 67.5556,-27.9851zm25.3299 70.2107c-6.48071,-6.48189 -15.4358,-10.4906 -25.3299,-10.4906 -9.89292,0 -18.8492,4.00985 -25.3299,10.4906 -6.48071,6.48071 -10.4906,15.437 -10.4906,25.3299 0,9.89292 4.00985,18.8492 10.4906,25.3299 6.48071,6.48071 15.437,10.4906 25.3299,10.4906 9.8941,0 18.8492,-4.00866 25.3299,-10.4906 6.48189,-6.48071 10.4906,-15.4358 10.4906,-25.3299 0,-9.89292 -4.00985,-18.8492 -10.4906,-25.3299z"/>
    </g>
    <path id="_303666768" class="fil1" d="M484.21 910.148l17.7236 6.60001c2.75788,1.02638 5.82402,2.43189 6.62953,5.34567l8.38465 30.3697c0.805512,2.91496 -1.12323,5.34567 -4.06418,5.34567l-34.4681 0c-2.94213,0 -5.92441,-2.40473 -6.62953,-5.34567l-4.73741 -19.7362c-2.97874,-12.4181 5.52166,-26.9126 17.1614,-22.5792z"/>
   </g>
  </g>
 </g>
 <rect class="fil2" width="2048" height="2048"/>
</svg>
