<svg xmlns="http://www.w3.org/2000/svg" viewBox="0 0 388 243">
  <defs>
    <style>
      .cls-1 {
        fill: #2394fb;
        font-size: 200px;
        font-family: Cabin-Regular, Cabin;
      }
    </style>
  </defs>
  <text id="_500" data-name="500" class="cls-1" transform="translate(0 193)"><tspan x="0" y="0">500</tspan></text>
</svg>
