<svg xmlns="http://www.w3.org/2000/svg" viewBox="0 0 9 41">
  <defs>
    <style>
      .cls-1 {
        fill: #fff;
      }
    </style>
  </defs>
  <g id="Group_581" data-name="Group 581" transform="translate(-1079 -91)">
    <circle id="Ellipse_86" data-name="Ellipse 86" class="cls-1" cx="4.5" cy="4.5" r="4.5" transform="translate(1079 91)"/>
    <circle id="Ellipse_87" data-name="Ellipse 87" class="cls-1" cx="4.5" cy="4.5" r="4.5" transform="translate(1079 107)"/>
    <circle id="Ellipse_88" data-name="Ellipse 88" class="cls-1" cx="4.5" cy="4.5" r="4.5" transform="translate(1079 123)"/>
  </g>
</svg>
