<svg xmlns="http://www.w3.org/2000/svg" viewBox="0 0 118 118">
  <defs>
    <style>
      .cls-1 {
        fill: #cde3ff;
      }

      .cls-2 {
        fill: #2688ff;
      }
    </style>
  </defs>
  <g id="Group_568" data-name="Group 568" transform="translate(-1293 -3815)">
    <rect id="Rectangle_236" data-name="Rectangle 236" class="cls-1" width="118" height="118" rx="59" transform="translate(1293 3815)"/>
    <g id="news_1_" transform="translate(1320 3852)">
      <path id="Path_646" data-name="Path 646" class="cls-2" d="M6.038,74.094A6.262,6.262,0,0,1,0,67.783V63.666a1.1,1.1,0,0,1,2.2,0v4.117A4.091,4.091,0,0,0,6.038,71.9a1.1,1.1,0,1,1,0,2.2Z" transform="translate(0 -28.226)"/>
      <path id="Path_647" data-name="Path 647" class="cls-2" d="M1.1,54.057a1.1,1.1,0,0,1-1.1-1.1V49.666a1.1,1.1,0,1,1,2.2,0v3.293A1.1,1.1,0,0,1,1.1,54.057Z" transform="translate(0 -21.911)"/>
      <path id="Path_648" data-name="Path 648" class="cls-2" d="M1.1,33.83a1.1,1.1,0,0,1-1.1-1.1V26.419a5.679,5.679,0,0,1,4.722-5.633,1.1,1.1,0,0,1,.433,2.152A3.532,3.532,0,0,0,2.2,26.419v6.313A1.1,1.1,0,0,1,1.1,33.83Z" transform="translate(0 -9.368)"/>
      <path id="Path_649" data-name="Path 649" class="cls-2" d="M9.1,41.97a1.1,1.1,0,0,1-1.1-1.1V12.331c0-3.608,1.846-5.763,4.94-5.763a1.1,1.1,0,0,1,0,2.2c-.75,0-2.744,0-2.744,3.567V40.872A1.1,1.1,0,0,1,9.1,41.97Z" transform="translate(-3.609 -2.963)"/>
      <path id="Path_650" data-name="Path 650" class="cls-2" d="M57.484,46.1H9.405V43.672a3.989,3.989,0,0,0,3.842-4.116V5.525C13.247,2.24,15.62,0,19.062,0H57.484c3.442,0,6.259,2.24,6.259,5.525V39.556A6.669,6.669,0,0,1,57.484,46.1Zm-43.766-2.2H57.484a4.509,4.509,0,0,0,4.064-4.353V5.525c0-2.034-1.874-3.33-4.064-3.33H19.062c-2.19,0-3.619,1.3-3.619,3.33V39.556A7.26,7.26,0,0,1,13.717,43.909Z" transform="translate(-4.243)"/>
      <g id="Group_546" data-name="Group 546" transform="translate(14.271 25.248)">
        <path id="Path_651" data-name="Path 651" class="cls-2" d="M64.421,60.2H27.1a1.1,1.1,0,1,1,0-2.2H64.421a1.1,1.1,0,1,1,0,2.2Z" transform="translate(-26 -51.414)"/>
        <path id="Path_652" data-name="Path 652" class="cls-2" d="M53.992,72.2H27.1a1.1,1.1,0,1,1,0-2.2H53.992a1.1,1.1,0,0,1,0,2.2Z" transform="translate(-26 -56.827)"/>
        <path id="Path_653" data-name="Path 653" class="cls-2" d="M64.421,48.2H27.1a1.1,1.1,0,1,1,0-2.2H64.421a1.1,1.1,0,1,1,0,2.2Z" transform="translate(-26 -46)"/>
      </g>
      <g id="Group_547" data-name="Group 547" transform="translate(33.481 5.489)">
        <path id="Path_654" data-name="Path 654" class="cls-2" d="M80.21,24.2H62.1a1.1,1.1,0,1,1,0-2.2H80.21a1.1,1.1,0,0,1,0,2.2Z" transform="translate(-61 -15.414)"/>
        <path id="Path_655" data-name="Path 655" class="cls-2" d="M75.271,36.2H62.1a1.1,1.1,0,1,1,0-2.2H75.271a1.1,1.1,0,0,1,0,2.2Z" transform="translate(-61 -20.827)"/>
        <path id="Path_656" data-name="Path 656" class="cls-2" d="M80.21,12.2H62.1a1.1,1.1,0,1,1,0-2.2H80.21a1.1,1.1,0,0,1,0,2.2Z" transform="translate(-61 -10)"/>
      </g>
      <path id="Path_657" data-name="Path 657" class="cls-2" d="M37.887,24.936H29.481A3.485,3.485,0,0,1,26,21.455V13.049a3.485,3.485,0,0,1,3.481-3.481h8.406a3.485,3.485,0,0,1,3.481,3.481v8.406A3.485,3.485,0,0,1,37.887,24.936ZM29.481,11.763A1.287,1.287,0,0,0,28.2,13.049v8.406a1.287,1.287,0,0,0,1.285,1.285h8.406a1.287,1.287,0,0,0,1.285-1.285V13.049a1.287,1.287,0,0,0-1.285-1.285Z" transform="translate(-11.729 -4.316)"/>
    </g>
  </g>
</svg>
