<?xml version="1.0" encoding="UTF-8"?>
<!DOCTYPE svg PUBLIC "-//W3C//DTD SVG 1.1//EN" "http://www.w3.org/Graphics/SVG/1.1/DTD/svg11.dtd">
<!-- Creator: CorelDRAW -->
<svg xmlns="http://www.w3.org/2000/svg" xml:space="preserve" width="2048px" height="2048px" style="shape-rendering:geometricPrecision; text-rendering:geometricPrecision; image-rendering:optimizeQuality; fill-rule:evenodd; clip-rule:evenodd"
viewBox="0 0 2048 2048"
 xmlns:xlink="http://www.w3.org/1999/xlink">
 <defs>
  <style type="text/css">
   <![CDATA[
    .fil0 {fill:none}
    .fil1 {fill:#424242}
   ]]>
  </style>
 </defs>
 <g id="Layer_x0020_1">
  <metadata id="CorelCorpID_0Corel-Layer"/>
  <rect class="fil0" width="2048" height="2048"/>
  <rect class="fil0" x="255.999" y="255.999" width="1536" height="1536"/>
  <rect class="fil0" x="255.999" y="255.999" width="1536" height="1536"/>
  <g id="_561091264">
   <rect id="_561091360" class="fil0" x="255.999" y="255.999" width="1536" height="1536"/>
   <path id="_561091336" class="fil1" d="M1504.01 255.999l-959.997 0c-53.0729,0 -96.0072,42.978 -96.0072,96.006l0 1343.99c0,53.0705 42.9343,96.0072 96.0072,96.0072l959.997 0c53.0552,0 95.9883,-42.952 95.9883,-96.0072l0.0011811 -1343.99c0,-53.0292 -42.9355,-96.006 -95.9894,-96.006zm-479.998 1488c-39.7583,0 -72.0154,-32.2571 -72.0154,-71.9965 0,-39.7559 32.2571,-72.0142 72.0154,-72.0142 39.7382,0 71.9953,32.2583 71.9953,72.0142 0,39.7394 -32.2571,71.9965 -71.9953,71.9965zm431.993 -191.995l-864.007 0 0 -1152.01 864.007 0 0 1152.01z"/>
  </g>
 </g>
</svg>
