<?xml version="1.0" encoding="UTF-8"?>
<!DOCTYPE svg PUBLIC "-//W3C//DTD SVG 1.1//EN" "http://www.w3.org/Graphics/SVG/1.1/DTD/svg11.dtd">
<!-- Creator: CorelDRAW -->
<svg xmlns="http://www.w3.org/2000/svg" xml:space="preserve" width="2048px" height="2048px" style="shape-rendering:geometricPrecision; text-rendering:geometricPrecision; image-rendering:optimizeQuality; fill-rule:evenodd; clip-rule:evenodd"
viewBox="0 0 2048 2048"
 xmlns:xlink="http://www.w3.org/1999/xlink">
 <defs>
  <style type="text/css">
   <![CDATA[
    .fil0 {fill:none}
    .fil1 {fill:#4B4B4D}
   ]]>
  </style>
 </defs>
 <g id="Layer_x0020_1">
  <metadata id="CorelCorpID_0Corel-Layer"/>
  <rect class="fil0" width="2048" height="2048"/>
  <rect class="fil0" x="255.999" y="255.999" width="1536" height="1536"/>
  <g id="_207594288">
   <rect id="_207594480" class="fil0" x="255.999" y="255.997" width="1536" height="1536"/>
   <path id="_207594312" class="fil1" d="M380.53 1001.15c-29.6788,17.2087 -47.6788,49.2213 -46.6406,83.5583 0.838583,34.3488 20.3811,65.5689 51.0319,81.0107l334.813 170.737 933.198 -1008.19 -795.423 1078.64 457.883 233.322c28.9736,14.8276 63.5457,15.3969 93.2009,0.949607 29.4319,-14.3917 50.328,-41.7685 56.7969,-73.826l248.127 -1271.39c2.58189,-12.9284 -2.7378,-26.191 -13.4646,-33.7335 -7.03938,-5.00552 -15.4642,-7.01693 -23.6433,-5.9563l-1.76575 0.279921c-3.6874,0.693308 -7.30749,2.03386 -10.7268,4.0004l-1283.39 740.593zm279.57 419.255l7.08426 13.6547 162.279 309.07c12.0449,23.0847 34.0016,40.4044 58.7079,46.6063 24.4477,6 48.6284,-0.0897638 63.7914,-16.337 61.4894,-65.2997 141.718,-151.461 137.495,-155.038l-429.357 -197.956z"/>
  </g>
 </g>
</svg>
