<?xml version="1.0" encoding="UTF-8"?>
<!DOCTYPE svg PUBLIC "-//W3C//DTD SVG 1.1//EN" "http://www.w3.org/Graphics/SVG/1.1/DTD/svg11.dtd">
<!-- Creator: CorelDRAW -->
<svg xmlns="http://www.w3.org/2000/svg" xml:space="preserve" width="2048px" height="2048px" style="shape-rendering:geometricPrecision; text-rendering:geometricPrecision; image-rendering:optimizeQuality; fill-rule:evenodd; clip-rule:evenodd"
viewBox="0 0 2048 2048"
 xmlns:xlink="http://www.w3.org/1999/xlink">
 <defs>
  <style type="text/css">
   <![CDATA[
    .fil0 {fill:none}
    .fil1 {fill:#424242}
   ]]>
  </style>
 </defs>
 <g id="Layer_x0020_1">
  <metadata id="CorelCorpID_0Corel-Layer"/>
  <rect class="fil0" width="2048" height="2048"/>
  <rect class="fil0" x="255.999" y="255.999" width="1536" height="1536"/>
  <rect class="fil0" x="256" y="256" width="1536" height="1536"/>
  <g id="_494837432">
   <rect id="_494837912" class="fil0" x="256" y="256" width="1536" height="1536"/>
   <path id="_494837840" class="fil1" d="M1599.77 591.948l0 -191.935 -1343.78 0 0 1056.04c0,0 0,191.935 191.92,191.935l1199.92 0c0,0 144.165,-3.06142 144.165,-191.935l0 -864.105 -192.226 0zm-1151.86 959.919c-95.8146,0 -95.8146,-95.8146 -95.8146,-95.8146l0 -959.919 1151.86 0 0 959.919c0,44.0469 13.5709,74.7603 32.3457,95.8146l-1088.39 0z"/>
   <polygon id="_494837768" class="fil1" points="969.532,688.053 1407.86,688.053 1407.86,783.918 969.532,783.918 "/>
   <polygon id="_494837696" class="fil1" points="975.94,1263.83 1312.04,1263.83 1312.04,1359.95 975.94,1359.95 "/>
   <polygon id="_494837624" class="fil1" points="975.94,1071.91 1407.86,1071.91 1407.86,1168.01 975.94,1168.01 "/>
   <polygon id="_494837552" class="fil1" points="975.94,879.972 1407.86,879.972 1407.86,976.092 975.94,976.092 "/>
   <polygon id="_494837504" class="fil1" points="447.919,693.454 879.836,693.454 879.836,1259.49 447.919,1259.49 "/>
  </g>
 </g>
</svg>
