<?xml version="1.0" encoding="UTF-8"?>
<!DOCTYPE svg PUBLIC "-//W3C//DTD SVG 1.1//EN" "http://www.w3.org/Graphics/SVG/1.1/DTD/svg11.dtd">
<!-- Creator: CorelDRAW -->
<svg xmlns="http://www.w3.org/2000/svg" xml:space="preserve" width="2048px" height="2048px" style="shape-rendering:geometricPrecision; text-rendering:geometricPrecision; image-rendering:optimizeQuality; fill-rule:evenodd; clip-rule:evenodd"
viewBox="0 0 2048 2048"
 xmlns:xlink="http://www.w3.org/1999/xlink">
 <defs>
  <style type="text/css">
   <![CDATA[
    .fil0 {fill:none}
    .fil1 {fill:#4B4B4D}
   ]]>
  </style>
 </defs>
 <g id="Layer_x0020_1">
  <metadata id="CorelCorpID_0Corel-Layer"/>
  <rect class="fil0" width="2048" height="2048"/>
  <rect class="fil0" x="255.999" y="255.999" width="1536" height="1536"/>
  <rect class="fil0" x="255.999" y="255.999" width="1536" height="1536"/>
  <line class="fil0" x1="487.036" y1="1408" x2="1376" y2= "1408" />
  <g id="_561441888">
   <rect id="_561442056" class="fil0" x="255.999" y="255.999" width="1536" height="1536"/>
   <path id="_561441960" class="fil1" d="M1510.73 255.999l-1155.95 0 0 1379.3 1155.95 0 0 -1379.3zm-499.241 256.727l376.832 0 0 72.7335 -376.832 0 0 -72.7335zm0 219.673l376.832 0 0 72.7335 -376.832 0 0 -72.7335zm0 219.664l376.832 0 0 72.7335 -376.832 0 0 -72.7335zm0 219.673l376.832 0 0 72.7335 -376.832 0 0 -72.7335zm-531.474 219.664l908.306 0 0 72.7335 -908.306 0 0 -72.7335zm1078 -979.05l0 69.5516 65.6705 0 0 1240.29 -1016.89 0 0 -48.2729 -69.8493 0 0 118.078 1156.27 0 0 -1379.65 -135.196 0zm-622.972 391.598c2.48032,7.17756 4.05827,14.5228 4.05827,22.0772 0,70.3146 -114.074,127.387 -254.783,127.387 -140.708,0 -254.782,-57.0721 -254.782,-127.387 0,-7.55434 1.54252,-14.8996 4.05709,-22.0772 43.2603,51.0166 137.966,85.7658 250.725,85.7658 112.75,0 207.464,-34.7492 250.725,-85.7658zm-250.725 170.699c-112.759,0 -207.464,-34.7587 -250.725,-85.7564 -2.51457,7.1693 -4.05709,14.5134 -4.05709,22.05 0,70.3406 114.073,127.396 254.782,127.396 140.708,0 254.783,-57.0556 254.783,-127.396 0,-7.54607 -1.57795,-14.8807 -4.05827,-22.05 -43.2603,51.0071 -137.974,85.7564 -250.725,85.7564zm0 84.9249c-112.759,0 -207.464,-34.7492 -250.725,-85.7575 -2.51457,7.1693 -4.05709,14.5134 -4.05709,22.0689 0,70.3229 114.073,127.387 254.782,127.387 140.708,0 254.783,-57.0638 254.783,-127.387 0,-7.56379 -1.57795,-14.8996 -4.05827,-22.0689 -43.2603,51.0083 -137.974,85.7575 -250.725,85.7575zm0 84.9249c-112.759,0 -207.464,-34.741 -250.725,-85.7493 -2.51457,7.1693 -4.05709,14.5051 -4.05709,22.0512 0,70.3323 114.073,127.395 254.782,127.395 140.708,0 254.783,-57.0626 254.783,-127.395 0,-7.54607 -1.57795,-14.8819 -4.05827,-22.0512 -43.2603,51.0083 -137.974,85.7493 -250.725,85.7493zm0 84.9331c-112.759,0 -207.464,-34.7504 -250.725,-85.7658 -2.51457,7.17756 -4.05709,14.5217 -4.05709,22.0677 0,70.3229 114.073,127.395 254.782,127.395 140.708,0 254.783,-57.0721 254.783,-127.395 0,-7.54607 -1.57795,-14.8902 -4.05827,-22.0677 -43.2603,51.0154 -137.974,85.7658 -250.725,85.7658zm-254.782 -488.338c0,-70.3323 114.073,-127.395 254.782,-127.395 140.708,0 254.783,57.0626 254.783,127.395 0,70.3229 -114.074,127.395 -254.783,127.395 -140.708,0 -254.782,-57.0721 -254.782,-127.395zm300.645 28.291c0,4.22363 -3.55866,7.86142 -10.702,10.8496 -7.12441,3.03189 -18.3165,4.52244 -33.4607,4.52244 -32.3835,0 -51.4548,-6.99449 -57.2304,-21.0166l-62.1993 6.46772c12.5599,22.3051 45.1276,34.5402 97.7469,36.6957l0 19.1232 40.2189 0 0 -19.2106c31.5591,-1.32402 55.6867,-5.75788 72.4004,-13.2343 16.7221,-7.49292 25.0914,-16.8177 25.0914,-28.115 0,-7.29213 -4.07481,-13.6807 -12.1465,-19.1587 -8.12481,-5.43426 -18.9579,-9.74528 -32.5595,-12.8398 -13.5579,-3.08504 -32.2961,-6.39804 -56.178,-9.87639 -21.7441,-3.18189 -35.9587,-5.89843 -42.5587,-8.04568 -6.63426,-2.16496 -9.94725,-5.27599 -9.94725,-9.29056 0,-3.97914 3.43583,-7.3878 10.3335,-10.1658 6.82678,-2.77914 15.9591,-4.18937 27.326,-4.18937 22.6288,0 39.2988,6.26575 50.1225,18.7547l55.415 -9.12284c-13.2331,-18.1854 -42.3485,-28.3701 -87.2989,-30.5351l0 -14.8288 -40.2189 0 0 14.8382c-29.7803,1.69961 -51.5941,6.30119 -65.4508,13.8118 -13.8378,7.50237 -20.8063,16.0122 -20.8063,25.4162 0,7.13386 3.9,13.435 11.648,18.861 7.76457,5.39764 17.8701,9.59646 30.3154,12.5847 12.4358,2.97992 29.7189,6.05552 51.8221,9.11457 24.6012,3.47953 40.4906,6.30119 47.615,8.63268 7.14331,2.22638 10.702,5.54764 10.702,9.9567z"/>
  </g>
 </g>
</svg>
