<?xml version="1.0" encoding="UTF-8"?>
<!DOCTYPE svg PUBLIC "-//W3C//DTD SVG 1.1//EN" "http://www.w3.org/Graphics/SVG/1.1/DTD/svg11.dtd">
<!-- Creator: CorelDRAW -->
<svg xmlns="http://www.w3.org/2000/svg" xml:space="preserve" width="2048px" height="2048px" style="shape-rendering:geometricPrecision; text-rendering:geometricPrecision; image-rendering:optimizeQuality; fill-rule:evenodd; clip-rule:evenodd"
viewBox="0 0 2048 2048"
 xmlns:xlink="http://www.w3.org/1999/xlink">
 <defs>
  <style type="text/css">
   <![CDATA[
    .fil0 {fill:none}
    .fil1 {fill:#424242}
   ]]>
  </style>
 </defs>
 <g id="Layer_x0020_1">
  <metadata id="CorelCorpID_0Corel-Layer"/>
  <rect class="fil0" width="2048" height="2048"/>
  <rect class="fil0" x="255.999" y="255.999" width="1536" height="1536"/>
  <g id="_562384312">
   <rect id="_562384408" class="fil0" x="255.999" y="256" width="1536" height="1536"/>
   <path id="_562384384" class="fil1" d="M1782.6 1179.04l-271.467 513.669c-13.3087,25.578 -50.9115,52.5957 -80.0186,52.5957l-1088.43 0.154725c-23.0563,0 -45.0272,-9.11221 -61.343,-25.3441 -16.2307,-16.2319 -25.3441,-38.2866 -25.3441,-61.2638l0.155906 -845.234c0,-47.7721 38.7366,-86.6091 86.6079,-86.6091l79.552 -0.155906 0 73.9064 -53.2063 0c-10.5083,0 -20.4437,4.13386 -27.8729,11.485 -7.35237,7.35237 -11.4862,17.3882 -11.4862,27.7961l0.0779528 792.328c0,21.7382 17.6032,39.3638 39.3414,39.3638l54.5351 0 257.215 -520.408c14.5476,-29.113 42.0319,-52.5343 71.0599,-52.5343l629.989 0 0.13937 -209.444c41.2099,3.83977 73.6725,37.9146 73.6725,80.0186l0 129.425 288.911 0c34.0902,0.31063 62.8087,34.0689 37.9134,80.2512zm-1310.13 230.714c-2.29488,-259.06 0,-1036.13 0,-1036.13 0,-39.2091 31.9347,-71.0611 71.0611,-71.0611l569.024 0c9.1193,0 17.8429,3.82323 23.9776,10.4858l183.937 199.935c5.58544,5.97993 8.64686,13.8591 8.64686,22.0547l0 517.804 -59.6528 0 0 -473.087c0,-8.19686 -6.66851,-14.8429 -14.8583,-14.8429l-140.816 0c-16.4646,0 -29.8736,-13.4079 -29.8736,-29.8736l0 -157.963c0,-8.19686 -6.64607,-14.8595 -14.837,-14.8595l-525.465 0c-6.27284,0 -11.413,5.11772 -11.413,11.4083l0 970.968 -45.6331 92.432c0,-0.0767717 -13.8591,-1.07717 -14.0976,-27.267zm703.505 -784.053l-549.97 0c-20.2099,0 -36.6803,16.4646 -36.6803,36.6744 0,20.289 16.4705,36.7595 36.6803,36.7595l549.97 0c20.2878,0 36.7524,-16.4705 36.7524,-36.7595 0,-20.2099 -16.4646,-36.6744 -36.7524,-36.6744zm36.7524 250.546c0,-20.2099 -16.4646,-36.6744 -36.7524,-36.6744l-549.97 0c-20.2099,0 -36.6803,16.4646 -36.6803,36.6744 0,20.2323 16.4705,36.6981 36.6803,36.6981l549.97 0c20.2878,0 36.7524,-16.4658 36.7524,-36.6981z"/>
  </g>
 </g>
</svg>
